{
    "private": true,
    "scripts": {
        "dev": "npm run development",
        "development": "cross-env NODE_ENV=development node_modules/webpack/bin/webpack.js --progress --hide-modules --config=node_modules/laravel-mix/setup/webpack.config.js",
        "watch": "npm run development -- --watch",
        "watch-poll": "npm run watch -- --watch-poll",
        "hot": "cross-env NODE_ENV=development node_modules/webpack-dev-server/bin/webpack-dev-server.js --inline --hot --config=node_modules/laravel-mix/setup/webpack.config.js",
        "prod": "npm run production",
        "production": "cross-env NODE_ENV=production node_modules/webpack/bin/webpack.js --no-progress --hide-modules --config=node_modules/laravel-mix/setup/webpack.config.js"
    },
    "devDependencies": {
        "axios": "^0.18",
        "babel-preset-react": "^6.23.0",
        "browser-sync": "^2.24.7",
        "browser-sync-webpack-plugin": "2.0.1",
        "cross-env": "^5.1",
        "jquery": "^3.2",
        "laravel-mix": "^2.0",
        "lodash": "^4.17.5",
        "popper.js": "^1.12",
        "react": "^16.2.0",
        "react-dom": "^16.2.0"
    },
    "dependencies": {
        "cleave.js": "^1.4.4",
        "cropit": "^0.5.1"
    }
}
