<?xml version="1.0" encoding="UTF-8"?>
<svg width="26px" height="26px" viewBox="0 0 26 26" version="1.1" xmlns="http://www.w3.org/2000/svg" xmlns:xlink="http://www.w3.org/1999/xlink">
    <!-- Generator: Sketch 44.1 (41455) - http://www.bohemiancoding.com/sketch -->
    <title>Artboard</title>
    <desc>Created with Sketch.</desc>
    <defs></defs>
    <g id="Page-1" stroke="none" stroke-width="1" fill="none" fill-rule="evenodd" stroke-linecap="square">
        <g id="Artboard" stroke="#000000" stroke-width="3">
            <g id="Group" transform="translate(3.000000, 8.000000)">
                <path d="M0.454545455,0.458333333 L10.0108164,10.0942399" id="Line"></path>
                <path d="M9.54545455,0.458333333 L19.1017255,10.0942399" id="Line" transform="translate(14.545455, 5.500000) scale(-1, 1) translate(-14.545455, -5.500000) "></path>
            </g>
        </g>
    </g>
</svg>