<?xml version="1.0" encoding="UTF-8"?>
<svg width="26px" height="27px" viewBox="0 0 26 27" version="1.1" xmlns="http://www.w3.org/2000/svg" xmlns:xlink="http://www.w3.org/1999/xlink">
    <!-- Generator: Sketch 44.1 (41455) - http://www.bohemiancoding.com/sketch -->
    <title>Artboard</title>
    <desc>Created with Sketch.</desc>
    <defs></defs>
    <g id="Page-1" stroke="none" stroke-width="1" fill="none" fill-rule="evenodd">
        <g id="Artboard" fill="#EEEEEE">
            <g id="Page-1" transform="translate(3.000000, 4.000000)">
                <path d="M16.6667,2.2222 L13.8887,2.2222 C11.7407,2.2222 9.9997,3.9632 9.9997,6.1112 L9.9997,8.8892 L7.7777,8.8892 L7.7777,12.2222 L9.9997,12.2222 L9.9997,20.0002 L13.3337,20.0002 L13.3337,12.2222 L16.6667,12.2222 L16.6667,8.8892 L13.3337,8.8892 L13.3337,6.6662 C13.3337,6.0532 13.8307,5.5552 14.4447,5.5552 L16.6667,5.5552 L16.6667,2.2222 Z M2.2227,0.0002 L17.7777,0.0002 C19.0047,0.0002 19.9997,0.9952 19.9997,2.2222 L19.9997,17.7782 C19.9997,19.0052 19.0047,20.0002 17.7777,20.0002 L2.2227,20.0002 C0.9947,20.0002 -0.0003,19.0052 -0.0003,17.7782 L-0.0003,2.2222 C-0.0003,0.9952 0.9947,0.0002 2.2227,0.0002 L2.2227,0.0002 Z" id="Fill-1"></path>
            </g>
        </g>
    </g>
</svg>