<?xml version="1.0" encoding="utf-8"?>
<!-- Generator: Adobe Illustrator 23.0.1, SVG Export Plug-In . SVG Version: 6.00 Build 0)  -->
<svg version="1.1" id="Layer_1" xmlns="http://www.w3.org/2000/svg" xmlns:xlink="http://www.w3.org/1999/xlink" x="0px" y="0px"
	 viewBox="0 0 246.1 31" style="enable-background:new 0 0 246.1 31;" xml:space="preserve">
<style type="text/css">
	.st0{fill:#FFFFFF;}
	.st1{fill:#FFA502;}
</style>
<title>Artboard</title>
<desc>Created with Sketch.</desc>
<g id="Group-3" transform="translate(0.000000, 0.275838)">
	<g id="Fill-1-Clipped">
		<g id="path-1_1_">
		</g>
		<path id="Fill-1" class="st0" d="M43.3,18.3C43.3,17,36,17,36,11c0-3,3-6,7.7-6C48.5,5,51,8,51,8l-2.6,4c0,0-1.6-1.5-3.5-1.5
			c-0.7,0-1.1,0.4-1.1,0.8c0,1.3,7.3,1.3,7.3,7.3c0,3.1-3,6.1-7.7,6.1c-5.9,0-8.3-3.2-8.3-3.2l2.6-4c0,0,1.9,1.8,4.6,1.8
			C42.9,19.1,43.3,18.7,43.3,18.3"/>
	</g>
</g>
<polygon id="Fill-4" class="st0" points="68.3,6.2 68.3,12.3 63.2,12.3 63.2,25 56.2,25 56.2,12.3 51.1,12.3 51.1,6.2 "/>
<path id="Fill-6" class="st0" d="M78.6,11.9c-1.6,0-3,1.3-3,3.2s1.3,3.2,3,3.2c1.6,0,3-1.3,3-3.2S80.2,11.9,78.6,11.9 M78.6,25
	c-6.2,0-10.5-4.3-10.5-9.8s4.3-9.8,10.5-9.8s10.5,4.3,10.5,9.8S84.8,25,78.6,25"/>
<path id="Fill-8" class="st0" d="M97.9,14c0.9,0,1.6-0.7,1.6-1.5S98.8,11,97.9,11h-0.8v3H97.9z M100.6,25l-3.2-6.2h-0.3V25h-7V6.2
	c0,0,3.8-0.3,7.8-0.3c5.9,0,8.6,2.7,8.6,6.6s-2.4,5.3-2.4,5.3l4.6,7.3L100.6,25L100.6,25z"/>
<polygon id="Fill-10" class="st0" points="116,11.5 117.9,6.2 126,6.2 119.5,17.7 119.5,25 112.6,25 112.6,17.7 106.1,6.2 
	114.2,6.2 "/>
<path id="Fill-12" class="st1" d="M135.9,14c0.9,0,1.6-0.7,1.6-1.5s-0.7-1.5-1.6-1.5h-0.8v3H135.9z M138.6,25l-3.2-6.2h-0.3V25h-7
	V6.2c0,0,3.8-0.3,7.8-0.3c5.9,0,8.6,2.7,8.6,6.6s-2.4,5.3-2.4,5.3l4.6,7.3L138.6,25L138.6,25z"/>
<path id="Fill-14" class="st1" d="M156.6,11.9c-1.6,0-3,1.3-3,3.2s1.3,3.2,3,3.2c1.6,0,3-1.3,3-3.2
	C159.5,13.3,158.2,11.9,156.6,11.9 M156.6,25c-6.2,0-10.5-4.3-10.5-9.8s4.3-9.8,10.5-9.8s10.5,4.3,10.5,9.8S162.8,25,156.6,25"/>
<path id="Fill-16" class="st1" d="M178,5.3c5.1,0,7.5,3,7.5,3l-3.2,5.1c0,0-1.6-1.5-3.5-1.5s-3.2,1.3-3.2,3.2s1.3,3.2,3.2,3.2
	s3.5-1.5,3.5-1.5l3.2,5.1c0,0-2.4,3-7.5,3c-5.6,0-9.9-4.3-9.9-9.8S172.4,5.3,178,5.3"/>
<polygon id="Fill-18" class="st1" points="200.3,15.6 205.9,25 197.9,25 194.1,17.5 194.1,25 187.1,25 187.1,6.2 194.1,6.2 
	194.1,13.7 197.3,6.2 205.4,6.2 "/>
<polygon id="Fill-20" class="st1" points="213.1,19.6 221.2,19.6 221.2,25 206.1,25 206.1,6.2 220.6,6.2 220.6,11.5 213.1,11.5 
	213.1,12.9 220.1,12.9 220.1,18.3 213.1,18.3 "/>
<polygon id="Fill-22" class="st1" points="240.3,6.2 240.3,12.3 235.2,12.3 235.2,25 228.2,25 228.2,12.3 223.1,12.3 223.1,6.2 "/>
<g>
	<g>
		<g>
			<g>
				<g>
					<path class="st1" d="M11.9,3.1c-1.6,0.6-3,1.4-4.2,2.5c-1.3,1.1-2.3,2.5-3,4.1s-1.2,3.2-1.2,5c-0.1,1.7,0.2,3.3,0.7,4.9
						c0.2,0.4,0.3,0.8,0.5,1.2l0,0c0.2-0.6,0.4-1.2,0.7-1.8c-1-2.9-0.8-5.9,0.5-8.7c1.2-2.8,3.5-4.9,6.4-6c1.6-0.6,3.3-0.8,5-0.6
						c0.1,0,0.1-0.1,0.2-0.1C18,3.3,18.6,3,19.1,2.7c-0.8-0.2-1.6-0.3-2.4-0.3C15.1,2.3,13.4,2.5,11.9,3.1z M8,23.3
						c-0.1-0.1-0.1-0.1-0.2-0.2c-0.4,0.2-0.7,0.5-1,0.9c0.3,0.3,0.5,0.6,0.8,0.8c0-0.2,0-0.4,0.1-0.6C7.8,23.8,7.9,23.5,8,23.3z
						 M15.2,26.6c-0.2,0.5-0.6,0.9-1,1.2c0.4,0.1,0.8,0.1,1.2,0.1c0.1-0.5,0.1-0.9,0-1.3C15.3,26.7,15.2,26.6,15.2,26.6z M29.1,15.7
						c0.1-1.7-0.2-3.3-0.7-4.9c-0.6-1.6-1.4-3-2.5-4.2C25.4,6,24.8,5.5,24.2,5c0,0.1,0,0.2,0.1,0.3c0.1,0.6,0.2,1.2,0.3,1.8
						c1.2,1.2,2,2.6,2.6,4.2c1,2.9,0.9,6-0.4,8.8c-1.3,2.7-3.6,4.8-6.4,5.9c-0.2,0.6-0.5,1.1-0.9,1.6l-0.1,0.1
						c0.4-0.1,0.9-0.2,1.3-0.4c1.6-0.6,3-1.4,4.2-2.5c1.3-1.1,2.3-2.5,3-4.1C28.6,19.1,29,17.4,29.1,15.7z"/>
					<g>
						<path class="st1" d="M14.5,25.6c0.1-0.4,0.1-0.9,0.1-1.3c-0.1-0.4-0.2-0.8-0.5-1.2l0,0l0,0H14c0,0,0,0,0,0.1c0,0,0,0,0,0.1
							c-0.4,0.6-0.8,1-1.2,1.4c-0.3,0.3-0.6,0.3-0.9,0.2l0,0c-0.3-0.2-0.5-0.5-0.4-0.9c0-0.3,0.1-0.7,0.2-1c0-0.2,0.1-0.4,0.2-0.6
							c0-0.1,0.1-0.2,0.1-0.3V22l0,0l0,0c-0.5,0-0.9,0.1-1.3,0.3c-0.4,0.2-0.7,0.5-1,0.9S9.3,24,9.2,24.4c-0.1,0.4-0.1,0.9,0.1,1.3
							c0,0,0,0,0.1,0.1l0,0h0.1c0.1-0.1,0.2-0.1,0.2-0.2c0.2-0.2,0.5-0.3,0.7-0.5h0.1l0,0v0.1c-0.2,0.8-0.2,1.5,0.2,2.3
							c0,0.1,0.1,0.1,0.2,0.2c0.1,0,0.1,0,0.2,0c0.4-0.1,0.7-0.2,1.1-0.4c0.3-0.2,0.6-0.5,0.8-0.8l0.1-0.1l0,0l0.1,0.1
							c0,0.3,0,0.5,0,0.8c0,0.1,0,0.2,0,0.3v0.1l0,0h0.1C13.7,27.2,14.2,26.5,14.5,25.6z"/>
						<path class="st1" d="M19.5,20.4c0-0.1,0-0.3,0-0.4c1.5-2,2.6-4.3,3.3-6.7c0.7-2.6,0.9-5.2,0.3-7.8c-0.2-0.9-0.4-1.8-0.9-2.6
							c0-0.1-0.1-0.1-0.1-0.1c-0.1,0-0.1,0-0.2,0l0,0c-0.2,0-0.4,0.1-0.6,0.1c-2.4,0.7-4.4,2.1-6.1,3.9c-2.4,2.5-3.9,5.5-4.8,8.8
							c-0.1,0.2-0.2,0.3-0.3,0.4c-3,1.1-4.9,4.2-4.6,7.3c0,0.1,0.1,0.3,0.2,0.4c0,0,0.2-0.1,0.3-0.1c1.1-1.2,2.4-1.9,3.9-2.1l0,0
							c0,0,3.1-0.8,5.3,2.1c0.3,0.4,0.5,0.7,0.6,1c0.3,0.6,0.5,1.2,0.6,1.8c0.1,0.7,0.1,1.4,0,2.2c0,0.1,0,0.3,0.1,0.3s0.2,0,0.4,0
							l0.1-0.1C19.5,26.8,20.6,23.4,19.5,20.4z M16.6,7.5c0.1-0.1,0.1-0.1,0.2-0.2l0.1-0.1C17,7.1,17,7.1,17.1,7c0,0,0,0,0.1,0
							c0.1-0.1,0.2-0.2,0.3-0.2l0,0c0.4-0.3,0.7-0.6,1.1-0.9l3.5,1.6c0,0.5,0.1,0.9,0,1.4l0,0c0,0.1,0,0.2,0,0.3c0,0,0,0,0,0.1
							s0,0.2,0,0.3v0.1c0,0.1,0,0.2,0,0.2c0,0.1,0,0.2,0,0.3l0,0l0,0C20.2,9.3,18.4,8.4,16.6,7.5C16.4,7.6,16.5,7.5,16.6,7.5z
							 M15.8,22L15.8,22L15.8,22c0,0-1.8-1.8-4.6-2.2l0,0l0,0c0.1-0.7,0.1-1.5,0.3-2.3c0.4-2.6,1.3-5,2.8-7.1
							c0.3-0.4,0.6-0.9,0.9-1.3C15.3,9,15.4,8.9,15.6,9c2,1,4,1.9,6,2.9c0,0,0.1,0,0.1,0.1C20.8,15.9,18.8,19.2,15.8,22z M12.5,19.4
							l4.3-9.1C13.3,14.8,12.5,19.4,12.5,19.4z M15.3,20.7c0,0,3-3.5,4.3-9.1L15.3,20.7z"/>
					</g>
				</g>
			</g>
		</g>
	</g>
</g>
</svg>
