<?xml version="1.0" encoding="utf-8"?>
<!-- Generator: Adobe Illustrator 20.1.0, SVG Export Plug-In . SVG Version: 6.00 Build 0)  -->
<svg version="1.1" id="Capa_1" xmlns="http://www.w3.org/2000/svg" xmlns:xlink="http://www.w3.org/1999/xlink" x="0px" y="0px"
	 viewBox="0 0 27.8 27.8" style="enable-background:new 0 0 27.8 27.8;" xml:space="preserve">
<style type="text/css">
	.st0{fill:#3C80AD;}
	.st1{fill:#931B1D;}
	.st2{fill:#F16622;}
	.st3{fill:#F7981D;}
	.st4{fill:#CB2026;}
	.st5{fill:#FFFFFF;}
</style>
<title>mastercard</title>
<desc>Created with Sketch.</desc>
<g id="mastercard" transform="translate(474.000000, 247.000000)">
	<circle id="Oval" class="st0" cx="-460.1" cy="-233.1" r="13.5"/>
	<path id="Shape" class="st1" d="M-464.5-239.6c-3.4,0-6.2,2.8-6.2,6.2c0,3.4,2.8,6.2,6.2,6.2c1.6,0,3.1-0.6,4.2-1.6l0,0h0
		c0.2-0.2,0.4-0.4,0.6-0.7h-1.3c-0.2-0.2-0.3-0.4-0.5-0.6h2.2c0.1-0.2,0.3-0.4,0.4-0.7h-2.9c-0.1-0.2-0.2-0.4-0.3-0.7h3.4
		c0.2-0.6,0.3-1.3,0.3-2c0-0.5,0-0.9-0.1-1.3h-3.8c0-0.2,0.1-0.4,0.2-0.7h3.4c-0.1-0.2-0.2-0.4-0.3-0.7h-2.9
		c0.1-0.2,0.2-0.4,0.4-0.7h2.2c-0.1-0.2-0.3-0.5-0.5-0.7h-1.2c0.2-0.2,0.4-0.4,0.6-0.6C-461.4-239-462.9-239.6-464.5-239.6
		C-464.5-239.6-464.5-239.6-464.5-239.6z"/>
	<path id="Shape_1_" class="st2" d="M-449.9-233.4c0,3.4-2.8,6.2-6.2,6.2c-3.4,0-6.2-2.8-6.2-6.2v0c0-3.4,2.8-6.2,6.2-6.2
		C-452.7-239.6-449.9-236.9-449.9-233.4C-449.9-233.4-449.9-233.4-449.9-233.4z"/>
	<path id="Shape_2_" class="st3" d="M-449.9-233.3c0,3.4-2.8,6.2-6.2,6.2c-3.4,0-6.2-2.8-6.2-6.2v0c0-3.4,2.8-6.2,6.2-6.2
		C-452.7-239.6-449.9-236.8-449.9-233.3C-449.9-233.4-449.9-233.4-449.9-233.3z"/>
	<path id="Shape_3_" class="st4" d="M-464.5-239.6c-3.4,0-6.2,2.8-6.2,6.2c0,3.4,2.8,6.2,6.2,6.2c1.6,0,3.1-0.6,4.2-1.6l0,0h0
		c0.2-0.2,0.4-0.4,0.6-0.7h-1.3c-0.2-0.2-0.3-0.4-0.5-0.6h2.2c0.1-0.2,0.3-0.4,0.4-0.7h-2.9c-0.1-0.2-0.2-0.4-0.3-0.7h3.4
		c0.2-0.6,0.3-1.3,0.3-2c0-0.5,0-0.9-0.1-1.3h-3.8c0-0.2,0.1-0.4,0.2-0.7h3.4c-0.1-0.2-0.2-0.5-0.3-0.7h-2.9
		c0.1-0.2,0.2-0.4,0.4-0.7h2.2c-0.1-0.2-0.3-0.5-0.5-0.7h-1.2c0.2-0.2,0.4-0.4,0.6-0.6C-461.4-239-462.9-239.6-464.5-239.6
		C-464.5-239.6-464.5-239.6-464.5-239.6z"/>
	<g id="Group" transform="translate(3.474684, 11.620253)">
		<path id="Shape_4_" class="st5" d="M-465.7-243.4l0.1-0.6c0,0-0.1,0-0.2,0c-0.2,0-0.3-0.1-0.2-0.2l0.2-1.1h0.3l0.1-0.6h-0.3
			l0.1-0.4h-0.7c0,0-0.4,2.2-0.4,2.4c0,0.4,0.2,0.6,0.5,0.6C-466-243.3-465.8-243.4-465.7-243.4z"/>
		<path id="Shape_5_" class="st5" d="M-465.5-244.5c0,0.9,0.6,1.2,1.1,1.2c0.5,0,0.7-0.1,0.7-0.1l0.1-0.6c0,0-0.4,0.2-0.7,0.2
			c-0.7,0-0.6-0.5-0.6-0.5h1.3c0,0,0.1-0.4,0.1-0.6c0-0.4-0.2-1-0.9-1C-465-246-465.5-245.3-465.5-244.5z M-464.3-245.4
			c0.4,0,0.3,0.4,0.3,0.5h-0.7C-464.8-245-464.7-245.4-464.3-245.4z"/>
		<path id="Shape_6_" class="st5" d="M-460.2-243.4l0.1-0.7c0,0-0.3,0.2-0.5,0.2c-0.5,0-0.7-0.4-0.7-0.7c0-0.8,0.4-1.2,0.9-1.2
			c0.3,0,0.6,0.2,0.6,0.2l0.1-0.7c0,0-0.4-0.2-0.7-0.2c-0.8,0-1.5,0.7-1.5,1.9c0,0.8,0.4,1.4,1.2,1.4
			C-460.5-243.3-460.2-243.4-460.2-243.4z"/>
		<path id="Shape_7_" class="st5" d="M-469.3-246c-0.5,0-0.8,0.1-0.8,0.1l-0.1,0.6c0,0,0.3-0.1,0.7-0.1c0.2,0,0.4,0,0.4,0.2
			c0,0.1,0,0.2,0,0.2s-0.2,0-0.3,0c-0.6,0-1.2,0.2-1.2,1c0,0.6,0.4,0.7,0.6,0.7c0.5,0,0.7-0.3,0.7-0.3l0,0.3h0.6l0.3-1.8
			C-468.4-246-469.1-246-469.3-246z M-469.2-244.5c0,0.1-0.1,0.6-0.5,0.6c-0.2,0-0.3-0.2-0.3-0.3c0-0.2,0.1-0.4,0.6-0.4
			C-469.2-244.5-469.2-244.5-469.2-244.5z"/>
		<path id="Shape_8_" class="st5" d="M-467.8-243.3c0.1,0,1,0,1-0.8c0-0.8-0.8-0.7-0.8-1c0-0.2,0.1-0.2,0.4-0.2c0.1,0,0.5,0,0.5,0
			l0.1-0.6c0,0-0.2-0.1-0.6-0.1c-0.5,0-1,0.2-1,0.9c0,0.8,0.8,0.7,0.8,1c0,0.2-0.2,0.2-0.4,0.2c-0.3,0-0.6-0.1-0.6-0.1l-0.1,0.6
			C-468.5-243.4-468.4-243.3-467.8-243.3z"/>
		<path id="Shape_9_" class="st5" d="M-454.7-246.5l-0.1,0.9c0,0-0.2-0.3-0.6-0.3c-0.6,0-1.1,0.7-1.1,1.6c0,0.5,0.3,1.1,0.8,1.1
			c0.4,0,0.6-0.3,0.6-0.3l0,0.2h0.6l0.5-3.1L-454.7-246.5z M-455-244.8c0,0.3-0.2,0.8-0.5,0.8c-0.2,0-0.3-0.2-0.3-0.5
			c0-0.5,0.2-0.9,0.5-0.9C-455.1-245.3-455-245.2-455-244.8z"/>
		<polygon id="Shape_10_" class="st5" points="-472.9,-243.4 -472.5,-245.7 -472.5,-243.4 -472,-243.4 -471.1,-245.7 -471.5,-243.4 
			-470.8,-243.4 -470.3,-246.5 -471.4,-246.5 -472,-244.6 -472.1,-246.5 -473,-246.5 -473.5,-243.4 		"/>
		<path id="Shape_11_" class="st5" d="M-462.7-243.3c0.2-1.1,0.2-2,0.7-1.8c0.1-0.4,0.2-0.6,0.2-0.8c0,0,0,0-0.1,0
			c-0.3,0-0.5,0.4-0.5,0.4l0.1-0.4h-0.6l-0.4,2.6H-462.7z"/>
		<path id="Shape_12_" class="st5" d="M-458.6-246c-0.5,0-0.8,0.1-0.8,0.1l-0.1,0.6c0,0,0.3-0.1,0.7-0.1c0.2,0,0.4,0,0.4,0.2
			c0,0.1,0,0.2,0,0.2s-0.2,0-0.3,0c-0.6,0-1.2,0.2-1.2,1c0,0.6,0.4,0.7,0.6,0.7c0.5,0,0.7-0.3,0.7-0.3l0,0.3h0.6l0.3-1.8
			C-457.7-246-458.4-246-458.6-246z M-458.5-244.5c0,0.1-0.1,0.6-0.5,0.6c-0.2,0-0.3-0.2-0.3-0.3c0-0.2,0.1-0.4,0.6-0.4
			C-458.5-244.5-458.5-244.5-458.5-244.5z"/>
		<path id="Shape_13_" class="st5" d="M-457.2-243.3c0.2-1.1,0.2-2,0.7-1.8c0.1-0.4,0.2-0.6,0.2-0.8c0,0,0,0-0.1,0
			c-0.3,0-0.5,0.4-0.5,0.4l0.1-0.4h-0.6l-0.4,2.6L-457.2-243.3L-457.2-243.3L-457.2-243.3z"/>
	</g>
</g>
</svg>
