<?xml version="1.0" encoding="utf-8"?>
<!-- Generator: Adobe Illustrator 20.1.0, SVG Export Plug-In . SVG Version: 6.00 Build 0)  -->
<svg version="1.1" id="Capa_1" xmlns="http://www.w3.org/2000/svg" xmlns:xlink="http://www.w3.org/1999/xlink" x="0px" y="0px"
	 viewBox="0 0 28 28" style="enable-background:new 0 0 28 28;" xml:space="preserve">
<style type="text/css">
	.st0{fill:#F3F2F2;}
	.st1{fill:#F26E21;}
	.st2{fill:#0B161F;}
</style>
<title>discover</title>
<desc>Created with Sketch.</desc>
<g id="discover" transform="translate(540.000000, 247.000000)">
	<circle id="Oval" class="st0" cx="-526" cy="-233" r="13.5"/>
	<circle id="Oval_1_" class="st1" cx="-525.1" cy="-233.8" r="1.8"/>
	<g id="Group" transform="translate(3.018987, 10.879747)">
		<path id="Shape" class="st2" d="M-537.7-243.9c-0.2,0.2-0.5,0.3-0.9,0.3h-0.2v-2.2h0.2c0.4,0,0.7,0.1,0.9,0.3
			c0.2,0.2,0.4,0.5,0.4,0.8C-537.3-244.4-537.5-244.1-537.7-243.9L-537.7-243.9z M-538.5-246.4h-1v3.4h1c0.5,0,0.9-0.1,1.2-0.4
			c0.4-0.3,0.6-0.8,0.6-1.3C-536.7-245.7-537.4-246.4-538.5-246.4L-538.5-246.4z"/>
		<polyline id="Shape_1_" class="st2" points="-536.4,-243 -535.7,-243 -535.7,-246.4 -536.4,-246.4 -536.4,-243 		"/>
		<path id="Shape_2_" class="st2" d="M-534.1-245.1c-0.4-0.1-0.5-0.2-0.5-0.4c0-0.2,0.2-0.4,0.5-0.4c0.2,0,0.4,0.1,0.5,0.3l0.3-0.4
			c-0.3-0.2-0.6-0.4-1-0.4c-0.6,0-1.1,0.4-1.1,1c0,0.5,0.2,0.7,0.8,0.9c0.3,0.1,0.4,0.2,0.5,0.2c0.1,0.1,0.2,0.2,0.2,0.3
			c0,0.3-0.2,0.5-0.5,0.5c-0.3,0-0.6-0.2-0.7-0.4l-0.4,0.4c0.3,0.4,0.7,0.6,1.2,0.6c0.7,0,1.2-0.5,1.2-1.1
			C-533.1-244.6-533.3-244.8-534.1-245.1"/>
		<path id="Shape_3_" class="st2" d="M-532.9-244.7c0,1,0.8,1.8,1.8,1.8c0.3,0,0.5-0.1,0.8-0.2v-0.8c-0.3,0.3-0.5,0.4-0.8,0.4
			c-0.7,0-1.1-0.5-1.1-1.2c0-0.6,0.5-1.2,1.1-1.2c0.3,0,0.6,0.1,0.8,0.4v-0.8c-0.3-0.1-0.5-0.2-0.8-0.2
			C-532.1-246.5-532.9-245.7-532.9-244.7"/>
		<polyline id="Shape_4_" class="st2" points="-524.9,-244.1 -525.8,-246.4 -526.5,-246.4 -525.1,-242.9 -524.7,-242.9 
			-523.2,-246.4 -524,-246.4 -524.9,-244.1 		"/>
		<polyline id="Shape_5_" class="st2" points="-522.9,-243 -521.1,-243 -521.1,-243.6 -522.3,-243.6 -522.3,-244.5 -521.1,-244.5 
			-521.1,-245.1 -522.3,-245.1 -522.3,-245.8 -521.1,-245.8 -521.1,-246.4 -522.9,-246.4 -522.9,-243 		"/>
		<path id="Shape_6_" class="st2" d="M-519.8-244.8h-0.2v-1h0.2c0.4,0,0.6,0.2,0.6,0.5C-519.1-245-519.3-244.8-519.8-244.8
			L-519.8-244.8z M-518.4-245.4c0-0.6-0.4-1-1.2-1h-1v3.4h0.7v-1.4h0.1l0.9,1.4h0.8l-1.1-1.4C-518.7-244.6-518.4-244.9-518.4-245.4
			L-518.4-245.4z"/>
	</g>
	<polygon id="Shape_7_" points="-531.6,-229 -531.6,-230.9 -530.3,-229.6 -530.3,-230.8 -530,-230.8 -530,-228.9 -531.3,-230.3 
		-531.3,-229 -531.6,-229 	"/>
	<polygon id="Shape_8_" points="-528.6,-230.5 -529.3,-230.5 -529.3,-230.1 -528.7,-230.1 -528.7,-229.9 -529.3,-229.9 
		-529.3,-229.3 -528.6,-229.3 -528.6,-229 -529.6,-229 -529.6,-230.8 -528.6,-230.8 	"/>
	<polygon id="Shape_9_" points="-527.8,-230.5 -527.8,-229 -528.1,-229 -528.1,-230.5 -528.5,-230.5 -528.5,-230.8 -527.4,-230.8 
		-527.4,-230.5 	"/>
	<polygon id="Shape_10_" points="-527,-230.8 -526.5,-229.6 -526,-230.9 -525.5,-229.6 -525.1,-230.8 -524.8,-230.8 -525.6,-228.9 
		-526,-230.2 -526.5,-228.9 -527.2,-230.8 	"/>
	<path id="Shape_11_" d="M-524.7-229.9c0-0.3,0.1-0.5,0.3-0.6c0.2-0.2,0.4-0.3,0.7-0.3c0.3,0,0.5,0.1,0.7,0.3
		c0.2,0.2,0.3,0.4,0.3,0.7c0,0.3-0.1,0.5-0.3,0.6c-0.2,0.2-0.4,0.3-0.7,0.3c-0.2,0-0.4-0.1-0.6-0.2
		C-524.6-229.4-524.7-229.6-524.7-229.9z M-524.4-229.9c0,0.2,0.1,0.4,0.2,0.5c0.1,0.1,0.3,0.2,0.5,0.2c0.2,0,0.3-0.1,0.5-0.2
		c0.1-0.1,0.2-0.3,0.2-0.5c0-0.2-0.1-0.3-0.2-0.5c-0.1-0.1-0.3-0.2-0.5-0.2c-0.2,0-0.3,0.1-0.5,0.2
		C-524.4-230.3-524.4-230.1-524.4-229.9z"/>
	<path id="Shape_12_" d="M-521.9-229.8l0.5,0.8h-0.3l-0.5-0.7h0v0.7h-0.3v-1.8h0.3c0.2,0,0.4,0,0.5,0.1c0.1,0.1,0.2,0.2,0.2,0.4
		c0,0.1,0,0.2-0.1,0.3C-521.7-229.9-521.8-229.8-521.9-229.8z M-522.3-230L-522.3-230c0.3,0,0.5-0.1,0.5-0.3c0-0.2-0.1-0.3-0.4-0.3
		h-0.1V-230L-522.3-230z"/>
	<polygon id="Shape_13_" points="-520.8,-230.1 -520.1,-230.8 -519.8,-230.8 -520.6,-230 -519.8,-229 -520.1,-229 -520.8,-229.8 
		-520.8,-229.8 -520.8,-229 -521.1,-229 -521.1,-230.8 -520.8,-230.8 -520.8,-230.1 	"/>
	<path id="Shape_14_" class="st1" d="M-512.5-232c-2.5,3.2-8.4,8.8-18.9,11.3c1.7,0.7,3.5,1.2,5.5,1.2
		C-518.9-219.5-513.1-225-512.5-232z"/>
</g>
</svg>
