<?xml version="1.0" encoding="UTF-8" standalone="no"?>
<!-- Generator: Adobe Illustrator 20.1.0, SVG Export Plug-In . SVG Version: 6.00 Build 0)  -->
<svg id="Capa_1" style="enable-background:new 0 0 27.9 28.1" xmlns="http://www.w3.org/2000/svg" xml:space="preserve" viewBox="0 0 27.9 28.1" version="1.1" y="0px" x="0px" xmlns:xlink="http://www.w3.org/1999/xlink">
<style type="text/css">
	.st0{fill:#F3F2F2;}
	.st1{fill:#006AC9;}
	.st2{fill:#004A97;}
	.st3{fill:#023563;}
</style>
<title>diners-club</title>
<desc>Created with Sketch.</desc>
<g id="diners-club" transform="translate(606 247)">
	<circle id="Oval" cy="-233.1" cx="-592.1" r="13.5" class="st0"/>
	<g id="Group" transform="translate(3.3537 6.1389)">
		<path id="Shape" d="m-598.8-242.5c0 1 0.6 1.9 1.5 2.2v-4.4c-0.9 0.3-1.5 1.2-1.5 2.2z" class="st1"/>
		<path id="Shape_1_" d="m-595.7-244.7v4.4c0.9-0.3 1.5-1.2 1.5-2.2s-0.6-1.9-1.5-2.2z" class="st2"/>
		<g id="Shape_2_" transform="translate(5.0021)">
			<path class="st3" d="m-600.7-240.3c0.9-0.3 1.5-1.2 1.5-2.2"/>
			<path class="st3" d="m-599.6-246.6h-1.9c-2.3 0-4.1 1.7-4.1 4.1 0 2.2 1.8 4 4.1 4h1.9c2.2 0 4.2-1.8 4.2-4 0-2.4-2-4.1-4.2-4.1zm-1.9 7.8c-2.1 0-3.7-1.7-3.7-3.7 0-2.1 1.7-3.7 3.7-3.7 2.1 0 3.7 1.7 3.7 3.7s-1.7 3.7-3.7 3.7z"/>
		</g>
		<g id="Shape_3_" transform="translate(0 8.1284)">
			<path class="st2" d="m-604.7-243.8c0 0.3 0.2 0.4 0.5 0.4 0.9 0 1.2-0.7 1.2-1.3 0-0.8-0.5-1.4-1.3-1.4h-0.3l-0.1 2.3zm-0.4-2.1c0-0.4-0.2-0.4-0.4-0.4v-0.1h1.3c1.1 0 1.7 0.8 1.7 1.5 0 0.4-0.3 1.5-1.8 1.5h-1.2v-0.1c0.3 0 0.4 0 0.4-0.3v-2.1z"/>
			<path class="st2" d="m-601.9-246c-0.1 0-0.2-0.1-0.2-0.2s0.1-0.2 0.2-0.2 0.2 0.1 0.2 0.2c0 0.2-0.1 0.2-0.2 0.2zm-0.5 2.6c0.2 0 0.3 0 0.3-0.1v-1.2c0-0.2-0.1-0.2-0.2-0.3v-0.1c0.2-0.1 0.4-0.1 0.5-0.2h0.1v0.1 1.6c0 0.1 0.1 0.1 0.2 0.1h0.1v0.1h-0.5-0.5z"/>
			<path class="st2" d="m-601.1-244.7c0-0.2 0-0.2-0.3-0.3v-0.1c0.2-0.1 0.4-0.1 0.6-0.2v0.3c0.2-0.2 0.5-0.3 0.8-0.3 0.4 0 0.5 0.3 0.5 0.6v1.1c0 0.1 0.1 0.1 0.2 0.1h0.1v0.1h-1v-0.1h0.1c0.1 0 0.2 0 0.2-0.1v-1.1c0-0.2-0.2-0.4-0.4-0.4-0.1 0-0.4 0.1-0.5 0.2v1.3c0 0.1 0.1 0.1 0.2 0.1h0.1v0.1h-1v-0.1h0.1c0.1 0 0.2 0 0.2-0.1l0.1-1.1z"/>
			<path class="st2" d="m-598.2-244.7c0.1 0 0.1-0.1 0.1-0.1 0-0.2-0.1-0.4-0.4-0.4s-0.5 0.2-0.5 0.5h0.8zm-0.7 0.2v0.3c0 0.4 0.3 0.8 0.6 0.8 0.2 0 0.4-0.1 0.6-0.3l0.1 0.1c-0.2 0.3-0.5 0.5-0.8 0.5-0.7 0-0.8-0.7-0.8-0.9 0-0.8 0.6-1.1 0.8-1.1 0.4 0 0.7 0.2 0.7 0.7v0.1l-1.2-0.2z"/>
			<path class="st2" d="m-597.6-243.4h0.1c0.1 0 0.2 0 0.2-0.1v-1.2c0-0.1-0.2-0.2-0.2-0.2v-0.1c0.3-0.1 0.5-0.2 0.5-0.2s0 0 0 0.1v0.4c0.1-0.2 0.3-0.4 0.6-0.4 0.1 0 0.2 0.1 0.2 0.2s-0.1 0.2-0.2 0.2-0.1-0.1-0.3-0.1c-0.1 0-0.3 0.1-0.3 0.4v1c0 0.1 0.1 0.1 0.2 0.1h0.2v0.1h-1.1l0.1-0.2z"/>
			<path class="st2" d="m-595.9-243.9c0.1 0.3 0.2 0.5 0.6 0.5 0.3 0 0.4-0.2 0.4-0.3 0-0.5-0.9-0.3-0.9-1 0-0.2 0.2-0.6 0.7-0.6 0.1 0 0.3 0 0.5 0.1v0.4h-0.1c0-0.3-0.2-0.4-0.5-0.4-0.2 0-0.3 0.1-0.3 0.3 0 0.5 1 0.4 1 1 0 0.3-0.2 0.6-0.8 0.6-0.2 0-0.4-0.1-0.5-0.1l-0.1-0.5z"/>
			<path class="st2" d="m-590.8-245.6c-0.2-0.5-0.5-0.7-1-0.7s-1.2 0.3-1.2 1.4c0 0.8 0.6 1.5 1.3 1.5 0.4 0 0.8-0.3 0.8-0.8h0.1l-0.1 0.6c-0.2 0.1-0.7 0.2-0.9 0.2-1 0-1.6-0.7-1.6-1.6s0.8-1.5 1.6-1.5c0.4 0 0.7 0.1 1 0.2v0.7z"/>
			<path class="st2" d="m-590.7-243.4c0.2 0 0.3 0 0.3-0.1v-2.4c0-0.3-0.1-0.3-0.2-0.3v-0.1c0.2-0.1 0.4-0.1 0.5-0.2h0.1v0.1 3c0 0.1 0.1 0.1 0.2 0.1h0.1v0.1h-1v-0.2z"/>
			<path class="st2" d="m-587.9-243.6c0 0.1 0 0.1 0.1 0.1h0.2v0.1c-0.2 0-0.5 0.1-0.6 0.1v-0.4c-0.3 0.2-0.5 0.4-0.8 0.4-0.2 0-0.5-0.2-0.5-0.5v-1.1c0-0.1 0-0.2-0.3-0.2v-0.1h0.6v0.1 1.1c0 0.1 0 0.5 0.4 0.5 0.1 0 0.3-0.1 0.5-0.3v-1.1c0-0.1-0.2-0.1-0.4-0.2v-0.1c0.4 0 0.6-0.1 0.7-0.1s0 0 0 0.1l0.1 1.6z"/>
			<path class="st2" d="m-587.1-243.8c0 0.2 0.2 0.4 0.5 0.4 0.5 0 0.7-0.5 0.7-0.8 0-0.5-0.4-0.8-0.7-0.8-0.2 0-0.3 0.1-0.4 0.2l-0.1 1zm0-1.2c0.2-0.1 0.4-0.3 0.7-0.3 0.5 0 0.8 0.4 0.8 0.9 0 0.6-0.4 1.1-1 1.1-0.3 0-0.5-0.1-0.6-0.2l-0.1 0.1h-0.1c0-0.3 0.1-0.5 0.1-0.8v-1.8c0-0.3-0.1-0.3-0.2-0.3v-0.1c0.2-0.1 0.4-0.1 0.5-0.2h0.1s0 0 0 0.1l-0.2 1.5z"/>
		</g>
		<g id="Shape_4_" transform="translate(.056842 12.164)">
			<path class="st1" d="m-605.6-244.9c0.1 0 0.2 0 0.2-0.1v-1.2c0-0.1-0.1-0.1-0.2-0.1v-0.1h0.8v0.1c-0.1 0-0.2 0-0.2 0.1v1.2c0 0.1 0.1 0.1 0.2 0.1v0.1h-0.4l-0.4-0.1z"/>
			<path class="st1" d="m-604.9-244.8c-0.1-0.1-0.2-0.1-0.2-0.2v-1.2c0-0.1 0.1-0.1 0.2-0.1v-0.1h-0.7v0.1c0.1 0 0.2 0 0.2 0.1v1.2c0 0.1-0.1 0.1-0.2 0.1v0.1h0.7zh-0.7v-0.1c0.1 0 0.2 0 0.2-0.1v-1.2c0-0.1-0.1-0.1-0.2-0.1h-0.1v-0.1h0.8v0.1c-0.1 0-0.2 0-0.2 0.1v1.2c0 0.1 0.1 0.1 0.2 0.2z"/>
			<path class="st1" d="m-603.3-245.3v-0.9c0-0.2-0.1-0.2-0.2-0.2h-0.1v-0.1h0.6v0.1c-0.1 0-0.2 0-0.2 0.3v1.2h-0.1l-1.2-1.3v0.9c0 0.2 0 0.3 0.2 0.3v0.1h-0.6c0.2 0 0.2-0.1 0.2-0.3v-1c0-0.1-0.1-0.2-0.2-0.2v-0.1h0.5l1.1 1.2z"/>
			<path class="st1" d="m-603.2-244.8l0.1-0.2v-1c0-0.3 0.1-0.3 0.2-0.3v-0.1h-0.6v0.1c0.1 0 0.2 0 0.2 0.2v0.9l-1-1.2h-0.5v0.1c0.1 0 0.2 0.1 0.2 0.2v1c0 0.2-0.1 0.3-0.2 0.3v0.1h0.6v-0.1h-0.1c-0.2 0-0.2-0.1-0.2-0.3v-1l1.3 1.3zm0.1 0l-1.3-1.3v0.9c0 0.2 0 0.3 0.2 0.3h0.1v0.1h-0.6v-0.1c0.2 0 0.2-0.1 0.2-0.3v-1c0-0.1-0.1-0.2-0.2-0.2h-0.1v-0.1h0.5l1 1.1v-0.8c0-0.2-0.1-0.2-0.2-0.2v-0.1h0.6v0.1c-0.1 0-0.2 0-0.2 0.3v1 0.3z"/>
			<path class="st1" d="m-602.6-246.3c-0.2 0-0.2 0-0.2 0.2h-0.1v-0.2-0.2h0.1c0 0.1 0.1 0.1 0.1 0.1h1.2c0.1 0 0.1 0 0.1-0.1h0.1v0.2 0.2h-0.1c0-0.1 0-0.2-0.2-0.2h-0.4v1.2c0 0.2 0.1 0.2 0.2 0.2v0.1h-0.8v-0.1c0.1 0 0.2 0 0.2-0.2v-1.2h-0.2z"/>
			<path class="st1" d="m-601.6-244.8h-0.8v-0.1c0.1 0 0.2 0 0.2-0.2v-1.2h-0.4 0.4v1.2c0 0.2-0.1 0.2-0.2 0.2v0.1h0.4 0.4c-0.1-0.1-0.2-0.1-0.2-0.3v-1.2h0.4c0.2 0 0.2 0.1 0.2 0.2h0.1v-0.2-0.2c0 0.1-0.1 0.1-0.1 0.1h-1.2c-0.1 0-0.1 0-0.1-0.1h-0.1v0.2 0.2h0.1c0-0.2 0.1-0.2 0.2-0.2-0.2 0-0.2 0-0.2 0.2h-0.1v-0.2-0.2h0.1c0 0.1 0.1 0.1 0.1 0.1h1.2c0.1 0 0.1 0 0.1-0.1h0.1v0.2 0.2h-0.1c0-0.1 0-0.2-0.2-0.2h-0.4v1.2c-0.2 0.2-0.1 0.2 0.1 0.3z"/>
			<path class="st1" d="m-601.2-244.9c0.1 0 0.2 0 0.2-0.1v-1.2c0-0.1-0.1-0.1-0.2-0.1v-0.1h1.2v0.4h-0.1c0-0.2 0-0.3-0.3-0.3h-0.3v0.6h0.3c0.1 0 0.2-0.1 0.2-0.2h0.1v0.6h-0.1c0-0.1 0-0.2-0.2-0.2h-0.3v0.6c0 0.2 0.1 0.2 0.3 0.2 0.3 0 0.4 0 0.5-0.3h0.1c0 0.1-0.1 0.3-0.1 0.4h-0.6l-0.7-0.3z"/>
			<path class="st1" d="m-599.9-244.8c0-0.1 0-0.2 0.1-0.4-0.1 0.3-0.2 0.3-0.5 0.3-0.1 0-0.3 0-0.3-0.2v-0.6h0.3c0.2 0 0.2 0.1 0.2 0.2h0.1v-0.6h-0.1c0 0.1-0.1 0.2-0.2 0.2h-0.3v-0.6h0.3c0.2 0 0.3 0.1 0.3 0.3h0.1v-0.3h-1.2v0.1c0.1 0 0.2 0 0.2 0.1v1.2c0 0.1-0.1 0.1-0.2 0.1v0.1h0.6c0.2 0.1 0.4 0.1 0.6 0.1zh-1.2v-0.1c0.1 0 0.2 0 0.2-0.1v-1.2c0-0.1-0.1-0.1-0.2-0.1v-0.1h1.2v0.3h-0.1c0-0.2 0-0.3-0.3-0.3h-0.3v0.6h0.3c0.1 0 0.2-0.1 0.2-0.2h0.1v0.6h-0.1c0-0.1 0-0.2-0.2-0.2h-0.3v0.5c0 0.1 0.1 0.1 0.3 0.1 0.3 0 0.4 0 0.5-0.3h0.1c-0.1 0.2-0.2 0.4-0.2 0.5z"/>
			<path class="st1" d="m-599.2-245.7c0.3 0 0.5-0.1 0.5-0.4 0-0.2-0.1-0.3-0.3-0.3h-0.1v0.7zm-0.3-0.5c0-0.2-0.1-0.2-0.2-0.2v-0.1h0.8c0.3 0 0.6 0.1 0.6 0.4 0 0.2-0.1 0.3-0.3 0.4l0.4 0.6c0.1 0.1 0.1 0.1 0.2 0.1v0.1h-0.4c-0.2-0.2-0.3-0.5-0.5-0.8h-0.2v0.5c0 0.2 0.1 0.2 0.2 0.2v0.1h-0.7v-0.1c0.1 0 0.2 0 0.2-0.1l-0.1-1.1z"/>
			<path class="st1" d="m-599.1-245.7c0.2 0 0.4-0.1 0.4-0.4 0-0.2-0.1-0.3-0.3-0.3h-0.1v0.7zm-0.1 0v-0.7h0.1c0.2 0 0.4 0.1 0.4 0.4s-0.1 0.4-0.4 0.4h-0.1v-0.1zm0 0.1h0.2c0.2 0.3 0.3 0.5 0.5 0.8h0.4v-0.1c-0.1 0-0.2 0-0.2-0.1l-0.4-0.6c0.2-0.1 0.3-0.2 0.3-0.4 0-0.3-0.3-0.4-0.6-0.4h-0.8v0.1c0.1 0 0.2 0 0.2 0.2v1.2c0 0.1-0.1 0.1-0.2 0.1h-0.1v0.1h0.7v-0.1c-0.1 0-0.2 0-0.2-0.2l0.2-0.6zm1.1 0.8h-0.4c-0.2-0.2-0.3-0.5-0.5-0.8h-0.1v0.5c0 0.2 0.1 0.2 0.2 0.2h0.1v0.1h-0.7v-0.1c0.1 0 0.2 0 0.2-0.1v-1.2c0-0.2-0.1-0.2-0.2-0.2h-0.1v-0.1h0.8c0.3 0 0.6 0.1 0.6 0.4 0 0.2-0.1 0.3-0.3 0.4l0.4 0.6c-0.2 0.2-0.2 0.2 0 0.3z"/>
			<path class="st1" d="m-596.6-245.3v-0.9c0-0.2-0.1-0.2-0.2-0.2h-0.1v-0.1h0.6v0.1c-0.1 0-0.2 0-0.2 0.3v1.2h-0.1l-1.2-1.3v0.9c0 0.2 0 0.3 0.2 0.3h0.1v0.1h-0.6c0.2 0 0.2-0.1 0.2-0.3v-1c0-0.1-0.1-0.2-0.2-0.2v-0.1h0.5l1 1.2z"/>
			<path class="st1" d="m-596.5-244.8l0.1-0.2v-1c0-0.3 0.1-0.3 0.2-0.3v-0.1h-0.6v0.1c0.1 0 0.2 0 0.2 0.2v0.9l-1-1.2h-0.5v0.1c0.1 0 0.2 0.1 0.2 0.2v1c0 0.2-0.1 0.3-0.2 0.3v0.1h0.6v-0.1c-0.2 0-0.2-0.1-0.2-0.3v-1l1.2 1.3zm0.1 0l-1.3-1.3v0.9c0 0.2 0 0.3 0.2 0.3h0.1v0.1h-0.6v-0.1c0.2 0 0.2-0.1 0.2-0.3v-1c0-0.1-0.1-0.2-0.2-0.2h-0.1v-0.1h0.5l1 1.1v-0.8c0-0.2-0.1-0.2-0.2-0.2h-0.1v-0.1h0.6v0.1c-0.1 0-0.2 0-0.2 0.3v1c0.1 0.2 0.1 0.2 0.1 0.3z"/>
			<path class="st1" d="m-595.5-246.2l-0.2 0.7h0.4l-0.2-0.7zm-0.3 1c0 0.1-0.1 0.1-0.1 0.2s0.1 0.1 0.2 0.1v0.1h-0.6v-0.1c0.1 0 0.2-0.1 0.2-0.2l0.4-1.1c0-0.1 0.1-0.2 0.1-0.3 0.1 0 0.2-0.1 0.2-0.1v0.1l0.5 1.2c0 0.1 0.1 0.2 0.1 0.2 0 0.1 0.1 0.1 0.2 0.1v0.1h-0.7v-0.1c0.1 0 0.1 0 0.1-0.1v-0.2l-0.1-0.3h-0.5v0.4z"/>
			<path class="st1" d="m-595.7-245.5h0.4l-0.2-0.7-0.2 0.7zl0.2-0.7 0.2 0.7h-0.4zm0.4 0.7h0.6v-0.1c-0.1 0-0.1 0-0.2-0.1 0 0-0.1-0.1-0.1-0.2l-0.4-1.2v-0.1s-0.1 0.1-0.2 0.1c0 0.1-0.1 0.2-0.1 0.3l-0.4 1.1c0 0.1-0.1 0.2-0.2 0.2v0.1h0.5v-0.1c-0.1 0-0.2 0-0.2-0.1 0 0 0-0.1 0.1-0.2l0.1-0.3h0.6l0.1 0.3v0.2s-0.1 0-0.2 0.1zm0.7 0h-0.7v-0.1c0.1 0 0.1 0 0.1-0.1v-0.2l-0.1-0.3h-0.5l-0.1 0.2c0 0.1-0.1 0.1-0.1 0.2s0.1 0.1 0.2 0.1v0.1h-0.6c0.1 0 0.2-0.1 0.2-0.1l0.4-1.1c0-0.1 0.1-0.2 0.1-0.3 0.1 0 0.2-0.1 0.2-0.1v0.1l0.5 1.2c0 0.1 0.1 0.2 0.1 0.2 0 0.1 0.1 0.1 0.1 0.1l0.2 0.1z"/>
			<path class="st1" d="m-594.5-246.3c-0.2 0-0.2 0-0.2 0.2h-0.1v-0.2-0.2h0.1c0 0.1 0.1 0.1 0.1 0.1h1.2c0.1 0 0.1 0 0.1-0.1h0.1v0.2 0.2h-0.1c0-0.1 0-0.2-0.2-0.2h-0.4v1.2c0 0.2 0.1 0.2 0.2 0.2v0.1h-0.8v-0.1c0.1 0 0.2 0 0.2-0.2v-1.2h-0.2z"/>
			<path class="st1" d="m-593.6-244.8h-0.8v-0.1c0.1 0 0.2 0 0.2-0.2v-1.2h-0.4 0.4v1.2c0 0.2-0.1 0.2-0.2 0.2v0.1h0.4 0.4c-0.1-0.1-0.2-0.1-0.2-0.3v-1.2h0.4c0.2 0 0.2 0.1 0.2 0.2h0.1v-0.2-0.2c0 0.1-0.1 0.1-0.1 0.1h-1.2c-0.1 0-0.1 0-0.1-0.1v0.2 0.2h0.1c0-0.2 0.1-0.2 0.2-0.2-0.2 0-0.2 0-0.2 0.2h-0.1v-0.2-0.2h0.1c0 0.1 0.1 0.1 0.1 0.1h1.2c0.1 0 0.1 0 0.1-0.1h0.1v0.2 0.2h-0.1c0-0.1 0-0.2-0.2-0.2h-0.4v1.2c-0.1 0.2 0 0.3 0 0.3h0.1-0.1z"/>
			<path class="st1" d="m-593.1-244.9c0.1 0 0.2 0 0.2-0.1v-1.2c0-0.1-0.1-0.1-0.2-0.1v-0.1h0.8v0.1c-0.1 0-0.2 0-0.2 0.1v1.2c0 0.1 0.1 0.1 0.2 0.1v0.1h-0.4l-0.4-0.1z"/>
			<path class="st1" d="m-592.4-244.8c-0.1-0.1-0.2-0.1-0.2-0.2v-1.2c0-0.1 0.1-0.1 0.2-0.1v-0.1h-0.7v0.1c0.1 0 0.2 0 0.2 0.1v1.2c0 0.1-0.1 0.1-0.2 0.1v0.1h0.7zh-0.7v-0.1c0.1 0 0.2 0 0.2-0.1v-1.2c0-0.1-0.1-0.1-0.2-0.1v-0.1h0.8v0.1c-0.1 0-0.2 0-0.2 0.1v1.2c0 0.1 0 0.1 0.1 0.2z"/>
			<path class="st1" d="m-591.4-244.9c0.5 0 0.5-0.4 0.5-0.8 0-0.3-0.2-0.8-0.6-0.8s-0.5 0.4-0.5 0.7c0 0.5 0.2 0.9 0.6 0.9m0-1.6c0.5 0 0.9 0.3 0.9 0.8s-0.4 0.9-0.9 0.9-0.9-0.3-0.9-0.8c0-0.5 0.4-0.9 0.9-0.9"/>
			<path class="st1" d="m-592-245.7c0-0.3 0.1-0.7 0.6-0.7 0.4 0 0.6 0.4 0.6 0.8s-0.1 0.8-0.6 0.8c0.5 0 0.5-0.4 0.5-0.7s-0.2-0.8-0.6-0.8c-0.3-0.1-0.4 0.3-0.5 0.6 0 0.4 0.2 0.8 0.6 0.8-0.4 0-0.6-0.4-0.6-0.8m-0.3 0.1c0-0.5 0.4-0.9 0.9-0.9-0.5 0-0.9 0.4-0.9 0.9s0.4 0.8 0.9 0.8 0.9-0.4 0.9-0.9c0-0.5-0.4-0.8-0.9-0.8 0.5 0 0.9 0.3 0.9 0.8 0 0.6-0.4 0.9-0.9 0.9s-0.9-0.3-0.9-0.8"/>
			<path class="st1" d="m-589-245.3v-0.9c0-0.2-0.1-0.2-0.2-0.2h-0.1v-0.1h0.6v0.1c-0.1 0-0.2 0-0.2 0.3v1.2h-0.1l-1.2-1.3v0.9c0 0.2 0 0.3 0.2 0.3v0.1h-0.6c0.2 0 0.2-0.1 0.2-0.3v-1c0-0.1-0.1-0.2-0.2-0.2v-0.1h0.5l1.1 1.2z"/>
			<path class="st1" d="m-588.9-244.8l0.1-0.2v-1c0-0.3 0.1-0.3 0.2-0.3v-0.1h-0.6v0.1c0.1 0 0.2 0 0.2 0.2v0.9l-1-1.2h-0.5v0.1c0.1 0 0.2 0.1 0.2 0.2v1c0 0.2-0.1 0.3-0.2 0.3v0.1h0.6v-0.1c-0.2 0-0.2-0.1-0.2-0.3v-1l1.2 1.3zm0.1 0l-1.3-1.3v0.9c0 0.2 0 0.3 0.2 0.3h0.1v0.1h-0.6v-0.1c0.2 0 0.2-0.1 0.2-0.3v-1c0-0.1-0.1-0.2-0.2-0.2v-0.1h0.5l1 1.1v-0.8c0-0.2-0.1-0.2-0.2-0.2h-0.1v-0.1h0.6v0.1c-0.1 0-0.2 0-0.2 0.3v1 0.3z"/>
			<path class="st1" d="m-587.9-246.2l-0.2 0.7h0.5l-0.3-0.7zm-0.3 1c0 0.1-0.1 0.1-0.1 0.2s0.1 0.1 0.2 0.1v0.1h-0.6v-0.1c0.1 0 0.2-0.1 0.2-0.2l0.4-1.1c0-0.1 0.1-0.2 0.1-0.3 0.1 0 0.2-0.1 0.2-0.1v0.1l0.4 1.2c0 0.1 0.1 0.2 0.1 0.2 0 0.1 0.1 0.1 0.2 0.1v0.1h-0.7v-0.1c0.1 0 0.1 0 0.1-0.1v-0.2l-0.1-0.3h-0.5l0.1 0.4z"/>
			<path class="st1" d="m-588.1-245.5h0.4l-0.2-0.6-0.2 0.6zl0.2-0.7 0.2 0.7h-0.4zm0.4 0.7h0.6v-0.1c-0.1 0-0.1 0-0.2-0.1 0-0.1-0.1-0.2-0.1-0.2l-0.4-1.2v-0.1s-0.1 0.1-0.2 0.1c0 0.1-0.1 0.2-0.1 0.3l-0.4 1.1c0 0.1-0.1 0.2-0.2 0.2v0.1h0.5v-0.1c-0.1 0-0.2 0-0.2-0.1 0 0 0-0.1 0.1-0.2l0.1-0.3h0.6l0.1 0.3v0.2s-0.1 0-0.2 0.1zm0.7 0h-0.7v-0.1c0.1 0 0.1 0 0.1-0.1v-0.2l-0.1-0.3h-0.5l-0.1 0.2c0 0.1-0.1 0.1-0.1 0.2s0.1 0.1 0.2 0.1v0.1h-0.6c0.1 0 0.2-0.1 0.2-0.1l0.4-1.1c0-0.1 0.1-0.2 0.1-0.3 0.1 0 0.2-0.1 0.2-0.1v0.1l0.4 1.2c0 0.1 0.1 0.2 0.1 0.2 0 0.1 0.1 0.1 0.1 0.1l0.3 0.1z"/>
			<path class="st1" d="m-586.4-245c0 0.1 0.1 0.1 0.1 0.1h0.3c0.1 0 0.2-0.1 0.2-0.1s0.1-0.1 0.1-0.2h0.1c0 0.1-0.1 0.3-0.1 0.4h-1.2v-0.1c0.1 0 0.2 0 0.2-0.2v-1.2c0-0.1-0.1-0.1-0.2-0.1v-0.1h0.8v0.1h-0.1c-0.1 0-0.2 0-0.2 0.1v1.3z"/>
			<path class="st1" d="m-585.7-244.8c0-0.1 0.1-0.3 0.1-0.4 0 0.1 0 0.1-0.1 0.2 0 0.1-0.1 0.1-0.2 0.1h-0.3c-0.1 0-0.2 0-0.2-0.1v-1.2c0-0.1 0.1-0.1 0.2-0.1v-0.1h-0.8v0.1c0.1 0 0.2 0 0.2 0.1v1.2c0 0.2-0.1 0.2-0.2 0.2v0.1h0.6c0.3-0.1 0.5-0.1 0.7-0.1zh-1.2v-0.1c0.1 0 0.2 0 0.2-0.1v-1.2c0-0.1-0.1-0.1-0.2-0.1v-0.1h0.8v0.1h-0.1c-0.1 0-0.2 0-0.2 0.1v1.2c0 0.1 0.1 0.1 0.1 0.1h0.3c0.1 0 0.2-0.1 0.2-0.1 0-0.1 0.1-0.1 0.1-0.2h0.1c0 0.1 0 0.3-0.1 0.4z"/>
			<path class="st1" d="m-585.7-246.3c0.1 0 0.1 0 0 0 0.1-0.1 0-0.1 0-0.1v0.1zm0 0.2v-0.2h0.1s0.1 0 0.1 0.1c0 0 0 0.1-0.1 0.1v0.1s0 0.1 0.1 0.1l-0.1-0.1-0.1-0.1h0.1-0.1zm0.1 0c0.1 0 0.2-0.1 0.2-0.2s-0.1-0.2-0.2-0.2-0.2 0.1-0.2 0.2c0 0.1 0.1 0.2 0.2 0.2zm0-0.4c0.1 0 0.3 0.1 0.3 0.3s-0.1 0.2-0.3 0.2-0.3-0.1-0.3-0.2c0-0.2 0.1-0.3 0.3-0.3z"/>
		</g>
		<path id="Shape_5_" d="m-591.1-243.1c0-1-0.4-2-1.1-2.7-0.7-0.4-1.5-0.7-2.3-0.7h-1.9c-2.3 0-4.1 1.7-4.1 4.1 0 1 0.4 1.9 1 2.6 0.7 0.5 1.4 0.8 2.3 0.9-1.7-0.4-2.9-1.8-2.9-3.6 0-2.1 1.7-3.7 3.7-3.7 2.1 0 3.7 1.7 3.7 3.7s-1.6 3.6-3.6 3.7h0.2c2.7 0 5-2 5-4.3z" class="st2"/>
		<path id="Shape_6_" d="m-596.5-246.6c-2.3 0-4.1 1.7-4.1 4.1 0 1 0.4 1.9 1 2.6l0.1 0.1c0.7 0.5 1.4 0.8 2.3 0.9-1.7-0.4-2.9-1.8-2.9-3.6 0-2.1 1.7-3.7 3.7-3.7 2.1 0 3.7 1.7 3.7 3.7s-1.6 3.6-3.6 3.7h0.2 0.5c2.1-0.5 3.5-2.7 3.1-5-0.2-1.1-0.7-2-1.5-2.6h-0.5l-2-0.2z" class="st1"/>
	</g>
</g>
</svg>
