<?xml version="1.0" encoding="utf-8"?>
<!-- Generator: Adobe Illustrator 21.0.0, SVG Export Plug-In . SVG Version: 6.00 Build 0)  -->
<svg version="1.1" xmlns="http://www.w3.org/2000/svg" xmlns:xlink="http://www.w3.org/1999/xlink" x="0px" y="0px"
	 viewBox="0 0 108 108" style="enable-background:new 0 0 108 108;" xml:space="preserve">
<style type="text/css">
	.st0{fill:#E1A600;}
	.st1{fill:#DA9300;}
</style>
<g id="ARTWORK">
	<g>
		<g>
			<g>
				<g>
					<path d="M38.5,9.6c-5.7,2-10.8,5.1-15.3,9.1c-4.6,4.1-8.3,9.1-11,14.8C9.5,39.2,8,45.3,7.7,51.5c-0.2,6,0.7,11.9,2.7,17.6
						c0.5,1.5,1.2,3,1.9,4.5c0-0.1,0-0.1,0-0.2c0.6-2.2,1.4-4.4,2.5-6.4c-3.6-10.3-2.9-21.4,1.7-31.3c4.7-10.1,13.1-17.7,23.6-21.4
						c5.9-2.1,12-2.9,18-2.3c0.3-0.2,0.5-0.3,0.8-0.5c1.9-1.2,3.9-2.3,5.9-3.3c-2.8-0.7-5.7-1.1-8.7-1.2C50.1,6.7,44.2,7.6,38.5,9.6
						z M24.5,82.7c-0.2-0.2-0.4-0.4-0.6-0.6c-1.3,0.8-2.5,1.9-3.7,3.1c1,1,2,2,3,2.9c0-0.8,0.1-1.5,0.2-2.3
						C23.7,84.8,24.1,83.7,24.5,82.7z M50.4,94.9c-0.8,1.7-2,3.2-3.4,4.4c1.4,0.2,2.8,0.4,4.2,0.5c0.2-1.7,0.2-3.3,0-4.8
						C50.9,95,50.6,94.9,50.4,94.9z M100.6,55.3c0.2-6-0.7-11.9-2.7-17.6c-2-5.7-5.1-10.8-9.1-15.3c-1.9-2.1-3.9-4-6.2-5.7
						c0.1,0.3,0.2,0.7,0.2,1c0.5,2.2,0.8,4.3,1,6.6c4.2,4.2,7.4,9.4,9.5,15.1c3.8,10.5,3.2,21.8-1.5,31.8
						C87.2,81.1,79,88.6,68.8,92.4c-0.9,2-2,4-3.3,5.8c-0.1,0.1-0.2,0.2-0.3,0.4c1.6-0.4,3.1-0.8,4.6-1.4c5.7-2,10.8-5.1,15.3-9.1
						c4.6-4.1,8.3-9.1,11-14.8C98.9,67.6,100.4,61.5,100.6,55.3z"/>
					<g>
						<path class="st0" d="M73.9,41.7c-0.2-0.2-0.4-0.2-0.5-0.3c-7.3-3.5-14.6-6.9-21.9-10.4c-0.6-0.3-0.9-0.2-1.3,0.4
							c-1.1,1.6-2.2,3.1-3.3,4.8c-5.1,7.9-8.4,16.5-10,25.8c-0.5,2.7-0.7,5.5-1,8.2c0,0,0,0,0,0c0,0,0,0-0.1,0.1
							C46.2,71.5,52.6,78,52.6,78l0-0.1c0,0,0,0,0,0C63.5,68,70.6,56,73.9,41.7z"/>
						<path class="st1" d="M47.9,91.3c0.4-1.6,0.5-3.1,0.2-4.6c-0.3-1.5-0.9-2.9-1.8-4.3c0-0.1-0.1-0.1-0.1-0.1c0,0-0.1,0-0.1,0
							c-0.1,0-0.2,0.1-0.3,0.1c-0.1,0.1-0.1,0.1-0.1,0.2c-0.1,0.1-0.1,0.2-0.2,0.2c-1.4,2.1-2.8,3.8-4.3,5.2c-1.1,1-2.3,1.2-3.4,0.7
							l0,0c-1.2-0.6-1.8-1.7-1.6-3.2c0.1-1.2,0.3-2.4,0.6-3.6c0.2-0.8,0.4-1.6,0.6-2.3c0.1-0.3,0.2-0.7,0.3-1.1c0-0.1,0-0.2-0.1-0.3
							c0,0-0.1-0.1-0.1-0.1c0,0-0.1,0-0.2,0c-1.6,0-3.2,0.4-4.7,1.3c-1.4,0.8-2.6,1.8-3.5,3.1c-0.9,1.3-1.6,2.7-1.8,4.2
							c-0.3,1.6-0.2,3.2,0.3,4.7c0,0.1,0.1,0.2,0.2,0.2c0,0,0,0,0,0c0.1,0,0.2,0,0.3,0c0.3-0.2,0.6-0.4,0.9-0.6
							c0.8-0.6,1.7-1.2,2.5-1.7c0.1,0,0.3,0,0.4,0c0,0,0,0,0,0c0,0.2,0,0.3,0,0.4c-0.9,2.8-0.7,5.6,0.6,8.2c0.1,0.2,0.3,0.5,0.5,0.6
							c0.2,0.1,0.5,0.1,0.8,0c1.4-0.3,2.7-0.9,3.8-1.6c1.1-0.8,2.1-1.7,2.9-2.9c0.1-0.1,0.2-0.2,0.4-0.3c0,0,0,0,0,0
							c0.1,0.2,0.2,0.3,0.2,0.5c0.1,1,0.1,1.9,0.2,3c0,0.4,0,0.7,0.1,1.1c0,0.1,0.1,0.2,0.2,0.3c0,0,0,0,0,0c0.1,0,0.2,0,0.3,0
							C45,96.9,47,94.5,47.9,91.3z"/>
						<path d="M66.2,72.3c-0.1-0.4-0.1-1.1,0.2-1.5c5.4-7.4,9.4-15.4,11.8-24.2c2.6-9.3,3.3-18.6,1.2-28.1c-0.7-3.2-1.6-6.4-3.3-9.3
							c-0.1-0.2-0.3-0.4-0.5-0.5c-0.2-0.1-0.5-0.1-0.7-0.1c0,0,0,0,0,0c-0.7,0.1-1.4,0.2-2.1,0.4c-8.6,2.7-15.9,7.5-22.1,14
							C42,32,36.4,42.7,33.2,54.8c-0.2,0.8-0.5,1.1-1.2,1.4c-10.8,4.1-17.8,15.1-16.8,26.5c0,0.5,0.4,1,0.7,1.3
							c0.1,0.1,0.8-0.2,1.1-0.5c3.9-4.5,8.6-6.9,14-7.7c0,0,0,0,0,0s11.3-3,19.2,7.6c1,1.4,1.8,2.6,2.2,3.5c1,2,1.7,4.2,2.2,6.5
							c0.5,2.6,0.5,5.2,0,7.9c-0.1,0.4,0,1,0.3,1.2c0.3,0.2,0.9,0,1.3-0.1c0.2,0,0.3-0.2,0.5-0.3C66,95.3,69.9,83.2,66.2,72.3z
							 M55.5,25.5c0.2-0.2,0.4-0.4,0.6-0.6c0.1-0.1,0.3-0.3,0.4-0.4c0.3-0.2,0.5-0.5,0.8-0.7c0.1-0.1,0.1-0.1,0.2-0.2
							c0.3-0.3,0.6-0.6,0.9-0.8c0,0,0,0,0.1,0c1.3-1.1,2.6-2.1,4-3.1l12.6,6c0.1,1.7,0.2,3.4,0.2,5.1c0,0,0,0,0,0.1
							c0,0.4,0,0.8,0,1.2c0,0.1,0,0.1,0,0.2c0,0.4,0,0.7-0.1,1.1c0,0.2,0,0.3,0,0.5c0,0.3,0,0.6-0.1,0.8c0,0.4-0.1,0.8-0.1,1.2
							c0,0,0,0.1,0,0.1l0,0c-6.8-3.2-13.5-6.4-20.3-9.6C54.9,26.2,55.2,25.8,55.5,25.5z M52.7,78C52.7,78,52.7,78,52.7,78L52.7,78
							c0,0.1-6.5-6.5-16.7-7.8c0,0,0,0,0.1-0.1c0,0,0,0,0,0c0.3-2.7,0.5-5.5,1-8.2c1.6-9.3,4.8-17.9,10-25.8c1-1.6,2.2-3.2,3.3-4.8
							c0.3-0.5,0.7-0.7,1.3-0.4c7.3,3.5,14.6,6.9,21.9,10.4c0.1,0.1,0.2,0.2,0.5,0.3C70.6,56,63.5,68.1,52.7,78z M40.6,68.6
							l15.6-32.9C43.6,52.2,40.6,68.6,40.6,68.6z M51,73.5c0,0,10.8-12.7,15.6-32.9L51,73.5z"/>
					</g>
				</g>
			</g>
		</g>
	</g>
</g>
<g id="DELETE_THIS">
</g>
</svg>
