<?xml version="1.0" encoding="utf-8"?>
<!-- Generator: Adobe Illustrator 22.1.0, SVG Export Plug-In . SVG Version: 6.00 Build 0)  -->
<svg version="1.1" id="Layer_1" xmlns="http://www.w3.org/2000/svg" xmlns:xlink="http://www.w3.org/1999/xlink" x="0px" y="0px"
	 viewBox="0 0 263 263" style="enable-background:new 0 0 263 263;" xml:space="preserve">
<style type="text/css">
	.st0{filter:url(#Adobe_OpacityMaskFilter);}
	.st1{fill:#FFFFFF;}
	.st2{mask:url(#mask-2_1_);fill:#F4EFE9;stroke:#A8A8A8;stroke-width:30;stroke-miterlimit:10;}
	.st3{filter:url(#Adobe_OpacityMaskFilter_1_);}
	.st4{mask:url(#mask-2_2_);}
	.st5{fill:#A8A8A8;}
	.st6{fill:#4A4A4A;}
	.st7{filter:url(#Adobe_OpacityMaskFilter_2_);}
	.st8{mask:url(#mask-2_3_);}
	.st9{fill:#F9F9F8;stroke:#4A4A4A;stroke-width:4;}
</style>
<title>tres</title>
<desc>Created with Sketch.</desc>
<g id="flujo-web">
	<g id="home-gender-complete-3" transform="translate(-1032.000000, -1502.000000)">
		<g id="tres" transform="translate(1032.000000, 1502.000000)">
			<g id="Mask">
			</g>
			<defs>
				<filter id="Adobe_OpacityMaskFilter" filterUnits="userSpaceOnUse" x="-15" y="-15" width="293" height="293">
					<feColorMatrix  type="matrix" values="1 0 0 0 0  0 1 0 0 0  0 0 1 0 0  0 0 0 1 0"/>
				</filter>
			</defs>
			<mask maskUnits="userSpaceOnUse" x="-15" y="-15" width="293" height="293" id="mask-2_1_">
				<g class="st0">
					<circle id="path-1_1_" class="st1" cx="131.5" cy="131.5" r="131.5"/>
				</g>
			</mask>
			<circle id="Oval-2" class="st2" cx="131.5" cy="131.5" r="131.5"/>
			<defs>
				<filter id="Adobe_OpacityMaskFilter_1_" filterUnits="userSpaceOnUse" x="59" y="60" width="146" height="144">
					<feColorMatrix  type="matrix" values="1 0 0 0 0  0 1 0 0 0  0 0 1 0 0  0 0 0 1 0"/>
				</filter>
			</defs>
			<mask maskUnits="userSpaceOnUse" x="59" y="60" width="146" height="144" id="mask-2_2_">
				<g class="st3">
					<circle id="path-1_2_" class="st1" cx="131.5" cy="131.5" r="131.5"/>
				</g>
			</mask>
			<g id="Group-6" class="st4">
				<g transform="translate(59.000000, 60.000000)">
					<g id="Group-5" transform="translate(2.000000, 0.000000)">
						<path id="Combined-Shape" class="st5" d="M54,116c0,0.3,0,0.7,0,1c0,14.9-12.1,27-27,27S0,131.9,0,117s12.1-27,27-27
							c0.3,0,0.7,0,1,0c-4.5-8.5-7-18.2-7-28.5C21,27.5,48.5,0,82.5,0S144,27.5,144,61.5S116.5,123,82.5,123
							C72.2,123,62.5,120.5,54,116z"/>
						<g id="direct" transform="translate(54.000000, 31.000000)">
							<path id="Shape" class="st6" d="M54.7,44.8L14.3,55.9c-1.2,0.3-2.4-0.3-2.7-1.4L4.8,31.3c-0.3-1.1,0.4-2.1,1.6-2.4l8.1-2.4
								l-2.2,8.8L19,33l2.2-8.8l6.7-2.2l-3.4,8.8l6.7-2.2l2.2-8.8l5.6-2.2l-2.2,8.8l6.7-2.2l1.1-8.8c0,0,3.3-1.9,5.4-2.1
								c0.9,0.3,2.3,6.5,2.3,6.5L57,41.4C57.2,42.5,55.9,44.5,54.7,44.8z M34.7,2.7l5.5-2.5c1.2-0.6,2.7,0,3.4,1.1L48,6.8L43.6,9
								L34.7,2.7z M39.1,11.2l-6.7,3.3L23.4,9l6.7-3.3L39.1,11.2z M19,21l-8.9-5.5l7-3.4L27.2,17L19,21z M6.1,28.3
								c-1.2,0.6-2.8,0.2-3.4-0.8l-2.3-3.7c-0.7-1.1-0.3-2.6,0.9-3.2l3.2-1.7l8.9,5.5L6.1,28.3z"/>
						</g>
					</g>
					<g id="Group-4" transform="translate(0.000000, 20.000000)">
						<circle id="Oval-4" class="st5" cx="24" cy="24" r="24"/>
						<g id="Group" transform="translate(10.000000, 11.000000)">
							<path id="Shape_1_" class="st6" d="M19.3,25c-0.2,0-0.4-0.1-0.6-0.2l-6.2-3.1l-6.2,3.1c-0.5,0.2-1,0.2-1.4-0.1
								s-0.6-0.9-0.6-1.4l0.9-7.1l-4.7-5.2C0,10.5-0.1,10,0.1,9.4s0.6-0.9,1.1-1l6.8-1.3l3.3-6.3C11.5,0.3,12,0,12.5,0
								c0.5,0,1,0.3,1.3,0.8L17,7.1l6.8,1.3c0.5,0.1,0.9,0.5,1.1,1c0.2,0.5,0,1.1-0.3,1.5l-4.7,5.2l0.9,7.1c0.1,0.4-0.1,0.9-0.3,1.2
								C20.1,24.8,19.7,25,19.3,25z M7.4,21l4.5-2.2c0.4-0.2,0.8-0.2,1.2,0l4.5,2.2l-0.6-5.1c-0.1-0.5,0.1-0.9,0.4-1.2l3.4-3.7
								l-4.8-0.9c-0.4-0.1-0.8-0.4-1-0.8l-2.4-4.5l-2.4,4.5c-0.2,0.4-0.6,0.7-1,0.8l-4.8,0.9l3.4,3.7c0.3,0.3,0.4,0.8,0.4,1.2
								L7.4,21z"/>
						</g>
					</g>
				</g>
			</g>
			<defs>
				<filter id="Adobe_OpacityMaskFilter_2_" filterUnits="userSpaceOnUse" x="99" y="162" width="66" height="66">
					<feColorMatrix  type="matrix" values="1 0 0 0 0  0 1 0 0 0  0 0 1 0 0  0 0 0 1 0"/>
				</filter>
			</defs>
			<mask maskUnits="userSpaceOnUse" x="99" y="162" width="66" height="66" id="mask-2_3_">
				<g class="st7">
					<circle id="path-1_3_" class="st1" cx="131.5" cy="131.5" r="131.5"/>
				</g>
			</mask>
			<g id="Group-7" class="st8">
				<g transform="translate(101.000000, 164.000000)">
					<circle id="Oval-6" class="st9" cx="31" cy="31" r="31"/>
					<g id="Group_1_" transform="translate(23.000000, 20.000000)">
						<path id="Shape_2_" class="st6" d="M2.1,0.6C0.9,1.3,0,2.6,0,4.1c0,0,0,5.2,0,15.7c0,1.6,0.9,2.9,2.1,3.6
							c1.2,0.7,2.8,0.8,4.2,0.1c0,0,4.6-2.6,13.7-7.9c1.2-0.7,2.1-2.1,2.1-3.6c0-1.5-0.9-2.9-2.1-3.6L6.3,0.5C5.6,0.2,4.8,0,4.1,0
							C3.4,0,2.7,0.2,2.1,0.6z"/>
					</g>
				</g>
			</g>
		</g>
	</g>
</g>
</svg>
