<?xml version="1.0" standalone="no"?>
<!DOCTYPE svg PUBLIC "-//W3C//DTD SVG 1.1//EN" "http://www.w3.org/Graphics/SVG/1.1/DTD/svg11.dtd" >
<svg xmlns="http://www.w3.org/2000/svg">
<metadata>Generated by IcoMoon</metadata>
<defs>
<font id="icomoon" horiz-adv-x="1024">
<font-face units-per-em="1024" ascent="960" descent="-64" />
<missing-glyph horiz-adv-x="1024" />
<glyph unicode="&#x20;" horiz-adv-x="512" d="" />
<glyph unicode="&#xe900;" glyph-name="tum" horiz-adv-x="1075" d="M953.011 960h-819.2c-56.832 0-102.4-45.568-102.4-102.4v-819.2c0-56.576 45.824-102.4 102.4-102.4h819.2c56.576 0 102.4 45.824 102.4 102.4v819.2c0 56.832-46.080 102.4-102.4 102.4zM748.211 499.2h-153.6v-199.68c0-37.376 7.168-56.32 56.32-56.32h97.28v-153.6c0 0-52.736-5.12-107.52-5.12-135.68 0-199.68 81.92-199.68 174.080v240.64h-102.4v143.36c123.392 10.24 134.144 104.448 143.36 163.84h112.64v-153.6h153.6z" />
<glyph unicode="&#xe901;" glyph-name="twitter" horiz-adv-x="1075" d="M868.25 599.895c27.29 22.733 59.187 50.074 73.37 80.23-23.296-11.981-51.2-19.354-81.92-23.347 28.467 20.48 51.763 47.206 63.744 83.61-29.594-15.923-59.75-29.542-97.28-36.403-88.166 106.394-299.264 19.917-261.683-139.366-148.48 9.114-238.95 76.237-314.061 158.72-42.65-69.376-5.683-174.643 44.954-203.674-26.163 1.741-46.080 9.677-64.87 18.79 2.304-87.603 50.637-129.69 118.374-152.474-20.48-3.994-43.264-5.12-64.87-1.69 21.043-60.877 64.87-98.97 139.93-106.957-51.2-43.213-145.613-73.37-221.85-61.44 65.434-41.523 139.93-74.547 243.456-69.99 250.88 11.418 418.714 191.181 422.707 453.99zM145.203 959.985h796.416c62.874 0 113.818-50.944 113.818-113.766v-796.416c0-62.874-50.944-113.818-113.818-113.818h-796.416c-62.874 0-113.766 50.944-113.766 113.818v796.416c0 62.822 50.893 113.766 113.766 113.766z" />
<glyph unicode="&#xe902;" glyph-name="wolrd" d="M985.712 642.009c-78.707 192.336-265.895 317.991-473.712 317.991s-395.005-125.655-473.712-317.991c-0.788-1.476-1.404-3.037-1.838-4.653-48.601-121.561-48.601-257.154 0-378.715 0.433-1.616 1.050-3.177 1.838-4.653 78.707-192.336 265.895-317.991 473.712-317.991s395.005 125.655 473.712 317.991c0.788 1.476 1.404 3.037 1.838 4.653 48.601 121.561 48.601 257.154 0 378.715-0.433 1.616-1.050 3.177-1.838 4.653v0zM512-19.478c-85.732 0-161.967 108.113-198.95 261.565h397.899c-36.982-153.452-113.217-261.565-198.95-261.565zM303.647 286.609c-19.008 106.755-19.008 216.028 0 322.783h416.705c9.555-53.264 14.326-107.277 14.256-161.391 0.070-54.115-4.701-108.127-14.256-161.391h-416.705zM44.522 448c-0.049 55.074 9.681 109.719 28.737 161.391h184.73c-17.493-106.883-17.493-215.899 0-322.783h-184.73c-19.056 51.672-28.786 106.317-28.737 161.391v0zM512 915.478c85.732 0 161.967-108.113 198.95-261.565h-397.899c36.982 153.452 113.217 261.565 198.95 261.565zM766.011 609.391h184.73c38.316-104.183 38.316-218.6 0-322.783h-184.73c8.83 53.342 13.218 107.324 13.12 161.391 0.099 54.067-4.29 108.050-13.12 161.391v0zM931.555 653.913h-174.213c-23.226 103.942-63.705 189.069-114.956 242.925 126.14-36.936 231.026-125.048 289.168-242.925zM381.613 896.838c-51.251-53.855-91.73-138.982-114.956-242.925h-174.213c58.143 117.877 163.028 205.989 289.168 242.925v0zM92.445 242.087h174.213c23.226-103.942 63.705-189.069 114.956-242.925-126.14 36.936-231.026 125.048-289.168 242.925v0zM642.387-0.838c51.251 53.855 91.73 138.982 114.956 242.925h174.213c-58.143-117.877-163.028-205.989-289.168-242.925v0z" />
<glyph unicode="&#xe903;" glyph-name="reell" d="M512-41.6c-268.8 0-486.4 220.8-486.4 489.6s217.6 486.4 486.4 486.4c268.8 0 489.6-217.6 489.6-489.6 0-265.6-220.8-486.4-489.6-486.4zM512 886.4c-243.2 0-438.4-195.2-438.4-438.4s198.4-441.6 441.6-441.6c243.2 0 441.6 198.4 441.6 441.6-3.2 243.2-201.6 438.4-444.8 438.4zM512 556.8c-73.6 0-131.2 57.6-131.2 131.2s57.6 131.2 131.2 131.2c73.6 0 131.2-57.6 131.2-131.2 0-70.4-57.6-131.2-131.2-131.2zM512 774.4c-44.8 0-83.2-38.4-83.2-83.2s38.4-83.2 83.2-83.2c44.8 0 83.2 38.4 83.2 83.2s-38.4 83.2-83.2 83.2zM512 73.6c-73.6 0-131.2 57.6-131.2 131.2s57.6 131.2 131.2 131.2c73.6 0 131.2-57.6 131.2-131.2 0-70.4-57.6-131.2-131.2-131.2zM512 291.2c-44.8 0-83.2-38.4-83.2-83.2s38.4-83.2 83.2-83.2c44.8 0 83.2 38.4 83.2 83.2s-38.4 83.2-83.2 83.2zM272 316.8c-73.6 0-131.2 57.6-131.2 131.2s57.6 131.2 131.2 131.2c73.6 0 131.2-57.6 131.2-131.2s-60.8-131.2-131.2-131.2zM272 531.2c-44.8 0-83.2-38.4-83.2-83.2s38.4-83.2 83.2-83.2c44.8 0 83.2 38.4 83.2 83.2s-38.4 83.2-83.2 83.2zM752 316.8c-73.6 0-131.2 57.6-131.2 131.2s57.6 131.2 131.2 131.2c73.6 0 131.2-57.6 131.2-131.2 3.2-73.6-57.6-131.2-131.2-131.2zM752 531.2c-44.8 0-83.2-38.4-83.2-83.2s38.4-83.2 83.2-83.2c44.8 0 83.2 38.4 83.2 83.2 3.2 44.8-35.2 83.2-83.2 83.2zM512 364.8c-44.8 0-83.2 35.2-83.2 83.2 0 44.8 35.2 83.2 83.2 83.2 44.8 0 83.2-35.2 83.2-83.2 0-44.8-38.4-83.2-83.2-83.2zM512 483.2c-19.2 0-35.2-16-35.2-35.2s16-35.2 35.2-35.2c19.2 0 35.2 16 35.2 35.2s-16 35.2-35.2 35.2z" />
<glyph unicode="&#xe904;" glyph-name="redd" horiz-adv-x="1132" d="M733.696 354.978c-37.726 0-64.674 32.337-64.674 64.674 0 37.726 32.337 64.674 64.674 64.674 37.726 0 64.674-32.337 64.674-64.674 0-37.726-26.947-64.674-64.674-64.674zM776.812 193.293c-97.011-59.284-312.589-59.284-409.6 0-10.779 10.779-16.168 26.947-5.389 37.726s26.947 16.168 37.726 5.389c64.674-48.505 280.253-48.505 344.926 0 10.779 10.779 26.947 5.389 37.726-5.389s5.389-26.947-5.389-37.726zM410.328 484.325c37.726 0 64.674-32.337 64.674-64.674s-26.947-64.674-64.674-64.674c-37.726 0-64.674 26.947-64.674 64.674s26.947 64.674 64.674 64.674zM1110.959 500.493c0 75.453-59.284 134.737-134.737 134.737-32.337 0-64.674-10.779-86.232-32.337-80.842 48.505-177.853 80.842-291.032 86.232l59.284 215.579 183.242-53.895c0-59.554 48.236-107.789 107.789-107.789s107.789 48.236 107.789 107.789c0 59.554-48.236 107.789-107.789 107.789-37.726 0-75.453-21.558-91.621-53.895l-215.579 53.895c-16.168 5.389-26.947-5.389-32.337-21.558l-64.674-247.916c-107.789-5.389-210.189-37.726-291.032-86.232-21.558 21.558-53.895 32.337-86.232 32.337-75.453 0-134.737-59.284-134.737-134.737 0-48.505 21.558-86.232 59.284-113.179l-5.389-48.505c0-194.021 215.579-350.316 485.053-350.316s485.053 156.295 485.053 350.316l-5.389 48.505c37.726 26.947 59.284 64.674 59.284 113.179z" />
<glyph unicode="&#xe905;" glyph-name="print" horiz-adv-x="1138" d="M170.67 676.78c-94.24 0-170.654-76.083-170.654-169.915v-339.881h227.556v-226.57h682.667v226.57h227.556v339.881c0 93.832-76.414 169.915-170.654 169.915h-796.47zM796.486 53.673h-455.162v283.226h455.162zM967.14 450.209c-31.413 0-56.902 25.378-56.902 56.655s25.488 56.604 56.902 56.604c31.413 0 56.902-25.327 56.902-56.604s-25.488-56.655-56.902-56.655zM910.239 960.005h-682.667v-226.57h682.667z" />
<glyph unicode="&#xe906;" glyph-name="movie" horiz-adv-x="1180" d="M1169.067 24.178v847.644c0 46.933-38.4 85.333-85.333 85.333h-987.022c-46.933 0-85.333-38.4-85.333-85.333v-849.067c0-46.933 38.4-85.333 85.333-85.333h987.022c46.933 1.422 85.333 39.822 85.333 86.756zM1083.733-4.267h-200.533v176.356h228.978v-147.911c0-15.644-12.8-28.444-28.444-28.444zM68.267 419.556h228.978v-190.578h-228.978v190.578zM883.2 419.556h228.978v-190.578h-228.978v190.578zM883.2 476.444v190.578h228.978v-190.578h-228.978zM826.311 476.444h-473.6v423.822h473.6v-423.822zM295.822 476.444h-227.556v190.578h228.978v-190.578h-1.422zM352.711 419.556h473.6v-423.822h-473.6v423.822zM1112.178 871.822v-147.911h-228.978v176.356h200.533c15.644 0 28.444-12.8 28.444-28.444zM96.711 900.267h200.533v-176.356h-228.978v147.911c0 15.644 12.8 28.444 28.444 28.444zM68.267 24.178v147.911h228.978v-176.356h-200.533c-15.644 0-28.444 12.8-28.444 28.444z" />
<glyph unicode="&#xe907;" glyph-name="mail" horiz-adv-x="1308" d="M1149.696 960h-990.948c-68.722 0-123.847-55.125-123.847-123.847v-743.196c0-68.437 55.467-123.904 123.847-123.904h990.948c68.437 0 123.847 55.467 123.847 123.904v743.196c0 68.722-55.694 123.847-123.847 123.847zM1149.696 712.249l-495.445-309.646-495.502 309.646v123.904l495.502-309.703 495.445 309.703z" />
<glyph unicode="&#xe908;" glyph-name="location" horiz-adv-x="683" d="M341.333 960c-188.184 0-341.333-153.281-341.333-341.778 0-108.357 57.987-202.238 124.889-291.111 43.538-57.835 91.219-114.113 132.444-170.667-35.451-5.654-66.988-14.61-92.889-27.111-17.492-8.444-32.652-18.263-44.444-31.111s-20.444-29.731-20.444-48.444c0-21.39 11.224-40.015 25.778-53.778s33.048-24.242 54.667-32.889c43.238-17.296 99.348-27.111 161.333-27.111s118.095 9.815 161.333 27.111c21.619 8.647 40.113 19.125 54.667 32.889s25.778 32.388 25.778 53.778c0 18.714-8.652 35.595-20.444 48.444s-26.953 22.667-44.444 31.111c-25.901 12.501-57.438 21.457-92.889 27.111 41.226 56.554 88.906 112.831 132.444 170.667 66.902 88.873 124.889 182.754 124.889 291.111 0 188.496-153.149 341.778-341.333 341.778zM341.333 903.111c157.418 0 284.444-127.076 284.444-284.889 0-87.726-48.68-171.005-113.333-256.889-55.449-73.658-120.469-148.564-171.111-229.333-50.642 80.769-115.663 155.675-171.111 229.333-64.653 85.884-113.333 169.163-113.333 256.889 0 157.813 127.026 284.889 284.444 284.889zM341.333 803.556c-101.774 0-184.889-83.115-184.889-184.889s83.114-184.889 184.889-184.889c101.774 0 184.889 83.114 184.889 184.889s-83.114 184.889-184.889 184.889zM341.333 746.667c71.029 0 128-56.971 128-128s-56.971-128-128-128c-71.029 0-128 56.971-128 128s56.971 128 128 128zM293.333 104c8.227-12.977 16.072-26.039 23.111-39.111 5.011-9.053 14.542-14.671 24.889-14.671s19.878 5.618 24.889 14.671c7.039 13.072 14.884 26.134 23.111 39.111 42.782-4.217 79.964-13.962 104.444-25.778 12.93-6.241 22.159-12.828 27.111-18.222 4.952-5.396 5.333-8.325 5.333-10.222 0-2.175-0.963-5.79-8-12.444s-19.458-14.538-36.444-21.333c-33.974-13.589-84.609-23.111-140.444-23.111s-106.471 9.522-140.444 23.111c-16.987 6.795-29.408 14.679-36.444 21.333s-8 10.27-8 12.444c0 1.897 0.381 4.826 5.333 10.222 4.952 5.394 14.181 11.982 27.111 18.222 24.48 11.815 61.663 21.56 104.444 25.778z" />
<glyph unicode="&#xe909;" glyph-name="google" horiz-adv-x="1075" d="M389.811 484.352v-87.552h146.432c-7.68-36.352-44.032-109.568-146.432-109.568-87.552 0-157.184 73.216-157.184 160.768s69.632 160.768 157.184 160.768c51.2 0 83.968-22.016 102.4-39.936l69.632 65.536c-44.032 44.032-102.4 69.632-172.032 69.632-142.848 0-256-113.152-256-256s113.152-256 256-256c146.432 0 245.248 102.4 245.248 248.832 0 17.92 0 29.184-4.096 43.52h-241.152zM953.011 448h-102.4v102.4h-51.2v-102.4h-102.4v-51.2h102.4v-102.4h51.2v102.4h102.4v51.2zM953.011 960c56.576 0 102.4-45.824 102.4-102.4v-819.2c0-56.576-45.824-102.4-102.4-102.4h-819.2c-56.576 0-102.4 45.824-102.4 102.4v819.2c0 56.832 46.080 102.4 102.4 102.4h819.2z" />
<glyph unicode="&#xe90a;" glyph-name="face" horiz-adv-x="1075" d="M884.746 846.223h-142.234c-109.978 0-199.117-89.139-199.117-199.117v-142.234h-113.766v-170.65h113.766v-398.234h170.701v398.234h170.65v170.65h-170.65v113.818c0 31.386 25.446 56.883 56.883 56.883h113.766v170.65zM145.213 959.99h796.416c62.822 0 113.766-50.944 113.766-113.766v-796.467c0-62.822-50.944-113.766-113.766-113.766h-796.416c-62.874 0-113.818 50.944-113.818 113.766v796.467c0 62.822 50.944 113.766 113.818 113.766v0z" />
<glyph unicode="&#xe90b;" glyph-name="clock" horiz-adv-x="960" d="M147.2 147.2v-115.2h-99.2c-27.2 0-48-20.8-48-48s20.8-48 48-48h864c27.2 0 48 20.8 48 48s-20.8 48-48 48h-92.8v113.6c0 73.6-35.2 140.8-94.4 182.4l-174.4 123.2 182.4 134.4c51.2 38.4 83.2 100.8 83.2 166.4v112h96c27.2 0 48 20.8 48 48s-20.8 48-48 48h-864c-27.2 0-48-20.8-48-48s20.8-48 48-48h96v-108.8c0-67.2 33.6-131.2 88-169.6l180.8-128-174.4-129.6c-56-43.2-91.2-110.4-91.2-180.8zM315.2 643.2l-27.2 20.8c-30.4 20.8-48 54.4-48 91.2v108.8h480v-112c0-35.2-17.6-68.8-44.8-89.6l-25.6-19.2h-334.4zM243.2 147.2c0 40 19.2 78.4 51.2 102.4l180.8 134.4 192-136c33.6-24 54.4-62.4 54.4-104v-112h-46.4c-3.2 1.6-6.4 3.2-9.6 4.8l-185.6 92.8-188.8-91.2c-3.2-1.6-8-3.2-11.2-6.4h-36.8v115.2z" />
<glyph unicode="&#xe90c;" glyph-name="dollar" d="M512 960c-282.319 0-512-229.68-512-512.001 0-282.319 229.681-512 512-512s512 229.681 512 512c0 282.321-229.681 512.001-512 512.001zM512 884.149c241.325 0 436.148-194.822 436.148-436.149 0-241.325-194.824-436.148-436.148-436.148s-436.148 194.824-436.148 436.148c0 241.326 194.824 436.149 436.148 436.149zM512 732.444c-20.945 0-37.926-16.979-37.926-37.926v-22.519c-25.003-4.866-47.891-14.799-66.962-30.221-28.378-22.953-46.816-59.314-46.816-98.964 0-43.175 25.57-77.564 53.927-94.815 20.169-12.271 40.319-19.788 59.851-26.666v-116.742c-20.178 8.924-35.353 23.565-43.258 36.741-10.801 17.998-34.147 23.834-52.147 13.035s-23.838-34.145-13.040-52.146c20.609-34.346 58.749-65.824 108.445-77.037v-23.704c0-20.946 16.981-37.926 37.926-37.926s37.926 16.979 37.926 37.926v22.519c25.014 5.040 47.885 15.385 66.962 30.815 28.378 22.953 46.816 58.721 46.816 98.37 0 43.175-25.568 78.16-53.927 95.408-20.169 12.269-40.321 19.788-59.851 26.666v116.148c20.177-8.75 35.356-22.972 43.258-36.147 6.986-11.646 19.654-18.68 33.233-18.453s26.004 7.683 32.596 19.557c6.591 11.874 6.347 26.362-0.642 38.007-20.609 34.342-58.751 65.381-108.445 76.443v23.704c0 20.946-16.979 37.926-37.926 37.926zM474.074 593.186v-90.074c-7.927 3.165-14.988 6.343-20.148 9.481-14.594 8.878-17.778 10.299-17.778 30.221 0 17.793 6.48 29.609 18.963 39.705 5.12 4.14 11.564 7.818 18.963 10.667zM549.926 393.481c7.925-3.165 14.988-6.343 20.148-9.481 14.594-8.878 17.778-10.892 17.778-30.815 0-17.793-6.482-29.015-18.963-39.111-5.12-4.142-11.566-7.701-18.963-10.667v90.074z" />
<glyph unicode="&#xe90d;" glyph-name="chevron-up" d="M316.16 302.507l195.84 195.413 195.84-195.413 60.16 60.16-256 256-256-256 60.16-60.16z" />
<glyph unicode="&#xe90e;" glyph-name="play" d="M512-64c283.022 0 512 228.978 512 512s-228.978 512-512 512c-283.022 0-512-228.978-512-512s228.978-512 512-512zM512 903.111c250.311 0 455.111-204.8 455.111-455.111s-204.8-455.111-455.111-455.111c-250.311 0-455.111 204.8-455.111 455.111s204.8 455.111 455.111 455.111zM369.778 224.711c4.267-2.844 9.956-4.267 14.222-4.267s9.956 1.422 14.222 4.267l341.333 199.111c8.533 5.689 14.222 14.222 14.222 24.178s-5.689 19.911-14.222 24.178l-341.333 199.111c-8.533 5.689-19.911 5.689-28.444 0s-14.222-14.222-14.222-24.178v-398.222c0-9.956 5.689-19.911 14.222-24.178zM412.444 597.333l256-149.333-256-149.333v298.667z" />
</font></defs></svg>