<?xml version="1.0" standalone="no"?>
<!DOCTYPE svg PUBLIC "-//W3C//DTD SVG 1.1//EN" "http://www.w3.org/Graphics/SVG/1.1/DTD/svg11.dtd" >
<svg xmlns="http://www.w3.org/2000/svg">
<metadata>Generated by IcoMoon</metadata>
<defs>
<font id="icomoon" horiz-adv-x="1024">
<font-face units-per-em="1024" ascent="960" descent="-64" />
<missing-glyph horiz-adv-x="1024" />
<glyph unicode="&#x20;" horiz-adv-x="512" d="" />
<glyph unicode="&#xe900;" glyph-name="icono-form17" horiz-adv-x="1536" d="M888.889 406.518v-241.778h-241.778v241.778h-181.333l302.222 302.222 302.222-302.222h-181.333zM1212.267 586.038c-41.102 207.929-224.249 364.48-444.267 364.48-174.684 0-326.4-99.129-401.956-243.591-181.938-19.947-323.378-173.476-323.378-360.853 0-200.295 162.371-362.667 362.667-362.667h785.778c80.154 0 157.026 31.841 213.703 88.519s88.519 133.549 88.519 213.703c0 159.573-123.911 288.924-281.067 300.409z" />
<glyph unicode="&#xe901;" glyph-name="icono-form18" horiz-adv-x="712" d="M256.156 910.648c0 27.257 22.096 49.352 49.352 49.352s49.352-22.096 49.352-49.352v-220.605l59.716-6.416 243.801-108.575c24.676-9.87 41.949-36.027 41.949-66.132v-215.176c0-39.482-36.027-74.029-74.029-74.029h-320.79c-19.247 0-36.521 7.896-49.352 21.222l-241.827 207.28 36.521 38.001c9.377 9.87 22.209 15.793 36.521 15.793l10.858-1.481 157.928-83.405v493.523zM700.327-27.047h-394.819v148.057h394.819v-148.057z" />
<glyph unicode="&#xe902;" glyph-name="icono-form19" horiz-adv-x="1078" d="M1061.726 348.295l-53.895-53.895-110.484 110.484 53.895 53.895c11.318 11.857 30.181 11.857 41.499 0l68.985-68.985c11.857-11.318 11.857-30.181 0-41.499v0zM538.947 47.023l327.141 326.602 110.484-110.484-326.602-327.141h-111.023v111.023zM107.789 960h754.526c59.531 0 107.789-48.259 107.789-107.789v-224.741l-206.417-206.417h-224.741v-224.741l-98.627-98.627h-332.531c-59.531 0-107.789 48.259-107.789 107.789v646.737c0 59.53 48.259 107.789 107.789 107.789v0zM107.789 744.421v-215.579h323.368v215.579h-323.368zM538.947 744.421v-215.579h323.368v215.579h-323.368zM107.789 421.053v-215.579h323.368v215.579h-323.368z" />
<glyph unicode="&#xe903;" glyph-name="icono-form20" horiz-adv-x="607" d="M590.127 664.936l-53.855-53.476-241.209 241.209-241.209-241.209-53.855 53.476 295.064 295.064zM590.127 261.784l-53.855 53.476-241.209-241.209-241.209 241.209-53.855-53.476 295.064-295.064z" />
<glyph unicode="&#xe904;" glyph-name="icono-form22" d="M787.692 644.923c0-43.503-35.266-78.769-78.769-78.769s-78.769 35.266-78.769 78.769c0 43.503 35.266 78.769 78.769 78.769s78.769-35.266 78.769-78.769zM275.692 960c-58.912 0-103.664 0.156-140.694-4s-69.557-13.202-93.617-37.231c-24.057-24.029-33.127-56.564-37.308-93.617s-4.077-81.857-4.077-140.847v-472.615c0-58.912-0.156-103.664 4-140.694s13.202-69.557 37.231-93.617c24.029-24.060 56.564-33.127 93.617-37.307 37.050-4.181 81.857-4.077 140.847-4.077h472.615c58.912 0 103.664-0.158 140.694 4 37.029 4.156 69.557 13.202 93.617 37.231s33.127 56.564 37.307 93.617c4.181 37.050 4.077 81.857 4.077 140.847v472.615c0 58.912 0.156 103.664-4 140.694s-13.202 69.557-37.231 93.617c-24.029 24.057-56.564 33.127-93.617 37.308s-81.857 4.077-140.847 4.077h-472.615zM275.692 881.231h472.615c58.947 0 102.628-0.224 132.001-3.538 29.371-3.314 41.204-9.122 46.769-14.692 5.563-5.57 11.319-17.403 14.615-46.769s3.538-73.035 3.538-131.923v-472.615c0-58.947-0.225-102.628-3.538-132.001-3.314-29.371-9.122-41.204-14.692-46.769-5.57-5.563-17.403-11.319-46.769-14.615s-73.035-3.538-131.923-3.538h-472.615c-58.947 0-102.628 0.225-132.001 3.538-29.371 3.314-41.204 9.122-46.769 14.692-5.563 5.57-11.319 17.403-14.615 46.769s-3.538 73.035-3.538 131.923v472.615c0 58.947 0.224 102.628 3.538 132.001 3.314 29.371 9.122 41.204 14.692 46.769 5.57 5.563 17.403 11.319 46.769 14.615s73.035 3.538 131.923 3.538v0zM314.447 448c-10.231-0.163-19.997-4.301-27.231-11.539l-118.154-118.154c-10.266-9.883-14.393-24.541-10.792-38.329s14.369-24.556 28.157-28.157c13.788-3.601 28.446 0.526 38.329 10.792l90.309 90.309 169.078-169.078c9.883-10.266 24.541-14.393 38.329-10.792s24.556 14.369 28.157 28.157c3.601 13.788-0.526 28.446-10.792 38.329l-31.231 31.231 82.152 82.152 208.463-208.463c9.883-10.266 24.541-14.393 38.329-10.792s24.556 14.369 28.157 28.157c3.601 13.788-0.526 28.446-10.792 38.329l-236.308 236.308c-7.535 7.539-17.804 11.702-28.462 11.539-10.231-0.163-19.997-4.301-27.231-11.539l-110.001-110.001-110.001 110.001c-7.535 7.539-17.804 11.702-28.462 11.539l-0.004 0.001z" />
<glyph unicode="&#xe905;" glyph-name="icono-form23" horiz-adv-x="898" d="M815.079 409.234h-31.628v269.014l-243.050 281.752h-422.557c-64.978 0-117.844-54.832-117.844-122.226v-779.548c0-67.405 52.866-122.226 117.844-122.226h547.774c64.988 0 117.844 54.821 117.844 122.226v17.025h31.628c45.695 0 82.879 38.567 82.879 85.961v162.061c-0.011 47.394-37.195 85.961-82.89 85.961zM549.208 900.209l182.662-211.758h-182.662v211.758zM751.578 58.226c0-49.179-38.555-89.168-85.971-89.168h-547.763c-47.405 0-85.971 39.989-85.971 89.168v779.548c0 49.168 38.566 89.168 85.971 89.168h399.492v-271.548h234.253v-246.16h-349.42c-45.705 0-82.89-38.567-82.89-85.961v-162.061c0-47.394 37.185-85.961 82.89-85.961h349.409v-17.025zM866.086 161.212c0-29.157-22.885-52.904-51.007-52.904h-412.91c-28.122 0-51.017 23.736-51.017 52.904v162.061c0 29.157 22.885 52.904 51.017 52.904h412.91c28.112 0 51.007-23.736 51.007-52.904v-162.061zM600.585 314.092h-49.201v-148.76h49.201c47.809 0 68.887 28.132 68.887 77.906 0 47.923-24.691 70.854-68.887 70.854zM602.2 182.004h-31.745v115.405h32.138c35.156 0 47.809-21.455 47.809-56.86 0-54.799-35.145-58.545-48.202-58.545zM708.923 165.332h19.070v68.132h65.881v16.661h-65.881v47.284h75.134v16.683h-94.205zM472.463 314.092h-62.863v-148.76h19.081v60.837h43.782c28.537-0.22 43.995 16.441 43.995 43.945s-15.458 43.978-43.995 43.978zM466.036 242.831h-37.355v54.579h37.355c21.493 0 31.331-9.576 31.331-27.295s-9.838-27.504-31.331-27.284z" />
<glyph unicode="&#xe906;" d="M0.002 447.998c0-282.169 228.693-512 512-512s512 228.693 512 512c0 283.307-229.831 512-512 512s-512-229.831-512-512z" />
<glyph unicode="&#xe907;" d="M764.769 353.443c-7.691-10.763-13.835-12.299-19.991-12.299-12.299 0-29.207 7.68-49.198 23.063 15.383 1.536 29.218 3.072 43.054 3.072 21.527 0 29.218-3.072 32.29-4.608-1.547-1.547-3.072-4.619-6.155-9.227zM457.262 341.143c24.599 56.889 46.126 121.469 63.044 179.883 26.135-47.65 58.425-95.323 90.704-132.221-49.198-12.299-104.55-27.682-153.748-47.662zM501.851 716.303c1.536 4.608 3.072 6.144 6.155 6.144h1.536c3.072-4.608 7.68-26.135 0-76.868-9.227 29.207-13.835 56.889-7.691 70.724zM312.741 176.621c-12.311 9.227-10.775 15.383-10.775 16.919 1.536 13.835 21.527 36.898 73.808 64.58-38.434-70.736-59.961-79.963-63.033-81.499zM809.358 379.577c-9.227 16.919-32.29 26.146-69.188 26.146-21.527 0-49.198-3.083-79.952-9.227-44.59 46.126-89.179 113.778-121.469 179.883 30.754 133.769 10.763 159.903 3.072 169.131-7.68 10.763-18.443 15.383-30.743 15.383-4.619 0-9.227-1.536-15.371-3.072-12.299-4.619-23.074-13.847-29.218-27.682-16.919-39.97 6.144-106.086 29.218-158.367-21.538-79.952-55.353-176.822-90.726-255.226-90.715-39.982-138.377-81.488-142.985-119.933-1.536-13.835 1.536-35.362 26.135-53.817 6.155-4.608 15.371-7.68 23.063-7.68 19.991 0 41.518 16.907 66.116 50.734 18.443 24.599 36.898 59.972 56.889 101.478 64.58 27.682 142.996 53.817 210.637 67.652 36.91-35.362 70.736-53.817 99.942-53.817 21.527 0 38.446 9.227 52.281 27.682 13.835 19.979 16.907 36.898 12.299 50.734z" />
<glyph unicode="&#xe908;" glyph-name="icono-form25" d="M1024 856.869l-103.131 103.131-408.869-408.869-408.869 408.869-103.131-103.131 408.869-408.869-408.869-408.869 103.131-103.131 408.869 408.869 408.869-408.869 103.131 103.131-408.869 408.869z" />
</font></defs></svg>