<?xml version="1.0" standalone="no"?>
<!DOCTYPE svg PUBLIC "-//W3C//DTD SVG 1.1//EN" "http://www.w3.org/Graphics/SVG/1.1/DTD/svg11.dtd" >
<svg xmlns="http://www.w3.org/2000/svg">
<metadata>Generated by IcoMoon</metadata>
<defs>
<font id="icomoon" horiz-adv-x="1024">
<font-face units-per-em="1024" ascent="960" descent="-64" />
<missing-glyph horiz-adv-x="1024" />
<glyph unicode="&#x20;" horiz-adv-x="512" d="" />
<glyph unicode="&#xe900;" glyph-name="attach" horiz-adv-x="640" d="M622.423 226.442c0-142.734-132.171-258.442-295.211-258.442s-295.211 115.708-295.211 258.442v493.389c0 103.806 96.124 187.958 214.699 187.958s214.699-84.152 214.699-187.958v-399.411c0-64.879-60.078-117.474-134.187-117.474s-134.187 52.595-134.187 117.474v352.421h80.512v-352.421c0-25.952 24.031-46.989 53.675-46.989s53.675 21.038 53.675 46.989v399.411c0 31.156-14.138 61.036-39.302 83.066s-59.296 34.407-94.884 34.407c-35.589 0-69.72-12.377-94.884-34.407s-39.302-51.91-39.302-83.066v-493.389c0-103.806 96.124-187.958 214.699-187.958s214.699 84.152 214.699 187.958v446.4h80.512v-446.4z" />
<glyph unicode="&#xe901;" glyph-name="composs" d="M384 652.8c14.821 0 26.947 12.126 26.947 26.947s-12.126 26.947-26.947 26.947h-354.358c-14.821 0-26.947-12.126-26.947-26.947v-710.063c0-14.821 12.126-26.947 26.947-26.947h710.063c14.821 0 26.947 12.126 26.947 26.947v355.705c0 14.821-12.126 26.947-26.947 26.947s-26.947-12.126-26.947-26.947v-327.411h-656.168v654.821h327.411zM854.232 945.179c-10.779 10.779-26.947 10.779-37.726 0l-110.484-110.484-381.305-382.653c-4.042-4.042-6.737-9.432-8.084-16.168l-21.558-181.895c-1.347-8.084 1.347-16.168 8.084-22.905 5.389-5.389 12.126-8.084 18.863-8.084 1.347 0 2.695 0 2.695 0l181.895 21.558c5.389 1.347 12.126 4.042 16.168 8.084l490.442 495.832c10.779 10.779 10.779 26.947 0 37.726l-158.989 158.989zM490.442 299.789l-137.432-16.168 16.168 137.432 355.705 355.705 121.263-121.263-355.705-355.705zM883.874 693.221l-121.263 121.263 72.758 72.758 121.263-121.263-72.758-72.758z" />
<glyph unicode="&#xe902;" glyph-name="search" d="M661.419 362.667h-33.877l-11.776 11.691c41.6 48.512 66.901 111.403 66.901 180.309 0 153.173-124.16 277.333-277.333 277.333s-277.333-124.16-277.333-277.333c0-153.173 124.16-277.333 277.333-277.333 68.907 0 131.755 25.259 180.267 66.816l11.776-11.691v-33.792l213.248-212.949 63.616 63.616-212.821 213.333zM405.333 362.667c-106.069 0-192 85.931-192 192 0 106.027 85.931 192 192 192 106.027 0 192-85.973 192-192 0-106.069-85.973-192-192-192v0z" />
<glyph unicode="&#xe903;" glyph-name="Archive" d="M887.961 595.623v42.526c-0.029 60.702-45.464 111.693-105.533 118.438v27.291c0 65.85-53.155 119.233-118.725 119.233h-303.407c-65.57 0-118.725-53.382-118.725-119.233v-27.291c-60.069-6.745-105.504-57.736-105.533-118.438v-42.526c-48.541-24.877-79.11-74.97-79.15-129.699v-384.195c0-80.484 64.967-145.729 145.108-145.729h620.006c80.141 0 145.108 65.245 145.108 145.729v384.195c-0.039 54.729-30.609 104.822-79.15 129.699zM360.296 823.623h303.407c21.857 0 39.575-17.794 39.575-39.744v-26.496h-382.557v26.496c0 21.95 17.718 39.744 39.575 39.744zM254.763 677.893h514.473c21.857 0 39.575-17.794 39.575-39.744v-26.496h-593.623v26.496c0 21.95 17.718 39.744 39.575 39.744zM887.961 81.729c0-36.584-29.53-66.24-65.958-66.24h-620.006c-36.428 0-65.958 29.657-65.958 66.24v384.195c0 36.584 29.53 66.24 65.958 66.24h620.006c36.428 0 65.958-29.657 65.958-66.24v-384.195zM641.707 391.111h-259.413c-22.622 0-40.96-12.735-40.96-28.444s18.338-28.444 40.96-28.444h259.413c22.622 0 40.96 12.735 40.96 28.444s-18.338 28.444-40.96 28.444z" />
<glyph unicode="&#xe904;" glyph-name="Delete" d="M184.483 585.752v-432.762c0-114.59 92.648-207.238 207.238-207.238h224.305c114.59 0 207.238 92.648 207.238 207.238v432.762c41.448 19.505 70.705 62.171 70.705 110.933 0 68.267-54.857 123.124-123.124 123.124h-88.99c0 71.924-58.514 130.438-130.438 130.438h-93.867c-71.924 0-130.438-58.514-130.438-130.438h-88.99c-69.486 0-124.343-54.857-124.343-123.124 0-48.762 29.257-91.429 70.705-110.933zM616.025 18.895h-224.305c-74.362 0-134.095 59.733-134.095 134.095v420.571h492.495v-420.571c0-73.143-60.952-134.095-134.095-134.095zM456.33 877.105h93.867c31.695 0 57.295-25.6 57.295-57.295h-208.457c1.219 31.695 26.819 57.295 57.295 57.295zM236.902 746.667h533.943c26.819 0 49.981-21.943 49.981-49.981 0-26.819-21.943-49.981-49.981-49.981h-533.943c-26.819 0-49.981 21.943-49.981 49.981s23.162 49.981 49.981 49.981zM592.863 480.914h73.143v-355.962h-73.143v355.962zM467.302 480.914h73.143v-355.962h-73.143v355.962zM341.74 480.914h73.143v-355.962h-73.143v355.962z" />
<glyph unicode="&#xe905;" glyph-name="Shared" d="M776.682 955.903c-100.633 0-182.998-76.371-182.998-169.681 0-16.484 2.838-32.27 7.625-47.369l-248.192-159.076c-31.215 22.932-70.558 36.764-113.23 36.764-100.633 0-182.998-76.371-182.998-169.681s82.365-169.681 182.998-169.681c42.862 0 82.33 14.002 113.611 37.118l247.81-159.076c-4.854-15.196-7.625-31.121-7.625-47.723 0-93.31 82.365-169.681 182.998-169.681s182.998 76.371 182.998 169.681c0 93.311-82.365 169.681-182.998 169.681-56.606 0-107.424-24.112-141.061-61.862l-234.466 151.299c13.98 23.939 21.73 51.253 21.73 80.244 0 29.047-8.084 56.275-22.112 80.245 85.718 50.619 148.46 101 234.848 151.299 33.638-37.751 84.455-61.863 141.061-61.863 100.633 0 182.998 76.371 182.998 169.681s-82.365 169.681-182.998 169.681zM776.682 888.031c61.074 0 109.799-45.179 109.799-101.809s-48.725-101.809-109.799-101.809c-61.074 0-109.799 45.179-109.799 101.809s48.725 101.809 109.799 101.809zM239.887 548.668c61.074 0 109.799-45.179 109.799-101.809s-48.725-101.809-109.799-101.809c-61.074 0-109.799 45.179-109.799 101.809s48.725 101.809 109.799 101.809zM776.682 209.306c61.074 0 109.799-45.179 109.799-101.809s-48.725-101.809-109.799-101.809c-61.074 0-109.799 45.179-109.799 101.809s48.725 101.809 109.799 101.809z" />
<glyph unicode="&#xe906;" glyph-name="Spam1" d="M460.8 294.4h102.4v-102.4h-102.4v102.4zM460.8 704h102.4v-307.2h-102.4v307.2zM512 960c-283.136 0-512-230.4-512-512 0-135.791 53.943-266.020 149.961-362.039s226.248-149.961 362.039-149.961c282.77 0 512 229.23 512 512 0 135.791-53.943 266.020-149.961 362.039s-226.248 149.961-362.039 149.961v0zM512 38.4c-226.216 0-409.6 183.384-409.6 409.6s183.384 409.6 409.6 409.6c108.633 0 212.816-43.154 289.631-119.969s119.969-180.998 119.969-289.631c0-226.216-183.384-409.6-409.6-409.6z" />
<glyph unicode="&#xe907;" glyph-name="Archive2" d="M887.961 595.623v42.526c-0.029 60.702-45.464 111.693-105.533 118.438v27.291c0 65.85-53.155 119.233-118.725 119.233h-303.407c-65.57 0-118.725-53.382-118.725-119.233v-27.291c-60.069-6.745-105.504-57.736-105.533-118.438v-42.526c-48.541-24.877-79.11-74.97-79.15-129.699v-384.195c0-80.484 64.967-145.729 145.108-145.729h620.006c80.141 0 145.108 65.245 145.108 145.729v384.195c-0.039 54.729-30.609 104.822-79.15 129.699zM360.296 823.623h303.407c21.857 0 39.575-17.794 39.575-39.744v-26.496h-382.557v26.496c0 21.95 17.718 39.744 39.575 39.744zM254.763 677.893h514.473c21.857 0 39.575-17.794 39.575-39.744v-26.496h-593.623v26.496c0 21.95 17.718 39.744 39.575 39.744zM887.961 81.729c0-36.584-29.53-66.24-65.958-66.24h-620.006c-36.428 0-65.958 29.657-65.958 66.24v384.195c0 36.584 29.53 66.24 65.958 66.24h620.006c36.428 0 65.958-29.657 65.958-66.24v-384.195zM641.707 391.111h-259.413c-22.622 0-40.96-12.735-40.96-28.444s18.338-28.444 40.96-28.444h259.413c22.622 0 40.96 12.735 40.96 28.444s-18.338 28.444-40.96 28.444z" />
<glyph unicode="&#xe908;" glyph-name="inbox-white" d="M910.222 277.333h-227.556c0-94.257-76.41-170.667-170.667-170.667s-170.667 76.41-170.667 170.667h-227.556v568.889h796.444v-568.889zM910.222 960h-796.444c-63.147 0-113.778-51.2-113.778-113.778v-796.444c0-62.838 50.94-113.778 113.778-113.778h796.444c62.838 0 113.778 50.94 113.778 113.778v796.444c0 62.838-50.94 113.778-113.778 113.778z" />
<glyph unicode="&#xe909;" glyph-name="inbox" d="M910.222 277.333h-227.556c0-94.257-76.41-170.667-170.667-170.667s-170.667 76.41-170.667 170.667h-227.556v568.889h796.444v-568.889zM910.222 960h-796.444c-63.147 0-113.778-51.2-113.778-113.778v-796.444c0-62.838 50.94-113.778 113.778-113.778h796.444c62.838 0 113.778 50.94 113.778 113.778v796.444c0 62.838-50.94 113.778-113.778 113.778z" />
<glyph unicode="&#xe90a;" glyph-name="Shared2" d="M776.682 955.903c-100.633 0-182.998-76.371-182.998-169.681 0-16.484 2.838-32.27 7.625-47.369l-248.192-159.076c-31.215 22.932-70.558 36.764-113.23 36.764-100.633 0-182.998-76.371-182.998-169.681s82.365-169.681 182.998-169.681c42.862 0 82.33 14.002 113.611 37.118l247.81-159.076c-4.854-15.196-7.625-31.121-7.625-47.723 0-93.31 82.365-169.681 182.998-169.681s182.998 76.371 182.998 169.681c0 93.311-82.365 169.681-182.998 169.681-56.606 0-107.424-24.112-141.061-61.862l-234.466 151.299c13.98 23.939 21.73 51.253 21.73 80.244 0 29.047-8.084 56.275-22.112 80.245 85.718 50.619 148.46 101 234.848 151.299 33.638-37.751 84.455-61.863 141.061-61.863 100.633 0 182.998 76.371 182.998 169.681s-82.365 169.681-182.998 169.681zM776.682 888.031c61.074 0 109.799-45.179 109.799-101.809s-48.725-101.809-109.799-101.809c-61.074 0-109.799 45.179-109.799 101.809s48.725 101.809 109.799 101.809zM239.887 548.668c61.074 0 109.799-45.179 109.799-101.809s-48.725-101.809-109.799-101.809c-61.074 0-109.799 45.179-109.799 101.809s48.725 101.809 109.799 101.809zM776.682 209.306c61.074 0 109.799-45.179 109.799-101.809s-48.725-101.809-109.799-101.809c-61.074 0-109.799 45.179-109.799 101.809s48.725 101.809 109.799 101.809z" />
<glyph unicode="&#xe90b;" glyph-name="Spam12" d="M460.8 294.4h102.4v-102.4h-102.4v102.4zM460.8 704h102.4v-307.2h-102.4v307.2zM512 960c-283.136 0-512-230.4-512-512 0-135.791 53.943-266.020 149.961-362.039s226.248-149.961 362.039-149.961c282.77 0 512 229.23 512 512 0 135.791-53.943 266.020-149.961 362.039s-226.248 149.961-362.039 149.961v0zM512 38.4c-226.216 0-409.6 183.384-409.6 409.6s183.384 409.6 409.6 409.6c108.633 0 212.816-43.154 289.631-119.969s119.969-180.998 119.969-289.631c0-226.216-183.384-409.6-409.6-409.6z" />
</font></defs></svg>