<?xml version="1.0" standalone="no"?>
<!DOCTYPE svg PUBLIC "-//W3C//DTD SVG 1.1//EN" "http://www.w3.org/Graphics/SVG/1.1/DTD/svg11.dtd" >
<svg xmlns="http://www.w3.org/2000/svg">
<metadata>Generated by IcoMoon</metadata>
<defs>
<font id="icomoon" horiz-adv-x="1024">
<font-face units-per-em="1024" ascent="960" descent="-64" />
<missing-glyph horiz-adv-x="1024" />
<glyph unicode="&#x20;" horiz-adv-x="512" d="" />
<glyph unicode="&#xe900;" glyph-name="heartp" horiz-adv-x="1152" d="M835.2 960c-100.224 0-196.416-44.928-259.2-115.371-62.784 70.443-158.976 115.371-259.2 115.371-177.408 0-316.8-133.675-316.8-305.067 0-209.109 195.84-380.501 492.48-639.531l83.52-73.216 83.52 73.216c296.64 259.029 492.48 430.421 492.48 639.531 0 171.392-139.392 305.067-316.8 305.067z" />
<glyph unicode="&#xe901;" glyph-name="years" horiz-adv-x="878" d="M780.19 82.286h-682.667v536.381h682.667zM633.905 960v-97.524h-390.095v97.524h-97.524v-97.524h-48.762c-54.126 0-97.524-43.398-97.524-97.524v-682.667c0-53.861 43.663-97.524 97.524-97.524h682.667c53.861 0 97.524 43.663 97.524 97.524v682.667c0 54.126-43.886 97.524-97.524 97.524h-48.762v97.524zM431.899 536.233l139.328-145.588h-278.656zM431.899 167.222l-139.328 145.588h278.656z" />
<glyph unicode="&#xe902;" glyph-name="woman-avatar" horiz-adv-x="951" d="M180.733-42.359c68.377-10.199 151.842 5.423 243.011 10.84 17.014-3.823 34.028-6.376 51.684-6.376 17.977 0 35.633 2.554 53.289 6.695 237.233-11.477 422.139-78.11 422.139 401.39 0 325.512-212.835 589.81-475.429 589.81s-475.429-264.299-475.429-589.81c0-261.748 50.4-363.451 132.26-398.839 15.088-7.014 31.46-11.159 48.474-13.709zM104.973 554.147c49.758-68.546 178.807-53.88 290.201 32.838 28.25 21.998 52.968 47.185 72.871 72.69 2.568-0.319 5.136-0.638 7.704-1.275 10.915-1.913 20.866-5.739 32.102-9.246 9.955-4.782 20.866-8.608 30.497-14.666 9.955-5.101 18.94-12.115 27.929-18.173 8.025-7.014 17.014-13.709 23.755-21.361 7.059-7.014 13.804-14.666 18.937-21.998 5.778-7.014 9.955-14.347 14.125-20.723s7.701-12.115 9.631-17.216c4.815-9.883 7.701-15.622 7.701-15.622s-0.963 6.058-2.886 17.216c-0.642 5.739-2.247 12.115-4.173 19.767-1.929 7.652-4.176 16.578-8.025 25.505-3.21 9.246-7.704 18.81-12.841 29.012-4.815 10.202-11.878 20.085-18.622 30.925-8.025 9.883-15.409 20.723-25.039 30.288-8.989 10.202-19.903 18.81-30.497 28.056-9.952 7.014-20.542 14.666-31.778 20.723 4.815 9.883 8.664 20.085 11.874 29.65 39.806-17.854 80.579-40.49 112.999-72.69 119.101-118.281 72.229-255.691 164.044-164.828 14.446 14.347 26.32 29.331 35.633 44.315 3.21 0 6.42 0.319 8.989-0.319 12.52-3.188 20.545-12.753 25.039-20.404 12.52-20.723 15.412-50.692 7.704-80.661-11.557-44.634-41.090-71.096-64.846-73.965l-19.261-2.551-5.133-18.81c-45.585-164.19-168.535-338.902-307.536-338.902s-261.63 174.711-307.536 338.902l-5.136 18.81-19.261 2.551c-23.434 3.188-53.289 29.65-64.846 73.965-7.704 29.969-4.815 59.937 7.704 80.661 2.889 5.739 9.31 13.071 17.977 17.535z" />
<glyph unicode="&#xe903;" glyph-name="star" horiz-adv-x="1075" d="M517.617 960.010l-159.949-324.147-357.683-51.968 258.867-252.211-61.133-356.25 319.898 168.192 319.949-168.192-61.133 356.25 258.816 252.211-357.683 51.968z" />
<glyph unicode="&#xe904;" glyph-name="share" horiz-adv-x="1186" d="M1185.684 482.133l-461.099 477.867v-273.067c-461.099-68.267-658.713-409.6-724.585-750.933 164.678 238.933 395.228 348.16 724.585 348.16v-279.893l461.099 477.867z" />
<glyph unicode="&#xe905;" glyph-name="rocket" d="M0 363.671l170.466 170.466 152.395 30.118c193.958 263.831 565.007 395.746 699.332 395.746 0-134.325-131.915-505.374-395.746-699.332l-30.118-152.395-170.466-170.466-42.767 212.631c-84.932 0-84.932 0-127.699 42.767s-42.767 42.767-42.767 127.699l-212.631 42.767zM170.466 193.205l84.932-84.932-160.226-160.828h-85.534v85.534l160.828 160.226zM84.932 278.136l74.692-10.24-148.179-147.576v85.534l73.487 72.282zM330.089 97.431l10.24-74.692-72.282-73.487h-85.534l147.576 148.179zM613.798 641.958c-49.901 0-90.353-40.452-90.353-90.353s40.452-90.353 90.353-90.353c49.901 0 90.353 40.452 90.353 90.353s-40.452 90.353-90.353 90.353z" />
<glyph unicode="&#xe906;" glyph-name="pdf" d="M472.299 643.808l2.814 2.26c3.966 18.122 5.671 33.941 9.082 46.392l1.663 9.040c5.671 32.236 4.52 48.652-5.074 62.211l-8.485 2.857c-1.151-1.706-2.814-4.562-3.965-6.822-9.594-23.75-9.040-65.025 3.965-115.937zM301.485 252.973c-11.896-6.822-21.49-13.005-27.161-17.568-40.167-36.755-65.622-74.065-68.437-95.555 25.456 8.485 58.843 45.795 95.598 113.123zM820.153 335.523c-5.628 5.671-28.27 19.827-107.452 19.827-3.965 0-7.931 0-13.005-5.671 41.275-18.079 81.442-28.867 107.452-28.867 3.965 0 7.377 0.597 10.745 1.151h2.26c2.857 1.151 4.52 1.706 5.117 7.334-1.151 1.706-2.26 3.965-5.117 6.225zM905.006 959.98h-791.903c-62.765 0-113.123-50.315-113.123-113.123v-791.86c0-62.51 50.656-113.123 113.123-113.123h791.903c62.467 0 113.123 50.613 113.123 113.123v791.86c0 62.808-50.912 113.123-113.123 113.123zM843.349 295.4c-9.594-10.788-26.564-16.971-51.466-16.971-42.981 0-113.123 13.005-169.706 41.829-97.261-10.745-169.663-23.75-227.951-42.426-2.814-1.109-6.225-2.26-10.148-3.965-70.142-119.903-122.205-173.629-168-173.629-9.040 0-18.122 2.26-24.902 6.225l-27.161 17.525-1.663 2.814c-3.966 10.191-5.117 19.827-2.857 30.573 6.225 29.976 38.461 77.476 106.343 119.903 10.745 7.931 27.716 16.971 50.357 27.716 16.971 29.421 35.050 63.917 54.28 101.823 28.867 58.246 46.946 115.937 61.103 165.74v0.554c-20.936 68.437-33.387 109.712-12.451 184.971 5.074 21.49 23.75 43.535 44.686 43.535h13.559c13.005 0 25.456-4.52 34.538-13.559 37.31-37.352 19.785-128.431 1.109-203.647-1.109-3.369-1.706-6.225-2.26-7.931 22.642-63.917 54.877-115.383 90.524-144.804 14.668-11.299 31.084-22.599 49.206-32.79 25.456 2.814 49.76 3.966 72.956 3.966 70.142 0 112.569-12.451 128.942-39.015 5.671-9.082 8.485-19.827 6.822-31.127-0.597-14.156-5.671-27.161-15.862-37.31zM476.819 510.9c-13.005-41.872-31.681-86.558-57.137-135.765-11.299-21.49-23.75-41.872-28.27-58.843l6.225 2.26c71.848 27.716 139.73 43.578 188.936 52.617-8.485 5.671-16.416 11.896-23.196 18.122-33.941 28.824-63.362 70.696-86.558 121.608z" />
<glyph unicode="&#xe907;" glyph-name="man" horiz-adv-x="951" d="M453.273-64c135.26 0 453.273 150.762 453.273 512.005 0.006 282.768-41.209 511.995-453.273 511.995-412.059 0-453.273-229.227-453.273-512 0-361.238 318.013-512 453.273-512zM67.745 533.449c31.84 57.030 100.712 122.935 248.827 120.011 0 0 88.282-198.326 521.696-109.263 1.749-31.68 2.299-64.004 2.299-96.198 0-176.574-84.183-285.982-154.81-346.668-88.988-76.471-187.788-104.226-232.484-104.226s-143.496 27.754-232.484 104.226c-70.627 60.686-154.81 170.094-154.81 346.668 0.006 28.564 0.454 57.228 1.766 85.449z" />
<glyph unicode="&#xe908;" glyph-name="hand" horiz-adv-x="1152" d="M0-44.467h200.896v602.688h-200.896v-602.688zM1104.896 507.981c0 55.744-45.184 100.48-100.416 100.48h-317.44l48.256 229.504c0.96 4.992 1.472 10.56 1.472 16.064 0 20.608-8.512 39.68-22.080 53.248l-53.248 52.736-330.496-330.496c-18.56-18.56-29.632-43.712-29.632-71.296v-502.272c0-55.424 44.992-100.416 100.48-100.416h452.032c41.664 0 77.312 25.088 92.416 61.248l151.616 354.112c4.544 11.52 7.040 23.616 7.040 36.672v100.416z" />
<glyph unicode="&#xe909;" glyph-name="eyes2" horiz-adv-x="1463" d="M731.429 960c-332.434 0-616.375-206.775-731.429-498.688 115.054-291.913 398.994-498.688 731.429-498.688s616.375 206.775 731.429 498.688c-115.054 291.913-398.994 498.688-731.429 498.688zM731.429 128.805c-183.589 0-332.434 148.846-332.434 332.507 0 183.589 148.846 332.434 332.434 332.434s332.434-148.846 332.434-332.434c0-183.662-148.846-332.507-332.434-332.507zM731.429 660.773c-110.153 0-199.461-89.307-199.461-199.461s89.307-199.461 199.461-199.461c110.153 0 199.461 89.307 199.461 199.461s-89.307 199.461-199.461 199.461z" />
<glyph unicode="&#xe90a;" glyph-name="coments" d="M1024 857.6v-921.6l-204.8 204.8h-716.8c-56.576 0-102.4 45.824-102.4 102.4v614.4c0 56.576 45.824 102.4 102.4 102.4h819.2c56.576 0 102.4-45.824 102.4-102.4zM204.8 345.6h614.4v102.4h-614.4v-102.4zM204.8 499.2h614.4v102.4h-614.4v-102.4zM204.8 652.8h614.4v102.4h-614.4v-102.4z" />
<glyph unicode="&#xe90b;" glyph-name="heart2" horiz-adv-x="1106" d="M558.49 100.147l-5.53-5.53-6.083 5.53c-262.656 238.326-436.285 395.919-436.285 555.725 0 110.592 82.944 193.536 193.536 193.536 85.156 0 168.1-55.296 197.407-130.499h102.851c29.307 75.203 112.251 130.499 197.407 130.499 110.592 0 193.536-82.944 193.536-193.536 0-159.805-173.629-317.399-436.838-555.725v0zM801.792 960c-96.215 0-188.559-44.79-248.832-115.016-60.273 70.226-152.617 115.016-248.832 115.016-170.312 0-304.128-133.263-304.128-304.128 0-208.466 188.006-379.331 472.781-637.563l80.179-72.991 80.179 72.991c284.774 258.232 472.781 429.097 472.781 637.563 0 170.865-133.816 304.128-304.128 304.128z" />
<glyph unicode="&#xe90c;" glyph-name="wold" d="M512 960c-283.136 0-512-230.4-512-512 0-282.778 229.222-512 512-512s512 229.222 512 512c0 282.778-229.222 512-512 512zM866.304 652.8h-151.040c-16.384 64-39.936 125.44-70.656 182.272 94.208-32.256 172.544-97.28 221.696-182.272zM512 856.064c42.496-61.44 76.8-130.048 97.792-203.264h-195.584c20.992 73.216 55.296 141.824 97.792 203.264zM115.712 345.6c-8.192 32.768-13.312 67.072-13.312 102.4s5.12 69.632 13.312 102.4h173.056c-4.096-33.792-7.168-67.584-7.168-102.4s3.072-68.608 7.168-102.4zM157.696 243.2h149.504c17.92-64 40.96-125.44 71.68-182.272-93.696 32.256-172.544 97.792-221.184 182.272zM307.2 652.8h-149.504c48.64 84.992 127.488 150.528 221.184 182.272-30.72-56.832-53.76-118.272-71.68-182.272zM512 40.448c-42.496 61.44-76.8 129.536-97.792 202.752h195.584c-20.992-73.216-55.296-141.312-97.792-202.752zM631.808 345.6h-239.616c-5.12 33.792-8.192 67.584-8.192 102.4s3.072 69.12 8.192 102.4h239.616c4.608-33.28 8.192-67.584 8.192-102.4s-3.584-68.608-8.192-102.4zM644.608 60.928c30.72 56.832 54.272 118.272 70.656 182.272h151.040c-49.152-84.48-127.488-150.016-221.696-182.272zM735.232 345.6c4.096 33.792 7.168 67.584 7.168 102.4s-3.072 68.608-7.168 102.4h173.056c8.192-32.768 13.312-67.072 13.312-102.4s-5.12-69.632-13.312-102.4z" />
<glyph unicode="&#xe90d;" glyph-name="movie2" horiz-adv-x="1257" d="M1005.382 960l125.673-251.345h-188.509l-125.673 251.345h-125.673l125.673-251.345h-188.509l-125.673 251.345h-125.673l125.673-251.345h-188.509l-125.673 251.345h-62.836c-69.434 0-125.673-56.239-125.673-125.673v-754.036c0-69.434 56.239-125.673 125.673-125.673h1005.382c69.434 0 125.673 56.239 125.673 125.673v879.709h-251.345z" />
<glyph unicode="&#xe90e;" glyph-name="Page-1" d="M358.4 448c-56.576 0-102.4-45.824-102.4-102.4s45.824-102.4 102.4-102.4c56.576 0 102.4 45.824 102.4 102.4 0 56.832-46.080 102.4-102.4 102.4zM614.4 601.6c0 56.832-46.080 102.4-102.4 102.4-56.832 0-102.4-45.568-102.4-102.4 0-56.576 45.824-102.4 102.4-102.4s102.4 45.824 102.4 102.4zM512 960c-282.778 0-512-229.222-512-512s229.222-512 512-512c282.778 0 512 229.222 512 512s-229.222 512-512 512zM512 38.4c-226.202 0-409.6 183.398-409.6 409.6s183.398 409.6 409.6 409.6c226.202 0 409.6-183.398 409.6-409.6s-183.398-409.6-409.6-409.6zM665.6 448c-56.832 0-102.4-45.568-102.4-102.4 0-56.576 45.824-102.4 102.4-102.4s102.4 45.824 102.4 102.4c0 56.832-46.080 102.4-102.4 102.4z" />
<glyph unicode="&#xe90f;" glyph-name="id" horiz-adv-x="1130" d="M596.066 542.923c-21.322 21.74-49.57 33.649-79.856 33.649-30.15 0-58.534-11.909-79.856-33.649-44.002-44.865-44.002-117.978 0-162.843 21.322-21.74 49.706-33.787 79.856-33.787 30.285 0 58.534 12.047 79.856 33.787 44.138 44.865 44.138 117.978 0 162.843zM567.274 409.436c-13.581-13.847-31.779-21.602-51.064-21.602s-37.347 7.754-50.928 21.602c-28.248 28.664-28.248 75.467 0 104.131 13.581 13.847 31.643 21.463 50.928 21.463s37.483-7.616 51.064-21.463c14.124-14.401 21.186-33.233 21.186-52.065s-7.062-37.664-21.186-52.065zM721.553 466.901c-1.222 51.927-21.322 103.3-60.028 142.765-80.127 81.698-210.504 81.698-290.631 0-38.706-39.603-60.163-92.222-60.163-148.165s21.458-108.562 60.163-148.165c40.064-40.849 92.758-61.205 145.316-61.205 20.236 0 40.471 3.046 59.892 9.001 2.852 17.171 7.198 33.926 13.038 49.85-61.521-31.018-138.118-20.494-189.318 31.71-31.236 31.71-48.348 73.944-48.348 118.809s17.112 87.099 48.348 118.809c32.051 32.679 74.288 49.019 116.388 49.019 42.237 0 84.473-16.34 116.524-49.019 37.891-38.634 53.373-91.53 46.718-141.795 13.173 10.662 27.162 20.217 42.101 28.387zM811.866 498.335c-13.581-2.216-26.89-5.4-39.792-9.555-6.111 58.989-31.779 115.209-73.88 158.273-48.62 49.573-113.129 76.852-181.984 76.852-68.719 0-133.229-27.279-181.848-76.852s-75.374-115.486-75.374-185.552c0-70.067 26.754-135.979 75.374-185.552s113.129-76.852 181.848-76.852c19.013 0 37.619 2.077 55.682 6.093 0.272-14.124 1.494-28.11 3.803-41.68-19.421-3.877-39.249-5.954-59.484-5.954-79.584 0-154.415 31.572-210.64 89.037-56.361 57.466-87.325 133.764-87.325 214.908s30.964 157.443 87.325 214.908c56.225 57.327 131.056 89.037 210.64 89.037 79.72 0 154.551-31.71 210.776-89.037 47.669-48.604 77.004-111.747 84.881-178.075zM588.732 112.69c4.618-13.432 10.321-26.31 16.84-38.634-29.471-7.062-59.62-10.662-89.906-10.662-56.089 0-112.45 12.186-165.144 37.387-10.321 4.847-14.667 17.171-9.914 27.556 4.889 10.385 16.976 14.816 27.162 9.97 70.349-33.51 148.032-41.403 220.961-25.617zM905.031 497.781c-13.445 2.354-27.162 3.739-41.286 4.016-8.42 77.544-41.829 152.735-100.091 212.001-136.488 139.026-358.4 139.026-494.752 0-8.013-8.17-20.915-8.17-28.792 0-8.013 8.031-8.013 21.186 0 29.356 152.242 155.227 400.093 155.227 552.335 0 67.090-68.405 104.709-155.919 112.586-245.372zM254.452 173.784c-5.215 0-10.43 2.022-14.409 6.079-128.625 131.147-151.033 339.616-53.264 495.716 6.057 9.679 18.66 12.504 28.126 6.328 9.479-6.176 12.264-19.012 6.206-28.678-87.556-139.801-67.47-326.531 47.737-443.996 7.958-8.114 7.958-21.255 0-29.37-3.966-4.057-9.181-6.079-14.396-6.079zM55.709 487.575c-0.679 0-1.358 0.028-2.037 0.097-11.204 1.135-19.366 11.299-18.266 22.723 10.973 112.799 60.394 219.146 139.177 299.459 120.707 123.060 291.691 171.691 457.432 130.025 10.919-2.742 17.587-14 14.898-25.133-2.675-11.147-13.69-17.946-24.649-15.204-151.685 38.135-308.341-6.37-418.862-119.058-72.142-73.556-117.393-170.93-127.443-274.188-1.046-10.718-9.9-18.721-20.249-18.721zM667.773-6.119c-49.163-16.478-100.363-24.786-151.563-24.786-123.722 0-247.444 47.911-341.56 144.011-77.683 79.206-125.488 179.737-138.254 290.653-1.358 11.493 6.655 21.74 17.791 23.125 11.272 1.246 21.322-6.785 22.68-18.278 11.68-101.5 55.41-193.584 126.574-266.143 116.932-119.224 283.569-157.581 432.552-115.070 9.778-12.047 20.371-23.263 31.779-33.51zM999.826 462.609c-13.173 7.893-27.026 14.678-41.422 20.217-1.358 28.802-5.432 57.881-12.359 86.683-2.716 11.078 3.938 22.294 14.939 25.063 10.865 2.769 21.865-4.016 24.581-15.232 9.371-38.911 14.124-77.96 14.26-116.732zM941.401 627.626c-7.891 0-15.401 4.694-18.728 12.559-22.15 52.398-53.617 99.603-93.559 140.3-40.417 41.209-87.298 73.556-139.367 96.169-10.349 4.486-15.17 16.7-10.756 27.251s16.297 15.481 26.727 10.967c56.877-24.703 108.090-60.028 152.201-105.003 43.595-44.422 77.968-95.989 102.169-153.233 4.441-10.538-0.312-22.751-10.647-27.293-2.621-1.163-5.351-1.717-8.040-1.717zM856.955-31.196c-131.042 0-237.666 108.714-237.666 242.326s106.624 242.326 237.666 242.326c131.042 0 237.666-108.714 237.666-242.326s-106.624-242.326-237.666-242.326zM856.955 411.914c-108.579 0-196.923-90.076-196.923-200.784s88.344-200.784 196.923-200.784c108.579 0 196.923 90.076 196.923 200.784s-88.344 200.784-196.923 200.784zM821.169 94.19v0c-5.392 0-10.58 2.188-14.409 6.079l-74.315 75.786c-7.958 8.114-7.958 21.255 0 29.37s20.847 8.114 28.805 0l59.905-61.094 141.364 144.135c7.958 8.114 20.847 8.114 28.805 0s7.958-21.255 0-29.37l-155.773-158.827c-3.789-3.891-8.977-6.079-14.382-6.079z" />
<glyph unicode="&#xe910;" glyph-name="dollar" d="M234.667 960h554.667c129.603 0 234.667-105.064 234.667-234.667v-554.667c0-129.603-105.064-234.667-234.667-234.667h-554.667c-129.603 0-234.667 105.064-234.667 234.667v554.667c0 129.603 105.064 234.667 234.667 234.667v0zM656.64 312.32c0-67.413-37.973-112.213-108.373-118.187v227.84c72.533-22.187 108.373-44.8 108.373-109.653v0zM497.067 704v-208.213c-55.893 16.213-111.787 40.533-111.787 104.533 0 63.573 49.067 98.56 111.787 103.68v0zM661.333 635.733l42.667 34.133c-37.547 48.64-89.6 80.213-155.733 86.613v41.387h-51.2v-40.533c-91.733-5.973-169.387-60.587-169.387-160 0-106.667 87.893-139.947 169.387-161.707v-241.92c-47.36 5.12-100.693 27.733-137.387 82.347l-48.213-32c38.4-57.173 104.96-94.72 185.6-100.693v-45.227h51.2v44.373c106.667 6.827 164.267 77.653 164.267 171.52 0 109.227-80.64 144.213-164.267 168.533v219.307c49.067-7.253 85.333-30.293 113.067-66.133z" />
<glyph unicode="&#xe911;" glyph-name="huella" horiz-adv-x="864" d="M425.971 352.014c-16.993-0.486-30.102-14.566-29.617-31.073 0 0 1.457-71.856 40.783-141.285 40.783-69.429 127.205-135.459 277.716-121.379 16.508 0.971 29.617 14.566 28.645 32.044-0.971 16.993-15.537 29.617-34.472 28.16-132.061-12.138-187.895 37.87-219.454 91.763-31.559 53.407-32.53 111.183-32.53 111.183 0 16.993-13.594 30.588-31.073 30.588zM415.289 594.772v-0.486c-86.422-2.913-172.844-47.581-222.367-141.771-64.088-120.894-34.957-244.215 7.768-333.064 43.211-89.335 101.958-148.568 101.958-148.568 11.652-12.138 30.588-12.138 42.725-0.486s12.138 29.617 0.486 42.725c0 0-51.95 53.407-90.306 132.546s-61.661 179.156-9.225 278.201c54.378 101.958 151.481 126.72 236.932 101.958 86.422-25.247 158.764-100.502 157.307-211.685-1.942-16.993 10.196-31.559 27.189-32.53 16.508-1.457 31.073 11.167 32.53 31.073 2.913 138.858-90.306 239.36-200.033 271.404-27.674 7.768-56.32 11.652-84.965 10.681zM397.811 712.753c-81.567-5.826-159.735-35.443-218.483-84.48-115.553-95.647-189.352-270.918-108.27-506.879 5.341-16.022 22.819-24.276 38.841-18.935 15.537 5.341 24.276 22.819 18.45 38.356-74.77 217.026-8.254 359.282 89.821 441.82 95.647 78.168 264.607 97.103 390.355 19.421 61.661-38.841 109.727-105.843 134.003-171.873 24.761-66.030 23.305-130.118 3.399-160.22-20.392-31.559-61.661-43.211-98.074-33.986s-66.030 35.443-67.487 90.792c-1.457 83.023-66.516 134.488-134.003 142.256-65.059 7.768-140.314-27.189-159.735-104.872-36.899-141.771 55.834-343.26 270.433-410.262 16.022-4.855 33.015 3.884 38.356 19.906 4.855 16.022-3.399 33.501-20.392 38.356-185.953 57.776-256.353 234.019-229.649 337.92 11.652 46.61 52.436 62.632 95.161 58.748 42.24-4.855 78.654-30.102 78.654-83.023 2.428-79.625 54.378-133.517 113.611-148.568s127.691 3.884 164.105 59.719c37.87 56.805 31.559 136.916 2.913 214.113-29.131 77.683-83.023 154.394-159.249 202.46-74.77 46.61-160.706 65.059-242.758 59.233zM432.768 833.161c-289.368 3.884-427.74-228.678-427.74-228.678-9.225-14.080-5.341-32.53 8.254-41.754 14.080-9.225 33.015-4.37 44.668 11.167 0 0 117.495 202.946 373.848 198.576 257.324-3.399 369.964-197.12 369.964-197.12 8.739-14.080 27.189-18.935 41.754-10.681 15.537 8.739 18.935 27.189 10.681 42.24 0 0-133.517 222.367-421.428 226.251zM413.833 959.881c-165.076-2.913-271.889-77.197-271.889-77.197-13.594-8.739-16.993-28.645-7.768-42.24 9.71-15.051 28.645-17.479 43.211-7.283 0 0 209.258 154.88 509.792-1.942 14.080-8.254 33.015-3.399 41.269 11.167 9.225 14.566 2.913 33.015-13.594 42.24-81.081 42.725-157.793 64.088-226.736 71.856-25.732 2.913-50.494 3.884-74.284 3.399z" />
</font></defs></svg>