<?xml version="1.0" standalone="no"?>
<!DOCTYPE svg PUBLIC "-//W3C//DTD SVG 1.1//EN" "http://www.w3.org/Graphics/SVG/1.1/DTD/svg11.dtd" >
<svg xmlns="http://www.w3.org/2000/svg">
<metadata>Generated by IcoMoon</metadata>
<defs>
<font id="icomoon" horiz-adv-x="1024">
<font-face units-per-em="1024" ascent="960" descent="-64" />
<missing-glyph horiz-adv-x="1024" />
<glyph unicode="&#x20;" horiz-adv-x="512" d="" />
<glyph unicode="&#xe900;" glyph-name="gender-male" d="M341.333 618.667c73.387 0 142.222-23.324 197.404-63.147l290.702 290.702h-260.551v113.778h455.111v-455.111h-113.778v261.12l-290.702-289.564c39.822-56.889 63.147-125.156 63.147-199.111 0-188.513-152.82-341.333-341.333-341.333s-341.333 152.82-341.333 341.333c0 188.513 152.82 341.333 341.333 341.333v0zM341.333 504.889c-125.675 0-227.556-101.88-227.556-227.556s101.88-227.556 227.556-227.556c125.675 0 227.556 101.88 227.556 227.556s-101.88 227.556-227.556 227.556z" />
<glyph unicode="&#xe901;" glyph-name="gender-female" horiz-adv-x="683" d="M341.333 960c188.513 0 341.333-152.82 341.333-341.333 0-168.96-122.88-309.476-284.444-336.782v-118.329h113.778v-113.778h-113.778v-113.778h-113.778v113.778h-113.778v113.778h113.778v118.329c-161.564 27.307-284.444 167.822-284.444 336.782 0 188.513 152.82 341.333 341.333 341.333v0zM341.333 846.222c-125.675 0-227.556-101.88-227.556-227.556s101.88-227.556 227.556-227.556c125.675 0 227.556 101.88 227.556 227.556s-101.88 227.556-227.556 227.556z" />
<glyph unicode="&#xe902;" horiz-adv-x="843" d="M787.075 622.682c0-166.972-121.434-305.835-281.098-332.82v-116.937h112.439v-112.439h-112.439v-112.439h-112.439v112.439h-112.439v112.439h112.439v116.937c-159.664 26.985-281.098 165.848-281.098 332.82 0 186.295 151.022 337.318 337.318 337.318s337.318-151.022 337.318-337.318zM449.757 847.561c-124.197 0-224.878-100.682-224.878-224.878s100.682-224.878 224.878-224.878c124.197 0 224.878 100.682 224.878 224.878s-100.682 224.878-224.878 224.878z" />
<glyph unicode="&#xe903;" horiz-adv-x="843" d="M115.575 574.84l110.776 24.33c15.749-53.334 36.748-94.913 62.999-124.737s61.112-52.942 104.584-69.355v-116.269c-90.16 12.678-157.632 43.409-202.416 92.195s-70.098 113.398-75.943 193.836z" />
<glyph unicode="&#xe904;" horiz-adv-x="843" d="M205.11 663.801l144.473 58.371 25.49-63.089-252.355-101.958-101.958 252.355 63.089 25.49 58.498-144.789z" />
</font></defs></svg>