<?xml version="1.0" standalone="no"?>
<!DOCTYPE svg PUBLIC "-//W3C//DTD SVG 1.1//EN" "http://www.w3.org/Graphics/SVG/1.1/DTD/svg11.dtd" >
<svg xmlns="http://www.w3.org/2000/svg">
<metadata>Generated by IcoMoon</metadata>
<defs>
<font id="icomoon" horiz-adv-x="1024">
<font-face units-per-em="1024" ascent="960" descent="-64" />
<missing-glyph horiz-adv-x="1024" />
<glyph unicode="&#x20;" horiz-adv-x="512" d="" />
<glyph unicode="&#xe900;" glyph-name="blog" d="M531.648 732.48h304.832c22.080 0 40 17.92 40 40s-17.92 40-40 40h-304.832c-22.080 0-40-17.92-40-40s17.92-40 40-40zM531.648 584.992h304.832c22.080 0 40 17.92 40 40s-17.92 40-40 40h-304.832c-22.080 0-40-17.92-40-40s17.92-40 40-40zM531.648 437.504h304.832c22.080 0 40 17.92 40 40s-17.92 40-40 40h-304.832c-22.080 0-40-17.92-40-40s17.92-40 40-40zM531.648 290.016h304.832c22.080 0 40 17.92 40 40s-17.92 40-40 40h-304.832c-22.080 0-40-17.92-40-40s17.92-40 40-40zM984 960h-944c-22.080 0-40-17.92-40-40v-944c0-22.080 17.92-40 40-40h944c22.080 0 40 17.92 40 40v944c0 22.080-17.92 40-40 40zM944 16h-864v864h864v-864zM250.848 104.064c7.072-12.672 20.448-20.576 34.976-20.576s27.904 7.872 34.976 20.576l98.336 176.992c3.296 5.984 5.024 12.64 5.024 19.424v472c0 22.080-17.92 40-40 40h-196.672c-22.080 0-40-17.92-40-40v-472c0-6.816 1.728-13.472 5.024-19.424l98.336-176.992zM285.824 205.888l-46.72 84.128h93.472l-46.752-84.128zM344.16 732.48v-362.496h-116.672v362.496h116.672z" />
<glyph unicode="&#xe901;" glyph-name="group" horiz-adv-x="1509" d="M1249.213 423.226c83.359 38.289 128.569 128.662 108.719 217.324s-99.426 151.778-191.357 151.778c-91.931 0-171.507-63.117-191.357-151.778s25.36-179.035 108.719-217.324c-23.687-5.135-46.78-12.648-68.92-22.423-75.103 55.507-166.7 84.89-260.491 83.56-93.735 1.294-185.269-28.087-260.327-83.56-22.139 9.775-45.233 17.288-68.92 22.423 83.359 38.289 128.569 128.662 108.719 217.324s-99.426 151.778-191.357 151.778c-91.931 0-171.507-63.117-191.357-151.778s25.36-179.035 108.719-217.324c-90.945-21.017-170.777-74.581-224.071-150.344-23.533-32.688-36.099-71.842-35.93-111.952v-158.571c0-26.727 21.936-48.394 48.995-48.394h1411.059c27.059 0 48.995 21.667 48.995 48.394v158.571c0.18 40.112-12.387 79.268-35.93 111.952-53.243 75.742-133.016 129.306-223.908 150.344zM1166.412 694.878c54.118 0 97.99-43.334 97.99-96.788s-43.872-96.788-97.99-96.788c-54.118 0-97.99 43.334-97.99 96.788s43.872 96.788 97.99 96.788zM342.641 694.878c54.118 0 97.99-43.334 97.99-96.788s-43.872-96.788-97.99-96.788c-54.118 0-97.99 43.334-97.99 96.788s43.872 96.788 97.99 96.788zM97.665 160.93c-0.221 19.951 5.89 39.47 17.475 55.814 50.772 74.684 136.1 119.218 227.174 118.565 24.473 0.070 48.851-3.021 72.513-9.195-10.576-12.615-20.497-25.752-29.724-39.36-21.363-31.672-32.731-68.893-32.663-106.951v-129.051h-254.448l-0.327 110.177zM961.939 50.753h-510.692v129.051c-0.037 19.004 5.648 37.59 16.332 53.395 63.272 96.104 171.459 154.082 287.52 154.082s224.248-57.977 287.52-154.082c10.684-15.805 16.369-34.391 16.332-53.395v-129.051h-97.010zM1410.734 50.753h-254.938v129.051c0.068 38.057-11.3 75.279-32.663 106.951-9.227 13.609-19.148 26.746-29.724 39.36 23.662 6.174 48.039 9.265 72.513 9.195 91.074 0.652 176.402-43.881 227.174-118.565 11.585-16.345 17.696-35.863 17.475-55.814l0.163-110.177zM782.472 512.873c123.471 0 223.563 100.093 223.563 223.563s-100.093 223.563-223.563 223.563c-123.471 0-223.563-100.093-223.563-223.563 0.089-123.434 100.13-223.474 223.563-223.563v0zM782.472 862.566c69.749 0 126.291-56.543 126.291-126.291s-56.543-126.291-126.291-126.291c-69.749 0-126.291 56.543-126.291 126.291 0.089 69.712 56.58 126.202 126.291 126.291v0z" />
<glyph unicode="&#xe902;" glyph-name="icon-firts" horiz-adv-x="768" d="M658.286 137.143l-274.286 119.589-274.286-119.589v713.143h548.571v-713.143zM658.286 960h-548.571c-60.594 0-109.714-49.121-109.714-109.714v-877.714l384 164.571 384-164.571v877.714c0 60.891-49.371 109.714-109.714 109.714z" />
<glyph unicode="&#xe903;" glyph-name="members" d="M512 960c-282.65 0-512-229.35-512-512s229.35-512 512-512c282.65 0 512 229.35 512 512s-229.35 512-512 512zM512 36.139c-88.833 0-169.59 27.457-237.426 75.912 90.448 35.533 135.672 72.681 159.899 104.984 20.997-6.461 45.224-11.306 69.451-11.306 1.615 0 1.615 0 3.23 0 0 0 1.615 0 3.23 0s1.615 0 3.23 0c27.457 0 53.3 4.845 75.912 12.921 22.612-33.918 66.221-74.297 158.284-109.83-67.836-45.224-148.593-72.681-235.811-72.681zM374.713 535.218c0 1.615 0 1.615 0 3.23 6.461 125.981 92.063 138.902 127.596 138.902 1.615 0 1.615 0 3.23 0s3.23 0 3.23 0c0 0 1.615 0 3.23 0 37.148 0 122.751-12.921 127.596-138.902 0-1.615 0-1.615 0-3.23 3.23-35.533 3.23-140.517-45.224-193.817-20.997-24.227-50.069-35.533-87.218-35.533 0 0-1.615 0-1.615 0-37.148 0-66.221 11.306-87.218 35.533-45.224 53.3-46.839 158.284-43.609 193.817zM830.183 186.347c-106.599 32.303-146.978 69.451-158.284 88.833 82.372 93.678 71.066 250.347 69.451 269.729-9.691 172.82-129.211 234.196-229.35 234.196-1.615 0-3.23 0-4.845 0s-3.23 0-4.845 0c-100.139 0-219.659-61.375-227.735-234.196-1.615-19.382-14.536-176.050 69.451-269.729 1.615-1.615 3.23-3.23 3.23-3.23-12.921-16.151-51.685-50.069-156.669-82.372-56.53 71.066-92.063 161.514-92.063 258.423 0 227.735 184.126 411.861 411.861 411.861s411.861-184.126 411.861-411.861c1.615-100.139-33.918-190.587-92.063-261.653z" />
<glyph unicode="&#xe904;" glyph-name="new-project" horiz-adv-x="1583" d="M170.737 449.501c0-45.844-37.984-83.008-84.84-83.008s-84.84 37.164-84.84 83.008c0 45.844 37.984 83.008 84.84 83.008s84.84-37.164 84.84-83.008zM1581.488 449.501c0-45.844-37.984-83.008-84.84-83.008s-84.84 37.164-84.84 83.008c0 45.844 37.984 83.008 84.84 83.008s84.84-37.164 84.84-83.008zM791.273 958.34c-286.466 0-519.617-228.272-519.617-508.838s233.15-508.838 519.617-508.838c286.466 0 519.617 228.272 519.617 508.838s-233.15 508.838-519.617 508.838zM791.273 13.503c-245.633 0-445.355 195.484-445.355 435.999 0 240.308 199.722 435.999 445.355 435.999s445.355-195.691 445.355-435.999c0-240.308-199.722-435.999-445.355-435.999zM1077.316 479.384l-183.22 66.406-67.914 179.505c-5.501 14.319-19.253 23.865-34.909 23.865s-29.408-9.546-34.909-23.865l-67.914-179.505-183.22-66.406c-14.598-5.188-24.331-18.884-24.331-34.241s9.732-28.845 24.331-34.241l183.22-66.406 67.914-179.505c5.501-14.319 19.253-23.865 34.909-23.865s29.408 9.546 34.909 23.865l67.914 179.505 183.22 66.406c14.598 5.188 24.331 18.884 24.331 34.241s-9.732 28.845-24.331 34.241zM852.205 407.167c-10.155-3.735-18.195-11.621-22.003-21.582l-38.929-102.93-38.929 102.93c-3.808 9.961-11.848 17.847-22.003 21.582l-104.939 37.976 104.939 37.976c10.155 3.735 18.195 11.621 22.003 21.582l38.929 102.93 38.929-102.93c3.808-9.961 11.848-17.847 22.003-21.582l104.939-37.976-104.939-37.976z" />
<glyph unicode="&#xe905;" glyph-name="projects" horiz-adv-x="1687" d="M843.294 950.162c-279.88 0-547.298-152.131-773.020-439.997l-33.076-42.087 32.982-41.996c225.909-287.865 493.233-439.997 773.020-439.997s547.017 152.040 773.020 439.905l33.17 42.087-32.982 42.087c-226.003 287.774-493.327 439.997-773.113 439.997zM843.294 124.735c-220.287 0-435.702 118.426-625.443 343.343 189.647 224.826 405.062 343.343 625.443 343.343 220.287 0 435.702-118.426 625.443-343.434-189.835-224.826-405.25-343.252-625.443-343.252zM840.108 742.097c-157.321 0-285.221-124.438-285.221-277.298 0-152.951 127.9-277.389 285.221-277.389s285.221 124.438 285.221 277.389c0 152.86-127.9 277.298-285.221 277.298zM840.108 326.059c-78.614 0-142.61 62.219-142.61 138.649s63.997 138.649 142.61 138.649c78.614 0 142.61-62.219 142.61-138.649s-63.997-138.649-142.61-138.649z" />
<glyph unicode="&#xe906;" glyph-name="spotllight" d="M176.887 569.955c-3.229-10.392-0.536-21.803 6.936-29.429l136.879-139.678-32.315-197.223c-1.768-10.773 2.464-21.663 10.905-28.082 4.784-3.634 10.44-5.485 16.129-5.485 4.36 0 8.742 1.088 12.754 3.298l169.195 93.119 169.185-93.118c9.255-5.086 20.434-4.222 28.882 2.187 8.447 6.42 12.679 17.311 10.912 28.076l-32.31 197.229 136.879 139.678c7.472 7.626 10.166 19.037 6.936 29.429-3.225 10.396-11.806 17.972-22.139 19.541l-189.158 28.773-84.596 179.441c-4.616 9.801-14.15 16.003-24.59 16.003s-19.974-6.203-24.591-16.004l-84.596-179.441-189.158-28.773c-10.332-1.569-18.913-9.145-22.138-19.541zM410.339 563.613c8.934 1.357 16.659 7.234 20.65 15.707l66.383 140.81 66.383-140.81c3.99-8.474 11.716-14.35 20.65-15.707l148.433-22.576-107.408-109.605c-6.465-6.594-9.411-16.1-7.884-25.408l25.353-154.775-132.761 73.073c-7.993 4.396-17.542 4.396-25.524 0l-132.771-73.073 25.358 154.769c1.527 9.314-1.419 18.819-7.884 25.414l-107.408 109.605 148.433 22.576zM497.371 960h58.514v-58.514h-58.514v58.514zM497.371 170.057h58.514v-204.8h-58.514v204.8zM21.649 590.129l18.080 55.651 55.651-18.080-18.080-55.651-55.651 18.080zM771.285 334.786l18.080 55.651 194.778-63.281-18.080-55.651-194.778 63.281zM193.191 75.808l34.388 47.343 47.343-34.388-34.388-47.343-47.343 34.388zM662.197 718.813l120.382 165.684 47.338-34.395-120.382-165.684-47.338 34.395zM749.076 88.757l47.338 34.395 34.395-47.338-47.338-34.395-34.395 47.338zM208.711 835.473l47.338 34.395 120.382-165.684-47.338-34.395-120.382 165.684zM928.62 627.7l55.651 18.080 18.080-55.651-55.651-18.080-18.080 55.651zM25.228 341.785l194.778 63.281 18.080-55.651-194.778-63.281-18.080 55.651z" />
<glyph unicode="&#xe907;" glyph-name="trending" horiz-adv-x="531" d="M89.361-57.723c22.628-8.774 48.14 0.103 60.912 21.194l373.068 615.158c9.655 15.964 10.172 36.034 1.353 52.5s-25.602 26.767-43.903 26.946h-120.050l44.956 240.030c2.874 15.249-1.040 31.019-10.67 42.996s-23.971 18.908-39.097 18.897h-248.712c-25.85 0.176-47.682-19.663-50.654-46.030l-56.226-499.174c-1.669-14.797 2.922-29.619 12.608-40.709s23.539-17.382 38.046-17.283h64.584l-58.379-357.444c-3.898-24.467 9.564-48.358 32.165-57.082zM107.597 460.955l44.702 395.152h142.338l-44.956-240.16c-2.874-15.249 1.040-31.019 10.67-42.996s23.971-18.908 39.097-18.897h89.658l-189.953-312.715 25.327 159.413c2.46 15.095-1.681 30.537-11.32 42.212s-23.796 18.399-38.702 18.38l-66.864-0.39z" />
</font></defs></svg>