<?xml version="1.0" standalone="no"?>
<!DOCTYPE svg PUBLIC "-//W3C//DTD SVG 1.1//EN" "http://www.w3.org/Graphics/SVG/1.1/DTD/svg11.dtd" >
<svg xmlns="http://www.w3.org/2000/svg">
<metadata>Generated by IcoMoon</metadata>
<defs>
<font id="icomoon" horiz-adv-x="1024">
<font-face units-per-em="1024" ascent="960" descent="-64" />
<missing-glyph horiz-adv-x="1024" />
<glyph unicode="&#x20;" horiz-adv-x="512" d="" />
<glyph unicode="&#xe900;" glyph-name="rocket" d="M46.080 384.284l160.996 160.996 143.929 28.444c183.182 249.173 533.618 373.76 660.48 373.76 0-126.862-124.587-477.298-373.76-660.48l-28.444-143.929-160.996-160.996-40.391 200.818c-80.213 0-80.213 0-120.604 40.391s-40.391 40.391-40.391 120.604l-200.818 40.391zM207.076 223.289l80.213-80.213-151.324-151.893h-80.782v80.782l151.893 151.324zM126.293 303.502l70.542-9.671-139.947-139.378v80.782l69.404 68.267zM357.831 132.836l9.671-70.542-68.267-69.404h-80.782l139.378 139.947zM625.778 647.111c-47.128 0-85.333-38.205-85.333-85.333s38.205-85.333 85.333-85.333c47.128 0 85.333 38.205 85.333 85.333s-38.205 85.333-85.333 85.333z" />
</font></defs></svg>