<?xml version="1.0" encoding="UTF-8"?>
<svg width="186px" height="72px" viewBox="0 0 186 72" version="1.1" xmlns="http://www.w3.org/2000/svg" xmlns:xlink="http://www.w3.org/1999/xlink">
    <!-- Generator: Sketch 41.2 (35397) - http://www.bohemiancoding.com/sketch -->
    <title>Artboard 2</title>
    <desc>Created with Sketch.</desc>
    <defs></defs>
    <g id="Page-1" stroke="none" stroke-width="1" fill="none" fill-rule="evenodd">
        <g id="Artboard-2">
            <g id="amc_logo_bk_bg" transform="translate(60.000000, 21.000000)">
                <g id="Layer_1">
                    <g id="Group">
                        <rect id="Rectangle-path" fill="#2E2E2E" x="0" y="0" width="65.7836066" height="30.5105263"></rect>
                        <g transform="translate(7.032787, 6.526316)" id="Shape" fill="#FFFFFF">
                            <path d="M28.7262295,0.652631579 L25.7508197,12.2912281 C25.4803279,10.9859649 22.7213115,0.652631579 22.7213115,0.652631579 L16.9868852,0.652631579 L16.9868852,16.8052632 L20.7737705,16.8052632 L20.7737705,4.94912281 L24.0196721,16.8052632 L27.4819672,16.8052632 L30.7278689,4.94912281 L30.7278689,16.8052632 L34.5147541,16.8052632 L34.5147541,0.652631579 L28.7262295,0.652631579 L28.7262295,0.652631579 Z"></path>
                            <path d="M7.89836066,0.271929825 C1.7852459,0.271929825 0.81147541,4.29649123 0.81147541,5.54736842 L4.43606557,5.54736842 C4.70655738,4.56842105 5.46393443,3.42631579 7.95245902,3.42631579 C10.9278689,3.42631579 11.1983607,5.87368421 11.1983607,6.41754386 L11.1983607,6.79824561 L11.1983607,6.79824561 L10.0622951,6.79824561 C4.65245902,6.79824561 0.162295082,7.88596491 0.162295082,12.2368421 C0.162295082,14.5210526 2.43442623,17.1859649 5.95081967,17.1859649 C8.22295082,17.1859649 10.3868852,16.2614035 11.252459,15.554386 L11.3606557,16.8052632 L14.8229508,16.8052632 L14.8229508,8.04912281 C14.8229508,3.04561404 13.0377049,0.271929825 7.89836066,0.271929825 Z M11.1983607,10.6596491 C11.1983607,11.1491228 11.0901639,11.6385965 10.8196721,12.0736842 C10.3868852,13.0526316 8.81803279,13.977193 6.81639344,13.977193 C5.0852459,13.977193 3.89508197,13.4333333 3.89508197,12.1824561 C3.89508197,10.4964912 5.78852459,10.0070175 7.19508197,9.89824561 C8.60163934,9.73508772 9.52131148,9.73508772 10.0622951,9.73508772 L11.1442623,9.73508772 L11.1442623,10.6596491 L11.1983607,10.6596491 Z"></path>
                            <path d="M47.9311475,10.6596491 C47.3360656,12.5631579 45.8213115,13.8140351 44.0360656,13.8140351 C41.6557377,13.8140351 39.8163934,11.6385965 39.8163934,8.75614035 C39.8163934,5.87368421 41.6016393,3.69824561 44.0360656,3.69824561 C45.8754098,3.69824561 47.3360656,4.94912281 47.9311475,6.79824561 L51.5557377,6.79824561 C50.7983607,2.99122807 47.8229508,0.271929825 44.0360656,0.271929825 C39.4918033,0.271929825 36.2459016,3.69824561 36.2459016,8.70175439 C36.2459016,13.5421053 39.4377049,17.1859649 43.9819672,17.1859649 C47.7688525,17.1859649 50.7983607,14.4666667 51.5557377,10.6596491 L47.9311475,10.6596491 Z"></path>
                        </g>
                    </g>
                </g>
            </g>
        </g>
    </g>
</svg>