<?xml version="1.0" encoding="UTF-8"?>
<svg width="186px" height="72px" viewBox="0 0 186 72" version="1.1" xmlns="http://www.w3.org/2000/svg" xmlns:xlink="http://www.w3.org/1999/xlink">
    <!-- Generator: Sketch 41.2 (35397) - http://www.bohemiancoding.com/sketch -->
    <title>Artboard 2</title>
    <desc>Created with Sketch.</desc>
    <defs></defs>
    <g id="Page-1" stroke="none" stroke-width="1" fill="none" fill-rule="evenodd">
        <g id="Artboard-2">
            <g id="Page-1" transform="translate(71.000000, 14.000000)">
                <g id="Group-6">
                    <path d="M21.9810232,0.0441092715 L21.9810232,0.0441092715 L21.9912219,0.0441092715 C26.0317185,0.0441092715 29.470202,0.972625828 32.9699503,2.99283775 C36.4696258,5.01304967 38.9898642,7.5230894 41.0100762,11.0330364 C43.0302881,14.5327119 43.948606,17.9711954 43.948606,22.0116921 C43.948606,26.0521887 43.0302881,29.4906722 41.0100762,32.9903477 C38.9898642,36.490096 36.4696258,39.0102616 32.9699503,41.0305464 C29.470202,43.0507583 26.0317185,43.9690762 21.9912219,43.9690762 C17.9507252,43.9690762 14.5122417,43.0507583 11.0125662,41.0305464 C7.50261921,39.0102616 4.99265232,36.490096 2.97236755,32.9903477 C0.952155629,29.4906722 0.0236390728,26.0521887 0.0236390728,22.0116921 C0.0236390728,17.9711954 0.952155629,14.5327119 2.97236755,11.0330364 C4.99265232,7.5230894 7.50261921,5.01304967 11.0125662,2.99283775 C14.5122417,0.972625828 17.9405265,0.0441092715 21.9810232,0.0441092715" id="Fill-2" fill="#2E2E2E"></path>
                    <path d="M25.2344444,13.7973437 L25.2708682,13.7973437 C25.3218616,13.8046285 25.3655702,13.8046285 25.4238483,13.8119132 C25.5986828,13.819198 25.9847755,13.8629066 26.1450404,13.8847609 C26.7205371,13.9576086 27.5947093,14.103304 28.0317954,14.5403901 C28.4033185,14.9119132 28.2284841,15.3854232 27.9443781,15.7423768 C27.696696,16.0556219 27.3761662,16.303304 27.0483517,16.5291318 C26.7861,16.7039662 26.5092788,16.8788007 26.2251728,17.024496 L25.9920603,17.1483371 C25.2562987,17.5198603 24.7609344,17.7238338 23.988749,18.0225093 L23.7264974,18.1172113 C23.6973583,18.1317808 23.6682192,18.1390656 23.6317954,18.1536351 C23.2238483,18.3066152 22.5900735,18.4960192 22.1821265,18.6125755 C21.9271596,18.6854232 21.6794775,18.7509861 21.4172258,18.816549 C20.3609344,19.0788007 19.2682192,19.2900589 18.1827887,19.4139 L17.294047,19.4940325 C17.3304709,19.5304563 17.3960338,19.5304563 17.4470272,19.5450258 C17.9569609,19.698006 18.991398,19.8364166 19.5596099,19.8437013 C19.6251728,19.8437013 19.6688815,19.8509861 19.7490139,19.8509861 C19.8145768,19.8509861 19.8655702,19.8582709 19.9165636,19.8655556 L20.6741795,19.8655556 C20.8417291,19.8655556 20.9801397,19.8509861 21.1476894,19.8509861 L21.8324576,19.8145623 C21.9562987,19.8072775 22.1748417,19.7999927 22.291398,19.7781384 C22.3715305,19.7708536 22.4516629,19.7635689 22.5172258,19.7562841 C22.670206,19.7344298 22.8086166,19.727145 22.9615967,19.7125755 C23.6682192,19.6178735 24.3748417,19.508602 25.0741795,19.3701914 C25.8536497,19.2172113 26.6695437,19.0132377 27.4125901,18.7582709 C28.1556364,18.5178735 28.3377556,18.4304563 28.9933848,18.1536351 C29.1682192,18.0807874 29.3284841,17.9933702 29.4960338,17.9132377 L29.9622589,17.6437013 C30.0205371,17.6145623 30.0715305,17.5854232 30.1225238,17.5562841 C30.1662325,17.5198603 30.2172258,17.4907212 30.2682192,17.4615821 L30.7562987,17.0973437 C30.8655702,17.0026417 30.9748417,16.9079397 31.0768285,16.805953 L31.3026563,16.5437013 C31.3463649,16.4999927 31.375504,16.4562841 31.4119278,16.4052907 C31.4337821,16.3761517 31.4410669,16.3615821 31.4629212,16.332443 C31.4774907,16.303304 31.4920603,16.2887344 31.5066298,16.2595954 C31.6741795,16.0119132 31.8053053,15.6622444 31.8053053,15.3198603 C31.8053053,14.9410523 31.7178881,14.6933702 31.5066298,14.4311185 C31.4847755,14.4019795 31.4847755,14.3946947 31.4629212,14.3728404 C31.0768285,13.9867477 30.6907358,13.8410523 30.1662325,13.6807874 C29.801994,13.5788007 29.2264974,13.4768139 28.8258351,13.4476748 C28.7602722,13.4403901 28.701994,13.4403901 28.6437159,13.4331053 C28.4251728,13.3966815 27.9370934,13.3821119 27.696696,13.3821119 C27.6238483,13.3821119 27.5874245,13.3748272 27.5072921,13.3748272 L26.6331199,13.3821119 C26.567557,13.3821119 26.5384179,13.3966815 26.472855,13.3966815 C26.4218616,13.3966815 26.3562987,13.3893967 26.3053053,13.3966815 L25.6642457,13.4331053 C25.4821265,13.4331053 25.3000073,13.4549596 25.1251728,13.4768139 C25.1106033,13.4331053 25.088749,13.3966815 25.0741795,13.3529728 C25.0668947,13.3456881 25.0668947,13.3384033 25.0596099,13.3238338 C25.0231861,13.2364166 24.9794775,13.1562841 24.9357689,13.0761517 C24.899345,13.0105887 24.8192126,12.8721781 24.775504,12.8139 C24.7609344,12.7920457 24.7463649,12.7701914 24.7317954,12.7556219 C24.6953715,12.7046285 24.6589477,12.6536351 24.6225238,12.6026417 C24.6079543,12.595357 24.6006695,12.5880722 24.5933848,12.5735026 C24.5642457,12.5370788 24.5278219,12.500655 24.4986828,12.4642311 C24.491398,12.4496616 24.4841132,12.4423768 24.4695437,12.4350921 L24.396696,12.3476748 C24.367557,12.3258205 24.3457026,12.2966815 24.3165636,12.2748272 C24.2874245,12.2529728 24.2655702,12.216549 24.2364311,12.1946947 C24.1927225,12.1655556 24.1344444,12.1145623 24.0907358,12.0781384 L23.9377556,11.9615821 C23.9159013,11.9470126 23.9013318,11.932443 23.8794775,11.9178735 C23.8649079,11.9105887 23.8576232,11.903304 23.8503384,11.903304 L23.7483517,11.8377411 C23.6900735,11.7940325 23.6172258,11.7648934 23.5516629,11.7211848 C23.5298086,11.7066152 23.5006695,11.6993305 23.4788152,11.6847609 L23.3331199,11.619198 C23.2384179,11.5754894 23.1364311,11.5390656 23.0344444,11.5026417 C22.8377556,11.4443636 22.6410669,11.3933702 22.4298086,11.3642311 C22.4006695,11.3642311 22.3715305,11.3569464 22.3423914,11.3569464 C22.2331199,11.3423768 22.1238483,11.3350921 22.0218616,11.3350921 L21.883451,11.3350921 C21.8106033,11.3350921 21.7377556,11.3423768 21.6649079,11.3496616 L21.5264974,11.3642311 C21.3735172,11.3860854 21.1476894,11.429794 21.0092788,11.4735026 L20.6231861,11.619198 C20.5503384,11.6483371 20.470206,11.6847609 20.4119278,11.7211848 C20.3172258,11.7648934 20.2298086,11.8158868 20.1423914,11.8741649 L20.0185503,11.9615821 C20.0039808,11.9688669 19.996696,11.9761517 19.9894113,11.9834364 L19.6688815,12.2456881 C19.6470272,12.2602576 19.6324576,12.2748272 19.6178881,12.2966815 C19.5596099,12.3476748 19.5013318,12.4132377 19.4503384,12.4715159 C19.4430536,12.4788007 19.4430536,12.4788007 19.4357689,12.4860854 L19.2245106,12.7483371 C19.2099411,12.7701914 19.1953715,12.7920457 19.180802,12.8139 C19.1443781,12.8648934 19.0861,12.9523106 19.0569609,13.003304 C19.0205371,13.0761517 18.9841132,13.1417146 18.9476894,13.2072775 L18.8821265,13.3529728 C18.801994,13.5278073 18.7364311,13.7172113 18.6927225,13.8993305 C18.6854377,13.9284695 18.678153,13.9576086 18.6708682,13.9867477 C18.6344444,14.1542974 18.5980205,14.3728404 18.5980205,14.5476748 L18.5980205,14.5913834 C18.5980205,14.6423768 18.5907358,14.700655 18.5980205,14.7443636 L18.5980205,14.8536351 L18.5980205,14.9556219 C18.6125901,15.2178735 18.6854377,15.5821119 18.7801397,15.8225093 C18.7947093,15.8662179 18.8092788,15.9026417 18.8238483,15.9390656 C18.4450404,15.9026417 18.0735172,15.8589331 17.7311331,15.800655 C17.0099411,15.6840987 15.7059675,15.3781384 15.7059675,14.6132377 C15.7059675,13.7754894 17.294047,12.7847609 17.9496762,12.4350921 L18.4377556,12.1728404 C18.488749,12.1437013 18.5397424,12.121847 18.5980205,12.0854232 C18.7510007,12.0125755 19.1079543,11.8377411 19.2609344,11.7721781 C19.5013318,11.6774762 19.7125901,11.5754894 19.9602722,11.4735026 C20.5721927,11.2331053 21.1258351,11.021847 21.7741795,10.8251583 C22.3715305,10.6430391 22.7211993,10.5556219 23.3185503,10.4026417 C24.1271596,10.1986682 25.0231861,10.0675424 25.8609344,9.98012517 L26.7933848,9.92184702 C26.7496762,9.88542318 26.3417291,9.84899934 26.2907358,9.84171457 C26.1159013,9.82714503 25.6569609,9.77615166 25.5039808,9.77615166 L24.9503384,9.75429735 C24.9211993,9.74701258 24.8774907,9.74701258 24.8192126,9.74701258 L24.2582854,9.74701258 C23.9960338,9.74701258 23.7337821,9.75429735 23.6390801,9.75429735 C23.580802,9.75429735 23.5735172,9.76158212 23.5152391,9.76158212 C22.9761662,9.76886689 21.7596099,9.89999272 21.2569609,9.98740993 C20.4774907,10.1185358 19.8655702,10.2205225 19.0861,10.4172113 C18.3284841,10.6066152 17.8112656,10.7668801 17.075504,11.0145623 C16.7622589,11.1238338 16.2668947,11.3205225 15.9609344,11.4516483 C15.8953715,11.4807874 15.8443781,11.5026417 15.7788152,11.5317808 L15.2470272,11.7794629 C14.6278219,12.0927079 14.0086166,12.4423768 13.4768285,12.8794629 C13.4476894,12.8940325 13.4258351,12.9158868 13.4039808,12.9377411 L13.1271596,13.1781384 C13.1053053,13.1999927 13.083451,13.221847 13.0615967,13.2509861 C13.0106033,13.2946947 12.9814642,13.3384033 12.9377556,13.3821119 L12.8211993,13.5205225 C12.7337821,13.6225093 12.6682192,13.7172113 12.6026563,13.8264828 C12.4861,14.0158868 12.3476894,14.3145623 12.3476894,14.6132377 C12.3476894,14.8754894 12.3841132,15.0794629 12.5152391,15.2761517 C12.9377556,15.9026417 13.7609344,16.1066152 14.4821265,16.2450258 C15.2470272,16.3907212 16.2231861,16.4125755 17.0245106,16.4125755 C17.4543119,16.4125755 17.8404046,16.3834364 18.2483517,16.3761517 C18.299345,16.3688669 18.3284841,16.3615821 18.3867623,16.3615821 C18.4523252,16.3615821 18.4741795,16.3542974 18.5397424,16.3542974 C18.6198748,16.3542974 18.8092788,16.332443 18.991398,16.3178735 L19.0205371,16.3688669 C19.0861,16.4854232 19.1298086,16.5509861 19.2026563,16.6602576 L19.2973583,16.7840987 C19.3264974,16.8205225 19.3556364,16.8642311 19.3847755,16.900655 L19.5086166,17.0390656 C19.5668947,17.1046285 19.6397424,17.1629066 19.6980205,17.2211848 C19.7635834,17.2867477 19.9529874,17.432443 20.0185503,17.4834364 L20.1788152,17.5854232 C20.1861,17.5927079 20.2006695,17.5999927 20.2079543,17.6072775 C20.2735172,17.6437013 20.3390801,17.6874099 20.4119278,17.7238338 C20.4264974,17.7238338 20.4337821,17.7311185 20.4483517,17.7384033 C20.5503384,17.7966815 20.6596099,17.8403901 20.7688815,17.8840987 L20.8927225,17.9278073 C20.9874245,17.9642311 21.1185503,17.9933702 21.2205371,18.0225093 C21.4463649,18.0735026 21.7377556,18.1026417 21.978153,18.1026417 L22.0364311,18.1026417 L22.0801397,18.1026417 L22.1821265,18.1026417 C22.2185503,18.1026417 22.3351066,18.0880722 22.3715305,18.0807874 C22.5245106,18.0662179 22.670206,18.0370788 22.8159013,18.000655 C22.8450404,17.9933702 22.8741795,17.9860854 22.8960338,17.9788007 C22.9251728,17.9715159 22.9543119,17.9642311 22.9761662,17.9569464 C23.0562987,17.9278073 23.1364311,17.905953 23.2092788,17.8695291 C23.3258351,17.8258205 23.4351066,17.7821119 23.5370934,17.7238338 C23.7337821,17.6291318 23.9159013,17.5052907 24.083451,17.3668801 L24.2510007,17.2284695 C24.301994,17.1847609 24.367557,17.119198 24.4112656,17.0682046 C24.4258351,17.0609199 24.4258351,17.0536351 24.4404046,17.0463503 L24.6589477,16.7913834 L24.7682192,16.6384033 C24.775504,16.6238338 24.7827887,16.616549 24.7900735,16.6019795 C24.804643,16.5801252 24.8192126,16.5582709 24.8337821,16.5364166 C24.8483517,16.5145623 24.8556364,16.4999927 24.870206,16.4708536 C24.8847755,16.4562841 24.8920603,16.4344298 24.9066298,16.4125755 L24.9867623,16.2741649 C25.0013318,16.2523106 25.0086166,16.2231715 25.0231861,16.2013172 C25.0450404,16.1648934 25.1033185,16.0264828 25.1178881,15.9827742 C25.1543119,15.8807874 25.1907358,15.7788007 25.2271596,15.6695291 C25.2562987,15.5602576 25.2854377,15.4509861 25.3072921,15.327145 C25.3291464,15.203304 25.3510007,15.0867477 25.3510007,14.9556219 C25.3510007,14.9410523 25.3582854,14.9264828 25.3582854,14.9119132 C25.3510007,14.8827742 25.3582854,14.8754894 25.3582854,14.8536351 C25.3655702,14.7662179 25.3582854,14.6860854 25.3582854,14.5986682 C25.3582854,14.5768139 25.3582854,14.5695291 25.3510007,14.5476748 C25.3510007,14.3145623 25.3000073,14.0450258 25.2417291,13.819198 C25.2417291,13.8119132 25.2344444,13.8046285 25.2344444,13.7973437" id="Fill-4" fill="#FEFEFE"></path>
                </g>
                <path d="M6.28111807,24.7014065 L7.71443393,25.1346506 C7.61815699,25.5366068 7.46652307,25.8723676 7.25952764,26.1419431 C7.05253221,26.4115185 6.79559696,26.6149005 6.4887142,26.7520952 C6.18183143,26.8892898 5.79131393,26.9578861 5.31714997,26.9578861 C4.74189522,26.9578861 4.27195043,26.8742468 3.9073015,26.7069656 C3.54265257,26.5396844 3.22795202,26.2454424 2.96319042,25.8242307 C2.69842882,25.4030191 2.56605001,24.8638763 2.56605001,24.2067861 C2.56605001,23.3306659 2.79891638,22.6573391 3.2646561,22.1867856 C3.73039583,21.716232 4.38928129,21.4809587 5.24133226,21.4809587 C5.90805011,21.4809587 6.43214987,21.6157444 6.81364726,21.8853199 C7.19514466,22.1548953 7.47855567,22.56888 7.66388879,23.1272863 L6.21974183,23.448609 C6.16919643,23.2873451 6.1162449,23.1694076 6.06088566,23.094793 C5.96942256,22.9696329 5.85750229,22.8733574 5.72512149,22.8059636 C5.59274069,22.7385697 5.44471711,22.7048733 5.2810463,22.7048733 C4.91038006,22.7048733 4.62636733,22.8541003 4.42899959,23.1525588 C4.27977033,23.3739958 4.20515681,23.7217911 4.20515681,24.195955 C4.20515681,24.7832444 4.29421165,25.1857963 4.472324,25.4036229 C4.65043635,25.6214495 4.90075265,25.7303612 5.22328042,25.7303612 C5.53618049,25.7303612 5.77265719,25.6425098 5.93271762,25.4668044 C6.09277804,25.2910989 6.20891036,25.0359689 6.28111807,24.7014065 Z M11.7652662,25.9903076 L9.90231658,25.9903076 L9.6459805,26.8640165 L7.97438039,26.8640165 L9.96369283,21.5712179 L11.7472143,21.5712179 L13.7365268,26.8640165 L12.0252126,26.8640165 L11.7652662,25.9903076 Z M11.4222813,24.8458212 L10.8374017,22.9431575 L10.2561326,24.8458212 L11.4222813,24.8458212 Z M14.2816922,26.8640165 L14.2816922,21.5712179 L17.0075196,21.5712179 C17.5129736,21.5712179 17.8992791,21.6145419 18.1664476,21.7011912 C18.4336161,21.7878404 18.6490325,21.9485001 18.8127033,22.1831752 C18.9763742,22.4178503 19.0582083,22.7036681 19.0582083,23.0406375 C19.0582083,23.3342821 18.9956293,23.5876071 18.8704692,23.8006198 C18.7453092,24.0136325 18.5732167,24.1863267 18.3541867,24.3187075 C18.2145851,24.4029498 18.0232376,24.4727496 17.7801383,24.5281088 C17.9750991,24.5930958 18.1171054,24.6580817 18.2061616,24.7230687 C18.2663347,24.7663933 18.3535844,24.8590585 18.4679133,25.001067 C18.5822421,25.1430755 18.6586608,25.2525888 18.6971716,25.3296104 L19.487842,26.8640165 L17.6393339,26.8640165 L16.765625,25.2465719 C16.6549065,25.0371696 16.5562241,24.9011804 16.4695749,24.8386004 C16.3516356,24.756765 16.2180534,24.7158479 16.0688241,24.7158479 L15.9244094,24.7158479 L15.9244094,26.8640165 L14.2816922,26.8640165 Z M15.9244094,23.7157762 L16.6139896,23.7157762 C16.6886042,23.7157762 16.8330175,23.6917073 17.0472337,23.6435688 C17.1555452,23.6219065 17.2439984,23.5665481 17.3125957,23.4774919 C17.381193,23.3884357 17.4154912,23.286143 17.4154912,23.1706107 C17.4154912,22.9997191 17.3613362,22.8685437 17.2530246,22.7770806 C17.1447131,22.6856175 16.9413311,22.6398867 16.6428725,22.6398867 L15.9244094,22.6398867 L15.9244094,23.7157762 Z M23.2678967,25.9903076 L21.4049471,25.9903076 L21.1486111,26.8640165 L19.4770109,26.8640165 L21.4663234,21.5712179 L23.2498449,21.5712179 L25.2391573,26.8640165 L23.5278432,26.8640165 L23.2678967,25.9903076 Z M22.9249118,24.8458212 L22.3400323,22.9431575 L21.7587631,24.8458212 L22.9249118,24.8458212 Z M29.0182242,24.7014065 L30.4515401,25.1346506 C30.3552631,25.5366068 30.2036292,25.8723676 29.9966338,26.1419431 C29.7896383,26.4115185 29.5327031,26.6149005 29.2258203,26.7520952 C28.9189376,26.8892898 28.5284201,26.9578861 28.0542561,26.9578861 C27.4790014,26.9578861 27.0090566,26.8742468 26.6444076,26.7069656 C26.2797587,26.5396844 25.9650582,26.2454424 25.7002966,25.8242307 C25.435535,25.4030191 25.3031561,24.8638763 25.3031561,24.2067861 C25.3031561,23.3306659 25.5360225,22.6573391 26.0017622,22.1867856 C26.467502,21.716232 27.1263874,21.4809587 27.9784384,21.4809587 C28.6451562,21.4809587 29.169256,21.6157444 29.5507534,21.8853199 C29.9322508,22.1548953 30.2156618,22.56888 30.4009949,23.1272863 L28.956848,23.448609 C28.9063026,23.2873451 28.853351,23.1694076 28.7979918,23.094793 C28.7065287,22.9696329 28.5946084,22.8733574 28.4622276,22.8059636 C28.3298468,22.7385697 28.1818232,22.7048733 28.0181524,22.7048733 C27.6474862,22.7048733 27.3634735,22.8541003 27.1661057,23.1525588 C27.0168765,23.3739958 26.9422629,23.7217911 26.9422629,24.195955 C26.9422629,24.7832444 27.0313178,25.1857963 27.2094301,25.4036229 C27.3875425,25.6214495 27.6378588,25.7303612 27.9603866,25.7303612 C28.2732866,25.7303612 28.5097633,25.6425098 28.6698238,25.4668044 C28.8298842,25.2910989 28.9460165,25.0359689 29.0182242,24.7014065 Z M31.04003,24.2212276 C31.04003,23.357142 31.2807187,22.6844169 31.7621034,22.2030322 C32.2434882,21.7216475 32.9138063,21.4809587 33.7730781,21.4809587 C34.6540121,21.4809587 35.3327544,21.7174354 35.8093253,22.1903959 C36.2858962,22.6633564 36.524178,23.3258522 36.524178,24.1779032 C36.524178,24.7964826 36.4200802,25.3037341 36.2118813,25.6996731 C36.0036824,26.095612 35.7028214,26.4036936 35.3092894,26.6239271 C34.9157574,26.8441606 34.4253541,26.9542757 33.8380647,26.9542757 C33.2411476,26.9542757 32.747134,26.8592037 32.3560089,26.6690567 C31.9648838,26.4789097 31.6477764,26.1780488 31.4046771,25.7664649 C31.1615778,25.3548809 31.04003,24.839807 31.04003,24.2212276 Z M32.6755264,24.2284483 C32.6755264,24.7627854 32.7748105,25.1466839 32.9733817,25.3801555 C33.1719529,25.6136271 33.442126,25.7303612 33.7839092,25.7303612 C34.13532,25.7303612 34.4072983,25.616034 34.5998522,25.3873763 C34.7924061,25.1587185 34.8886816,24.7483442 34.8886816,24.156241 C34.8886816,23.6580078 34.7881941,23.2939661 34.5872159,23.0641048 C34.3862378,22.8342436 34.1136578,22.7193148 33.7694677,22.7193148 C33.4397192,22.7193148 33.1749615,22.8360488 32.9751869,23.0695204 C32.7754122,23.302992 32.6755264,23.6892974 32.6755264,24.2284483 Z M37.4051077,21.5712179 L39.0406041,21.5712179 L39.0406041,25.5606739 L41.5931339,25.5606739 L41.5931339,26.8640165 L37.4051077,26.8640165 L37.4051077,21.5712179 Z" id="CARACOL" fill="#FEFEFE"></path>
                <path d="M11.4065475,29.1915547 L13.5371773,29.1915547 L13.5371773,29.7516766 L12.8223255,29.7516766 L12.8223255,31.4598939 L12.1213993,31.4598939 L12.1213993,29.7516766 L11.4065475,29.7516766 L11.4065475,29.1915547 Z M13.8528261,29.1915547 L15.7312462,29.1915547 L15.7312462,29.675859 L14.5552995,29.675859 L14.5552995,30.0363795 L15.6461448,30.0363795 L15.6461448,30.4990217 L14.5552995,30.4990217 L14.5552995,30.9461909 L15.7652868,30.9461909 L15.7652868,31.4598939 L13.8528261,31.4598939 L13.8528261,29.1915547 Z M16.1428276,29.1915547 L16.8437537,29.1915547 L16.8437537,30.9013193 L17.9376936,30.9013193 L17.9376936,31.4598939 L16.1428276,31.4598939 L16.1428276,29.1915547 Z M18.2548897,29.1915547 L20.1333098,29.1915547 L20.1333098,29.675859 L18.9573632,29.675859 L18.9573632,30.0363795 L20.0482084,30.0363795 L20.0482084,30.4990217 L18.9573632,30.4990217 L18.9573632,30.9461909 L20.1673504,30.9461909 L20.1673504,31.4598939 L18.2548897,31.4598939 L18.2548897,29.1915547 Z M20.3205329,29.1915547 L21.0539523,29.1915547 L21.5645608,30.8239543 L22.0674327,29.1915547 L22.7791899,29.1915547 L21.9374596,31.4598939 L21.1777362,31.4598939 L20.3205329,29.1915547 Z M23.0375887,29.1915547 L23.7400622,29.1915547 L23.7400622,31.4598939 L23.0375887,31.4598939 L23.0375887,29.1915547 Z M24.1206975,30.7094543 L24.7875831,30.6676772 C24.8020246,30.7759886 24.831423,30.8585104 24.8757791,30.9152449 C24.9479867,31.0070518 25.0511389,31.0529545 25.1852387,31.0529545 C25.2852979,31.0529545 25.3624041,31.0294874 25.4165598,30.9825524 C25.4707156,30.9356175 25.497793,30.8812047 25.497793,30.8193125 C25.497793,30.7605148 25.472005,30.7079072 25.4204281,30.661488 C25.3688512,30.6150688 25.2491947,30.5712292 25.0614549,30.5299677 C24.7540568,30.4608547 24.5348584,30.3690492 24.4038531,30.2545486 C24.2718163,30.1400479 24.2057989,29.9940876 24.2057989,29.8166632 C24.2057989,29.7000994 24.2395813,29.5899845 24.307147,29.486315 C24.3747127,29.3826455 24.4763176,29.3011553 24.6119647,29.2418419 C24.7476119,29.1825285 24.9335437,29.1528722 25.1697658,29.1528722 C25.4596278,29.1528722 25.6806313,29.2067692 25.8327831,29.3145649 C25.9849348,29.4223605 26.0754509,29.593851 26.1043339,29.8290416 L25.4436376,29.867724 C25.4261014,29.7656018 25.3892245,29.6913322 25.3330057,29.6449131 C25.276787,29.5984939 25.1991649,29.5752846 25.1001373,29.5752846 C25.0186459,29.5752846 24.9572703,29.5925626 24.9160088,29.6271191 C24.8747474,29.6616756 24.8541169,29.7037101 24.8541169,29.7532239 C24.8541169,29.7893277 24.871137,29.8218207 24.9051778,29.8507037 C24.938187,29.8806183 25.0165826,29.9084694 25.1403671,29.9342578 C25.4467337,30.0002762 25.66619,30.0670673 25.7987425,30.134633 C25.9312951,30.2021987 26.0277424,30.2860098 26.0880873,30.3860689 C26.1484322,30.4861281 26.1786042,30.5980482 26.1786042,30.7218327 C26.1786042,30.8672794 26.1383749,31.0013773 26.057915,31.1241302 C25.9774551,31.2468832 25.8650192,31.339978 25.720604,31.4034176 C25.5761887,31.4668571 25.3941251,31.4985764 25.1744077,31.4985764 C24.7886127,31.4985764 24.5214485,31.4243068 24.3729071,31.2757654 C24.2243658,31.1272241 24.1402967,30.9384556 24.1206975,30.7094543 Z M26.5592396,29.1915547 L27.261713,29.1915547 L27.261713,31.4598939 L26.5592396,31.4598939 L26.5592396,29.1915547 Z M27.676389,30.3272716 C27.676389,29.9569497 27.7795412,29.6686393 27.9858486,29.4623319 C28.1921561,29.2560244 28.479435,29.1528722 28.8476938,29.1528722 C29.2252365,29.1528722 29.5161256,29.2542192 29.72037,29.4569163 C29.9246144,29.6596134 30.0267351,29.9435398 30.0267351,30.308704 C30.0267351,30.5738091 29.9821218,30.7912024 29.8928938,30.9608902 C29.8036658,31.1305781 29.6747256,31.2626129 29.5060692,31.3569986 C29.3374129,31.4513843 29.1272403,31.4985764 28.8755452,31.4985764 C28.6197239,31.4985764 28.408004,31.4578313 28.2403792,31.3763398 C28.0727544,31.2948484 27.9368514,31.1659082 27.8326661,30.9895153 C27.7284808,30.8131224 27.676389,30.5923767 27.676389,30.3272716 Z M28.3773151,30.3303662 C28.3773151,30.5593675 28.4198654,30.7238952 28.5049672,30.8239543 C28.5900691,30.9240135 28.7058574,30.9740423 28.8523357,30.9740423 C29.0029401,30.9740423 29.1195021,30.925045 29.2020251,30.8270489 C29.2845481,30.7290529 29.325809,30.5531784 29.325809,30.2994202 C29.325809,30.085892 29.2827429,29.9298743 29.1966096,29.8313625 C29.1104762,29.7328507 28.9936563,29.6835955 28.8461465,29.6835955 C28.7048259,29.6835955 28.5913585,29.7336243 28.5057409,29.8336834 C28.4201233,29.9337426 28.3773151,30.0993018 28.3773151,30.3303662 Z M28.8368627,28.5912029 L29.3784171,28.5912029 L28.8786398,29.0538451 L28.5769166,29.0538451 L28.8368627,28.5912029 Z M30.4089178,29.1915547 L31.0634249,29.1915547 L31.9175336,30.4464136 L31.9175336,29.1915547 L32.57823,29.1915547 L32.57823,31.4598939 L31.9175336,31.4598939 L31.0680668,30.2143188 L31.0680668,31.4598939 L30.4089178,31.4598939 L30.4089178,29.1915547 Z" id="TELEVISIÓN" fill="#FEFEFE"></path>
            </g>
        </g>
    </g>
</svg>