<?xml version="1.0" encoding="UTF-8" standalone="no"?>
<svg xmlns="http://www.w3.org/2000/svg" height="72px" width="134px" version="1.1" xmlns:xlink="http://www.w3.org/1999/xlink" viewBox="0 0 134 72"><!-- Generator: Sketch 41.2 (35397) - http://www.bohemiancoding.com/sketch -->
 <title>Artboard</title>
 <desc>Created with Sketch.</desc>
 <g id="Page-1" fill-rule="evenodd" fill="none">
  <g id="Artboard" fill="#2E2E2E">
   <g id="cbs" transform="translate(0 17)">
    <g id="Page-1">
     <g id="cbs">
      <path id="Fill-1" d="m39 19.1c0-9.9796 7.72-16.712 17.931-16.712 8.551-0.0002 12.849 4.9411 14.805 9.398l-8.503 3.922c-0.828-2.518-3.37-4.698-6.302-4.698-4.739 0-7.916 3.585-7.916 8.09 0 4.506 3.177 8.09 7.916 8.09 2.932 0 5.474-2.18 6.302-4.699l8.503 3.875c-1.905 4.312-6.254 9.447-14.805 9.447-10.211 0-17.931-6.782-17.931-16.713"/>
      <path id="Fill-2" d="m93.924 25.059c0-1.163-0.882-2.082-2.299-2.082h-7.914v4.117h7.914c1.417 0 2.299-0.823 2.299-2.035zm-0.637-12.16c0-1.113-0.928-1.841-1.953-1.841h-7.623v3.779h7.623c1.025 0 1.953-0.776 1.953-1.938zm-19.446 22.333v-32.312l19.788-0.0005c6.741 0 9.671 4.4569 9.671 8.2355 0 4.022-2.39 6.735-5.566 7.413 3.516 0.532 6.206 3.729 6.206 7.897 0 4.504-3.08 8.767-9.627 8.767h-20.472z"/>
      <path id="Fill-3" d="m104.43 30.678l5.13-7.266c2.45 2.325 6.11 4.166 10.51 4.166 1.85 0 3.61-0.484 3.61-1.744 0-3.1-18.17 0.049-18.17-12.692 0-5.4749 4.59-10.707 13.53-10.707 5.33 0.0001 10.12 1.503 13.83 4.5061l-5.28 6.9269c-2.83-2.132-6.49-3.198-9.57-3.198-1.96 0-2.49 0.631-2.49 1.454 0 3.053 18.12 0.437 18.12 12.451 0 7.121-5.32 11.238-14.07 11.238-6.94 0-11.68-2.034-15.15-5.135"/>
      <path id="Fill-4" d="m29.217 18.628c0 5.477-4.402 9.839-9.879 9.839-5.481 0-9.9251-4.362-9.9251-9.839 0-5.387 4.4441-9.7964 9.9251-9.7964 5.477 0 9.879 4.4094 9.879 9.7964zm-27.036 0c2.6058 5.432 8.7142 10.73 17.157 10.73 8.397 0 14.548-5.298 17.153-10.73-2.605-5.344-8.756-10.642-17.153-10.642-8.443 0.0002-14.551 5.298-17.157 10.642zm35.568 0c0 10.242-8.083 18.566-18.411 18.566-10.286 0-18.457-8.324-18.457-18.566-0.00005-10.152 8.1713-18.478 18.457-18.478 10.328-0.0003 18.411 8.3262 18.411 18.478z"/>
     </g>
    </g>
   </g>
  </g>
 </g>
</svg>
