<?xml version="1.0" encoding="UTF-8" standalone="no"?>
<svg xmlns="http://www.w3.org/2000/svg" height="72px" width="107px" version="1.1" xmlns:xlink="http://www.w3.org/1999/xlink" viewBox="0 0 107 72"><!-- Generator: Sketch 41.2 (35397) - http://www.bohemiancoding.com/sketch -->
 <title>Artboard</title>
 <desc>Created with Sketch.</desc>
 <defs>
  <polygon id="path-1" points="0.036477 46 106.85 46 106.85 0.21487 0.036477 0.21487"/>
 </defs>
 <g id="Page-1" fill-rule="evenodd" fill="none">
  <g id="Artboard">
   <g id="fox" transform="translate(0 14)">
    <g id="fox-seeklogo.com">
     <g id="Page-1">
      <g id="fox-seeklogo.com">
       <g id="Fill-1-Clipped">
        <mask id="mask-2" fill="white">
         <use xlink:href="#path-1"/>
        </mask>
        <path id="Fill-1" fill="#2E2E2E" mask="url(#mask-2)" d="m53.815 32.251v-18.15c0-2.153-1.612-3.987-3.775-3.987-1.979 0-3.683 1.834-3.683 3.987v18.15c0 2.016 1.704 3.713 3.683 3.713 2.163 0 3.775-1.468 3.775-3.713zm53.035 13.612l-13.814-23.649 12.614-21.815-13.949-0.00013-5.616 9.7151-5.709-9.7151-14.224-0.00003 12.751 21.953-13.579 23.511h13.948l6.583-11.367 6.675 11.367h14.32zm-106.85 0.137v-45.785l27.575-0.00013 0.829 12.558h-15.422v6.004h12.613v12.374h-12.613v14.849h-12.982zm28.081-22.824c0-12.236 9.806-22.136 21.959-22.136 12.107-0.0002 21.866 9.9 21.866 22.136 0 12.238-9.759 22.137-21.866 22.137-12.153 0-21.959-9.854-21.959-22.137z"/>
       </g>
      </g>
     </g>
    </g>
   </g>
  </g>
 </g>
</svg>
