<?xml version="1.0" encoding="UTF-8"?>
<svg width="186px" height="72px" viewBox="0 0 186 72" version="1.1" xmlns="http://www.w3.org/2000/svg" xmlns:xlink="http://www.w3.org/1999/xlink">
    <!-- Generator: Sketch 41.2 (35397) - http://www.bohemiancoding.com/sketch -->
    <title>Artboard 2</title>
    <desc>Created with Sketch.</desc>
    <defs>
        <polygon id="path-1" points="26.8006901 0.00499482634 0.0224301588 0.00499482634 0.0224301588 26.4996245 26.8006901 26.4996245"></polygon>
        <polygon id="path-3" points="12.5105913 12.3816256 12.5105913 0.0228903526 0.0174135438 0.0228903526 0.0174135438 12.3816256 12.5105913 12.3816256"></polygon>
        <polygon id="path-5" points="0.00176159963 0.00101197263 0.00176159963 12.03243 16.8295709 12.03243 16.8295709 0.00101197263 0.00176159963 0.00101197263"></polygon>
    </defs>
    <g id="Page-1" stroke="none" stroke-width="1" fill="none" fill-rule="evenodd">
        <g id="Artboard-2">
            <g id="Page-1" transform="translate(68.000000, 15.000000)">
                <g id="Group-3" transform="translate(11.016571, 0.021592)">
                    <mask id="mask-2" fill="white">
                        <use xlink:href="#path-1"></use>
                    </mask>
                    <g id="Clip-2"></g>
                    <path d="M13.4115601,0.00430803772 C6.02228073,0.00430803772 0.0224301588,5.954551 0.0224301588,13.2519663 C0.0224301588,20.5493815 6.02228073,26.4996245 13.4115601,26.4996245 C20.8008396,26.4996245 26.8006901,20.5493815 26.8006901,13.2519663 C26.8006901,5.954551 20.8008396,0.00430803772 13.4115601,0.00430803772 M22.5384604,19.5054108 C19.6342925,19.8051524 16.4201883,19.8775254 13.4115601,19.8671715 C10.4029057,19.8775254 7.18535716,19.8051524 4.28465989,19.5054108 C3.44195796,19.4158161 2.99275005,19.2125371 2.90222487,18.3132862 C2.73505695,16.6698323 2.72461881,14.9712271 2.72461881,13.2519663 C2.72461881,11.5327054 2.73505695,9.83410026 2.90222487,8.19064631 C2.99275005,7.29482941 3.44195796,7.08809042 4.28465989,7.00195568 C7.18535716,6.69878013 10.4029057,6.62640718 13.4115601,6.63676104 C16.4201883,6.62640718 19.6342925,6.69878013 22.5384604,7.00195568 C23.3811623,7.08809042 23.8303702,7.29482941 23.9208954,8.19064631 C24.0880633,9.83410026 24.0985015,11.5327054 24.0985015,13.2519663 C24.0985015,14.9712271 24.0880633,16.6698323 23.9208954,18.3132862 C23.8303702,19.2125371 23.3811623,19.4158161 22.5384604,19.5054108" id="Fill-1" fill="#2E2E2E" mask="url(#mask-2)"></path>
                </g>
                <path d="M18.9864629,13.2735585 C18.9864629,10.3208357 21.4135791,7.9124709 24.4291747,7.9124709 C27.4412998,7.9124709 29.8683897,10.3208357 29.8683897,13.2735585 C29.8683897,16.2262813 27.4412998,18.6346461 24.4291747,18.6346461 C21.4135791,18.6346461 18.9864629,16.2262813 18.9864629,13.2735585" id="Fill-4" fill="#2E2E2E"></path>
                <path d="M34.5056771,34.1428405 C35.2961358,33.5674469 35.5956077,32.8473594 35.5921371,31.779273 C35.5816727,30.3011946 34.575326,28.6473868 31.9218574,28.6473868 L27.9800022,28.6473868 L27.9800022,40.3583815 L32.2875077,40.3583815 C34.6867538,40.3583815 36.0308806,38.7976024 36.0308806,36.771706 C36.0308806,35.7036196 35.5120501,34.6631088 34.5056771,34.1428405 L34.5056771,34.1428405 Z M31.006036,31.2073394 L31.859176,31.2073394 C32.3014427,31.2073394 32.8272408,31.5449844 32.8272408,32.1617154 C32.8307377,32.7612247 32.4163411,33.1850045 31.8452673,33.1850045 L31.006036,33.1850045 L31.006036,31.2073394 Z M32.0263439,37.7708794 L31.006036,37.7708794 L31.006036,35.4314276 L31.9601656,35.4314276 C32.6740342,35.4314276 33.175459,35.9689177 33.175459,36.6097644 C33.175459,37.1989197 32.6775048,37.7708794 32.0263439,37.7708794 L32.0263439,37.7708794 Z" id="Fill-6" fill="#2E2E2E"></path>
                <path d="M21.1705152,28.3224838 C17.7300848,28.3224838 14.9234096,31.0995032 14.9234096,34.5035814 C14.9234096,37.9041996 17.7300848,40.681219 21.1705152,40.681219 C24.6109455,40.681219 27.4176207,37.9041996 27.4176207,34.5035814 C27.4176207,31.0995032 24.6109455,28.3224838 21.1705152,28.3224838 M21.1705152,37.6354676 C19.4259268,37.6354676 18.0016867,36.2297361 18.0016867,34.5035814 C18.0016867,32.7774266 19.4259268,31.3682352 21.1705152,31.3682352 C22.9151035,31.3682352 24.3358468,32.7774266 24.3358468,34.5035814 C24.3358468,36.2297361 22.9151035,37.6354676 21.1705152,37.6354676" id="Fill-8" fill="#2E2E2E"></path>
                <g id="Group-12" transform="translate(36.336279, 28.299593)">
                    <mask id="mask-4" fill="white">
                        <use xlink:href="#path-3"></use>
                    </mask>
                    <g id="Clip-11"></g>
                    <path d="M6.26451908,0.0228903526 C2.82408872,0.0228903526 0.0174135438,2.79990974 0.0174135438,6.20398795 C0.0174135438,9.6046062 2.82408872,12.3816256 6.26451908,12.3816256 C9.70494945,12.3816256 12.5116246,9.6046062 12.5116246,6.20398795 C12.5116246,2.79990974 9.70494945,0.0228903526 6.26451908,0.0228903526 M6.26451908,9.33587414 C4.51993073,9.33587414 3.09569057,7.9301427 3.09569057,6.20398795 C3.09569057,4.4778332 4.51993073,3.0686418 6.26451908,3.0686418 C8.00910744,3.0686418 9.42985069,4.4778332 9.42985069,6.20398795 C9.42985069,7.9301427 8.00910744,9.33587414 6.26451908,9.33587414" id="Fill-10" fill="#2E2E2E" mask="url(#mask-4)"></path>
                </g>
                <g id="Group-15" transform="translate(0.000000, 28.325608)">
                    <mask id="mask-6" fill="white">
                        <use xlink:href="#path-5"></use>
                    </mask>
                    <g id="Clip-14"></g>
                    <path d="M13.2707452,0.321435285 L10.15416,5.26561097 L5.94414721,5.26561097 L5.94414721,7.82902348 L8.89012022,7.82902348 C8.32598766,8.65246743 7.56686969,9.24164882 6.18443466,9.23475492 C4.58955598,9.22440106 3.07132003,8.18389028 3.07132003,6.00294619 C3.07132003,4.14929329 4.68707498,2.90550349 6.12175327,2.90893743 C7.2186514,2.90893743 8.52796689,3.2190329 9.43682084,4.67988953 L11.076949,2.07170568 C9.73279587,0.662540301 8.24243,0.00101197263 5.94414721,0.00101197263 C2.61864151,0.0699249673 0.0104486521,2.88482179 1.05170129e-05,5.92370535 C1.05170129e-05,9.63785301 3.01210924,12.03243 6.04166621,12.03243 L14.9108734,12.03243 L14.9108734,9.39667054 L11.2963338,9.39667054 L16.8295709,0.321435285 L13.2707452,0.321435285 Z" id="Fill-13" fill="#2E2E2E" mask="url(#mask-6)"></path>
                </g>
            </g>
        </g>
    </g>
</svg>