<?xml version="1.0" encoding="UTF-8"?>
<svg width="167px" height="17px" viewBox="0 0 167 17" version="1.1" xmlns="http://www.w3.org/2000/svg" xmlns:xlink="http://www.w3.org/1999/xlink">
    <!-- Generator: Sketch 41.2 (35397) - http://www.bohemiancoding.com/sketch -->
    <title>Page 1</title>
    <desc>Created with Sketch.</desc>
    <defs>
        <polygon id="path-1" points="6.56791715 15.9441135 0 15.9441135 0 0 13.1358343 2.15265144e-15 13.1358343 15.9441135 6.56791715 15.9441135"></polygon>
    </defs>
    <g id="Page-1" stroke="none" stroke-width="1" fill="none" fill-rule="evenodd">
        <g id="Dribbble-" transform="translate(-93.000000, -267.000000)">
            <g id="Group-15" transform="translate(0.000000, 232.000000)">
                <g id="Page-1" transform="translate(93.000000, 35.000000)">
                    <g id="Group-3" transform="translate(0.000000, 0.223754)">
                        <mask id="mask-2" fill="white">
                            <use xlink:href="#path-1"></use>
                        </mask>
                        <g id="Clip-2"></g>
                        <path d="M0.772670691,4.91436974 C0.772670691,2.4027091 3.20121194,0 7.06464195,0 C11.0385246,0 13.0254085,2.4027091 13.0254085,2.4027091 L10.9280911,5.67871575 C10.9280911,5.67871575 9.60352097,4.47735173 8.0580839,4.47735173 C7.5062036,4.47735173 7.17497973,4.80503949 7.17497973,5.13270833 C7.17497973,6.22470423 13.1358419,6.22470423 13.1358419,11.0297248 C13.1358419,13.5417831 10.7073007,15.9441135 6.84387069,15.9441135 C1.98690304,15.9441135 0,13.3230847 0,13.3230847 L2.09733651,10.0470781 C2.09733651,10.0470781 3.64267789,11.4667617 5.85042874,11.4667617 C6.40232818,11.4667617 6.73353291,11.1390929 6.73353291,10.8114051 C6.73353291,9.71940923 0.772670691,9.71940923 0.772670691,4.91436974 Z" id="Fill-1" fill="#000000" mask="url(#mask-2)"></path>
                    </g>
                    <polygon id="Fill-4" fill="#000000" points="26.4463626 0.811179277 26.4463626 5.83451949 22.2517087 5.83451949 22.2517087 16.0999361 16.5117326 16.0999361 16.5117326 5.83451949 12.3170787 5.83451949 12.3170787 0.811179277"></polygon>
                    <path d="M34.8863987,5.35102798 C33.5618477,5.35102798 32.4579723,6.44302388 32.4579723,7.97205673 C32.4579723,9.50108958 33.5618477,10.5930855 34.8863987,10.5930855 C36.2110645,10.5930855 37.3149399,9.50108958 37.3149399,7.97205673 C37.3149399,6.44302388 36.2110645,5.35102798 34.8863987,5.35102798 M34.8863987,15.9441135 C29.8087555,15.9441135 26.2764345,12.4494085 26.2764345,7.97205673 C26.2764345,3.494705 29.8087555,-5.68434189e-14 34.8863987,-5.68434189e-14 C39.9641567,-5.68434189e-14 43.4964777,3.494705 43.4964777,7.97205673 C43.4964777,12.4494085 39.9641567,15.9441135 34.8863987,15.9441135" id="Fill-6" fill="#000000"></path>
                    <path d="M51.5649308,6.55237306 C52.3376015,6.55237306 52.889501,6.00636564 52.889501,5.35102798 C52.889501,4.69567138 52.3376015,4.14966396 51.5649308,4.14966396 L50.9026171,4.14966396 L50.9026171,6.55237306 L51.5649308,6.55237306 Z M53.7726051,15.5070765 L51.1233883,10.4837363 L50.9026171,10.4837363 L50.9026171,15.5070765 L45.1626218,15.5070765 L45.1626218,0.218319654 C45.1626218,0.218319654 48.2534003,-5.68434189e-14 51.5649308,-5.68434189e-14 C56.4218219,-5.68434189e-14 58.6295728,2.18399181 58.6295728,5.35102798 C58.6295728,8.51804522 56.6425932,9.61004112 56.6425932,9.61004112 L60.3956854,15.5070765 L53.7726051,15.5070765 Z" id="Fill-8" fill="#000000"></path>
                    <polygon id="Fill-10" fill="#000000" points="66.4693564 5.17956053 68.0146978 0.811179277 74.6378738 0.811179277 69.3393445 10.2029197 69.3393445 16.0999361 63.5993684 16.0999361 63.5993684 10.2029197 58.300839 0.811179277 64.9239193 0.811179277"></polygon>
                    <path d="M82.7681968,6.55237306 C83.5408675,6.55237306 84.0927669,6.00638458 84.0927669,5.35102798 C84.0927669,4.69567138 83.5408675,4.14966396 82.7681968,4.14966396 L82.1058639,4.14966396 L82.1058639,6.55237306 L82.7681968,6.55237306 Z M84.975852,15.5070765 L82.3266543,10.4837363 L82.1058639,10.4837363 L82.1058639,15.5070765 L76.3658878,15.5070765 L76.3658878,0.218319654 C76.3658878,0.218319654 79.4566471,-5.68434189e-14 82.7681968,-5.68434189e-14 C87.6250688,-5.68434189e-14 89.8328388,2.18399181 89.8328388,5.35102798 C89.8328388,8.51806415 87.8458592,9.61004112 87.8458592,9.61004112 L91.5989514,15.5070765 L84.975852,15.5070765 Z" id="Fill-12" fill="#000000"></path>
                    <path d="M99.7563464,5.35102798 C98.4316997,5.35102798 97.3279008,6.44302388 97.3279008,7.97205673 C97.3279008,9.50107064 98.4316997,10.5930855 99.7563464,10.5930855 C101.080993,10.5930855 102.184792,9.50107064 102.184792,7.97205673 C102.184792,6.44302388 101.080993,5.35102798 99.7563464,5.35102798 M99.7563464,15.9441135 C94.6785883,15.9441135 91.1463822,12.4494085 91.1463822,7.97205673 C91.1463822,3.494705 94.6785883,-5.68434189e-14 99.7563464,-5.68434189e-14 C104.834104,-5.68434189e-14 108.366311,3.494705 108.366311,7.97205673 C108.366311,12.4494085 104.834104,15.9441135 99.7563464,15.9441135" id="Fill-14" fill="#000000"></path>
                    <path d="M117.379853,-5.68434189e-14 C121.574506,-5.68434189e-14 123.56139,2.4027091 123.56139,2.4027091 L120.91225,6.55237306 C120.91225,6.55237306 119.587623,5.35102798 118.042262,5.35102798 C116.496748,5.35102798 115.39295,6.44302388 115.39295,7.97205673 C115.39295,9.50107064 116.496748,10.5930855 118.042262,10.5930855 C119.587623,10.5930855 120.91225,9.39172147 120.91225,9.39172147 L123.56139,13.5417831 C123.56139,13.5417831 121.574506,15.9441135 117.379853,15.9441135 C112.743656,15.9441135 109.211431,12.4494085 109.211431,7.97205673 C109.211431,3.494705 112.743656,-5.68434189e-14 117.379853,-5.68434189e-14" id="Fill-16" fill="#000000"></path>
                    <polygon id="Fill-18" fill="#000000" points="134.809659 7.6443879 139.445856 15.2887569 132.822756 15.2887569 129.731901 9.17340181 129.731901 15.2887569 123.991925 15.2887569 123.991925 -5.68434189e-14 129.731901 -5.68434189e-14 129.731901 6.11535505 132.381214 -5.68434189e-14 139.004313 -5.68434189e-14"></polygon>
                    <polygon id="Fill-20" fill="#000000" points="145.333534 10.9207543 151.956634 10.9207543 151.956634 15.2887569 139.593558 15.2887569 139.593558 -5.68434189e-14 151.515072 -5.68434189e-14 151.515072 4.36838125 145.333534 4.36838125 145.333534 5.46037716 151.073511 5.46037716 151.073511 9.82837971 145.333534 9.82837971"></polygon>
                    <polygon id="Fill-22" fill="#000000" points="166.86104 -5.68434189e-14 166.86104 5.02335915 162.666406 5.02335915 162.666406 15.2887569 156.926429 15.2887569 156.926429 5.02335915 152.731776 5.02335915 152.731776 -5.68434189e-14"></polygon>
                </g>
            </g>
        </g>
    </g>
</svg>