<?xml version="1.0" encoding="UTF-8" standalone="no"?>
<svg xmlns="http://www.w3.org/2000/svg" height="72px" width="287px" version="1.1" xmlns:xlink="http://www.w3.org/1999/xlink" viewBox="0 0 287 72"><!-- Generator: Sketch 41.2 (35397) - http://www.bohemiancoding.com/sketch -->
 <title>Artboard</title>
 <desc>Created with Sketch.</desc>
 <g id="Page-1" fill-rule="evenodd" fill="none">
  <g id="Artboard" fill="#fff">
   <g id="mw_logo_onDark" transform="translate(0 15)">
    <g id="Layer_1">
     <g id="Group">
      <g id="Shape" transform="translate(0 7.7778)">
       <path d="m69.358 9.5667l-0.463 2.4113h-0.077c-0.617-1.4-2.391-3.2669-6.172-3.2669-6.172 0-12.421 4.8219-13.81 12.367-1.234 6.611 2.006 12.444 9.258 12.444 2.701 0 5.787-1.089 7.33-3.344h0.077l-0.463 2.489h6.789l4.243-23.178-6.712-0.0001v0.0778zm-2.16 11.511c-0.463 2.255-2.546 5.989-6.866 5.989-4.166 0-5.015-3.734-4.629-5.834 0.463-2.644 2.854-5.989 6.789-5.989 3.857 0 5.169 3.112 4.706 5.834z"/>
       <path d="m80.005 9.5667h6.404l-0.463 2.4113h0.077c0.849-1.089 2.392-3.2669 6.403-3.2669l-1.234 6.9999c-3.24 0.078-5.632 0.7-6.172 4.278l-2.392 12.755h-6.943l4.32-23.177z"/>
       <polygon points="97.055 0.46667 104 0.46667 100.76 17.967 100.91 17.967 108.86 9.5667 116.96 9.5667 106.39 19.756 112.49 32.744 104.69 32.744 100.22 21.544 100.14 21.544 98.058 32.744 91.192 32.744"/>
       <path d="m127.99 8.7111c-6.94 0-13.19 6.0669-14.35 12.522-1.23 6.845 3.32 12.289 9.96 12.289 2.39 0 4.78-0.7 6.94-2.1 2.16-1.322 4.16-3.344 5.78-5.911h-7.02c-1.15 1.245-2.46 2.178-4.62 2.178-2.7 0-4.63-1.633-4.56-4.356h17.21c0.23-0.544 0.31-0.933 0.46-1.789 1.31-7.155-2.78-12.833-9.8-12.833zm-6.94 9.8779c0.54-1.4 2.39-3.967 6.02-3.967 3.55 0 4.47 2.567 4.47 3.967h-10.49z"/>
       <polygon points="39.655 0.46667 27.466 18.822 27.388 18.822 27.388 0.46667 21.525 0.46667 0 32.744 8.3323 32.744 20.445 14.389 20.522 14.389 20.522 32.744 26.463 32.744 38.498 14.389 38.652 14.389 38.652 32.744 45.519 32.744 45.519 0.46667"/>
       <path d="m155.3 9.5667h-4.32l1.24-6.8445h-6.02l-0.46 2.6445c-0.54 3.0333-2.39 3.9666-4.94 4.2h-0.08l-1.08 5.2113h3.4l-3.32 17.889h6.87l3.31-17.889h4.4l1-5.2113z"/>
      </g>
      <path id="Shape" d="m261.77 31.733c-2.24 5.289-7.64 9.567-13.81 9.567-6.94 0-11.34-5.522-10.03-12.444 1.24-6.845 7.49-12.367 14.43-12.367 6.09 0 10.26 4.122 10.34 9.8h-6.95c-0.46-1.633-1.46-3.267-4.39-3.267-3.24-0.155-5.94 2.567-6.56 5.834-0.62 3.344 1.08 5.911 4.4 5.911 2.85 0 4.55-1.634 5.55-3.111h7.02v0.077zm-57.09-31.733l-13.35 8.2444h3.78l-12.11 18.356h-0.15v-18.356l-5.94 0.0004-12.12 18.356h-0.07v-18.356l-6.95 0.0004v32.278h6.02l12.11-18.355h0.08v18.355h5.94l21.45-32.278 3.39 0.0004-2.08-8.2444zm13.12 40.522h-6.79l0.46-2.489h-0.08c-1.62 2.256-4.63 3.345-7.33 3.345-7.33 0-10.49-5.834-9.25-12.445 1.38-7.544 7.71-12.366 13.81-12.366 3.78 0 5.55 1.866 6.17 3.266h0.07l0.47-2.411h6.79l-4.32 23.1zm-11.58-5.678c4.25 0 6.41-3.733 6.87-5.988 0.46-2.8-0.85-5.834-4.71-5.834-3.93 0-6.32 3.345-6.79 5.989-0.46 2.178 0.47 5.833 4.63 5.833zm33.1-17.5h-4.32l1.23-6.844h-6.01l-0.47 2.644c-0.54 3.034-2.39 3.967-4.93 4.2h-0.08l-1 5.212h3.39l-3.32 17.888h6.87l3.32-17.888h4.4l0.92-5.212zm28.93-9.0996h6.87l-2.08 11.512h0.07c1.47-2.178 3.47-3.267 6.48-3.267 2.16 0 4.63 0.855 5.79 2.567 1.47 2.255 1.31 4.277 0.54 8.477l-2.39 12.911h-6.87l2.32-12.6c0.23-1.088 0.84-4.9-2.78-4.9-3.86 0-4.48 3.5-4.71 4.667l-2.39 12.833h-6.79l5.94-32.2z"/>
     </g>
    </g>
   </g>
  </g>
 </g>
</svg>
