<?xml version="1.0" encoding="UTF-8"?>
<svg width="135px" height="72px" viewBox="0 0 135 72" version="1.1" xmlns="http://www.w3.org/2000/svg" xmlns:xlink="http://www.w3.org/1999/xlink">
    <!-- Generator: Sketch 41.2 (35397) - http://www.bohemiancoding.com/sketch -->
    <title>Artboard 2</title>
    <desc>Created with Sketch.</desc>
    <defs></defs>
    <g id="Page-1" stroke="none" stroke-width="1" fill="none" fill-rule="evenodd">
        <g id="Artboard-2" fill="#2E2E2E">
            <g id="Group" transform="translate(0.000000, 11.000000)">
                <path d="M56.8538695,48.5454024 L54.2977589,41.7450169 C56.6829763,40.9906485 58.9445695,39.7211823 60.9080072,37.9150498 C63.0059835,35.9928197 64.5185555,33.6752033 65.4566415,31.1835164 L72.1577898,34.0161545 C70.827014,37.4253627 68.7181309,40.598952 65.8347903,43.2537918 C63.1623318,45.7092267 60.089911,47.464614 56.8538695,48.5454024" id="path35094"></path>
                <path d="M64.189861,16.305367 C62.9608919,14.1329106 61.2447025,12.1888951 59.070375,10.6402239 C56.7869644,9.01538943 54.2490369,8.02162475 51.6492992,7.60453672 C50.7257542,7.45583511 49.7840339,7.3796717 48.8350335,7.3796717 C47.4424475,7.3796717 46.0244097,7.54288172 44.6136369,7.89105674 C41.8502822,8.57290979 39.4032508,9.87132429 37.3779992,11.6049718 L32.8729958,5.89990219 C35.6908996,3.54968941 39.0687369,1.78340367 42.8756339,0.847672601 C44.8681576,0.358050169 46.8643233,0.122298145 48.8277648,0.122298145 C50.2167165,0.122298145 51.5911233,0.241982953 52.9364441,0.466847969 L52.9364441,0.459886675 C56.5542648,1.05831832 60.1029992,2.46917863 63.2917716,4.73597 C66.2551093,6.83954756 68.6039644,9.47628416 70.3310644,12.417682 L64.189861,16.3056713" id="path35100"></path>
                <path d="M31.6945678,43.4296881 L36.3522852,37.8551751 C38.1884644,39.545286 40.4173335,40.8763767 42.9588953,41.6815664 C45.6749886,42.5446908 48.4456195,42.7079198 51.0780852,42.2872371 L51.925275,49.497464 C48.2929093,50.0342064 44.4896542,49.7767146 40.7518436,48.5943597 C37.290375,47.4917364 34.2397678,45.7001732 31.6945678,43.4296881" id="path35104"></path>
                <polygon id="path35110" points="3.21814792 28.6762713 3.21814792 21.2303494 0.00392415254 21.2303494 0.00392415254 20.2329443 7.71587924 20.2329443 7.71587924 21.2303494 4.50165623 21.2303494 4.50165623 28.6762713 3.21814792 28.6762713"></polygon>
                <polygon id="path35114" points="8.63287856 28.6762713 8.63287856 20.2329443 9.91638686 20.2329443 9.91638686 23.6966256 14.9922419 23.6966256 14.9922419 20.2329443 16.2757499 20.2329443 16.2757499 28.6762713 14.9922419 28.6762713 14.9922419 24.6939926 9.91638686 24.6939926 9.91638686 28.6762713"></polygon>
                <polygon id="path35118" points="17.7101516 28.6762713 17.7101516 20.2329443 24.7494467 20.2329443 24.7494467 21.2303494 18.9936591 21.2303494 18.9936591 23.8054196 24.38221 23.8054196 24.38221 24.8028247 18.9936591 24.8028247 18.9936591 27.6789043 24.9821512 27.6789043 24.9821512 28.6762713"></polygon>
                <polygon id="path35122" points="27.6007977 20.2474755 31.5676716 20.2474755 33.0838856 25.3722053 34.6037339 20.2474755 38.5524267 20.2474755 38.5524267 28.6762713 36.0908542 28.6762713 36.0908542 22.2422477 34.1819581 28.6762713 31.9639958 28.6762713 30.0623682 22.2422477 30.0623682 28.6762713 27.6007977 28.6762713 27.6007977 20.2474755"></polygon>
                <path d="M42.315689,24.4810836 C42.315689,25.3334046 42.497489,25.9463789 42.8610852,26.3162785 C43.2283233,26.6898679 43.7228199,26.8748558 44.3482131,26.8748558 C44.9954199,26.8748558 45.4935508,26.6935198 45.8462441,26.3307717 C46.1989335,25.9644859 46.3770992,25.3116458 46.3770992,24.365062 C46.3770992,23.5707517 46.1916648,22.9904537 45.8244305,22.6241298 C45.4535542,22.257806 44.9554233,22.07647 44.3227576,22.07647 C43.7191818,22.07647 43.2319614,22.2614578 42.8647233,22.6313954 C42.497489,23.0049468 42.315689,23.6214969 42.315689,24.4810836 M39.3087165,24.4666284 C39.3087165,23.0884063 39.7486716,22.0184972 40.6358542,21.2495976 C41.5194025,20.4806979 42.7520097,20.0962291 44.3300301,20.0962291 C45.9480547,20.0962291 47.1951992,20.4734323 48.071475,21.2278007 C48.9477508,21.9822452 49.3840716,23.0412749 49.3840716,24.3977382 C49.3840716,25.3841878 49.195003,26.1929913 48.8095818,26.8240726 C48.4278025,27.4551919 47.8751339,27.9484167 47.1515682,28.3002093 C46.4280025,28.6483881 45.5262788,28.8261484 44.4500199,28.8261484 C43.3519475,28.8261484 42.4429513,28.6737987 41.7266581,28.3691375 C41.0067305,28.0680901 40.4249682,27.5893584 39.9777407,26.9328666 C39.5305131,26.2764127 39.3087165,25.4531541 39.3087165,24.4666284" id="path35126"></path>
                <polygon id="path35130" points="48.6797758 20.2474755 51.8249212 20.2474755 54.017428 26.3115616 56.1808449 20.2474755 59.2350864 20.2474755 55.6209038 28.6762713 52.3594106 28.6762713 48.6797758 20.2474755"></polygon>
                <polygon id="path35132" points="59.5670492 20.2474755 62.5740254 20.2474755 62.5740254 28.6762713 59.5670492 28.6762713 59.5670492 20.2474755"></polygon>
                <polygon id="path35136" points="63.9433449 20.2474755 71.997075 20.2474755 71.997075 22.0463804 66.9503136 22.0463804 66.9503136 23.3846988 71.6407551 23.3846988 71.6407551 25.1038341 66.9503136 25.1038341 66.9503136 26.7649586 72.1461547 26.7649586 72.1461547 28.6762713 63.9433449 28.6762713 63.9433449 20.2474755"></polygon>
                <path d="M81.4510373,25.7091624 L82.7345517,25.9920648 C82.4654898,26.9096242 81.9782581,27.6096337 81.2765212,28.0884034 C80.5747691,28.5707488 79.7166686,28.8137474 78.7022314,28.8137474 C77.6514165,28.8137474 76.7969619,28.6287595 76.1388407,28.2552081 C75.4807347,27.8852705 74.9789619,27.3484901 74.6371754,26.6485186 C74.2953966,25.9449334 74.1208691,25.1904889 74.1208691,24.3853372 C74.1208691,23.5076055 74.3172102,22.738782 74.7026314,22.0859039 C75.0916792,21.42945 75.6443517,20.9325734 76.3606449,20.5916602 C77.0769381,20.2543227 77.8623102,20.0838661 78.7240411,20.0838661 C79.6984856,20.0838661 80.5165932,20.2978783 81.1819831,20.7294405 C81.8473691,21.157427 82.3091377,21.7631357 82.5709309,22.5429147 L81.3019691,22.8004446 C81.0728962,22.1874703 80.7456585,21.7413388 80.316614,21.4584744 C79.8875581,21.1792238 79.3457962,21.0377536 78.6949589,21.0377536 C77.9459377,21.0377536 77.3169102,21.193679 76.8151411,21.5056058 C76.313372,21.8175327 75.9570521,22.2346017 75.7534309,22.7568889 C75.5498174,23.28279 75.4480068,23.8231462 75.4480068,24.3780716 C75.4480068,25.0962261 75.5680004,25.7236555 75.811603,26.260436 C76.0552208,26.7936026 76.4297275,27.1961785 76.9387691,27.4609359 C77.4478068,27.7256933 78.0004792,27.8562841 78.5967826,27.8562841 C79.3203445,27.8562841 79.9311928,27.6785239 80.4329581,27.3158519 C80.9347271,26.9568317 81.2728754,26.4200512 81.4510373,25.7091624" id="path35140"></path>
                <polygon id="path35144" points="83.6231873 28.6762713 83.6231873 20.2329443 84.9103322 20.2329443 84.9103322 23.6966256 89.9825492 23.6966256 89.9825492 20.2329443 91.2660559 20.2329443 91.2660559 28.6762713 89.9825492 28.6762713 89.9825492 24.6939926 84.9103322 24.6939926 84.9103322 28.6762713 83.6231873 28.6762713"></polygon>
                <path d="M94.6875318,25.1980969 L97.9999322,25.1980969 L96.981853,22.8624115 C96.676425,22.1515226 96.4437254,21.564035 96.2873733,21.1070242 C96.1564805,21.654684 95.9783148,22.198692 95.7528839,22.7318587 L94.6875318,25.1980969 L94.6875318,25.1980969 Z M91.8841843,28.6762713 L95.6147148,20.2329443 L97.0254877,20.2329443 L101.003267,28.6762713 L99.5343178,28.6762713 L98.403525,26.1120805 L94.3057602,26.1120805 L93.2476805,28.6762713 L91.8841843,28.6762713 Z" id="path35148"></path>
                <polygon id="path35152" points="101.543217 28.6762713 101.543217 20.2329443 102.859444 20.2329443 107.982568 26.8628732 107.982568 20.2329443 109.215168 20.2329443 109.215168 28.6762713 107.895303 28.6762713 102.772178 22.0463804 102.772178 28.6762713"></polygon>
                <polygon id="path35156" points="110.634304 28.6762713 110.634304 20.2329443 111.950531 20.2329443 117.073655 26.8628732 117.073655 20.2329443 118.302624 20.2329443 118.302624 28.6762713 116.986389 28.6762713 111.863273 22.0463804 111.863273 28.6762713"></polygon>
                <polygon id="path35160" points="120.038087 28.6762713 120.038087 20.2329443 127.077384 20.2329443 127.077384 21.2303494 121.321594 21.2303494 121.321594 23.8054196 126.710142 23.8054196 126.710142 24.8028247 121.321594 24.8028247 121.321594 27.6789043 127.310091 27.6789043 127.310091 28.6762713"></polygon>
                <polygon id="path35164" points="128.568139 28.6762713 128.568139 20.2329443 129.851653 20.2329443 129.851653 27.6789043 134.651174 27.6789043 134.651174 28.6762713"></polygon>
            </g>
        </g>
    </g>
</svg>