<?xml version="1.0" encoding="UTF-8"?>
<svg width="186px" height="72px" viewBox="0 0 186 72" version="1.1" xmlns="http://www.w3.org/2000/svg" xmlns:xlink="http://www.w3.org/1999/xlink">
    <!-- Generator: Sketch 41.2 (35397) - http://www.bohemiancoding.com/sketch -->
    <title>Artboard 2</title>
    <desc>Created with Sketch.</desc>
    <defs></defs>
    <g id="Page-1" stroke="none" stroke-width="1" fill="none" fill-rule="evenodd">
        <g id="Artboard-2" fill="#2E2E2E">
            <g id="netflix" transform="translate(55.000000, 26.000000)">
                <g id="Artboard">
                    <g id="Page-1">
                        <g id="Artboard">
                            <g id="netflix_2014">
                                <g id="Page-1">
                                    <g id="netflix_2014">
                                        <path d="M10.5577043,0.0113333333 L7.31633913,0.0113333333 C7.31031304,4.133 7.30361739,6.80266667 7.2975913,10.924 C5.90456087,6.902 4.51039217,4.23933333 3.11260783,0.0113333333 L0,0.0113333333 L0,19.3333333 C1.0507487,19.1933333 2.17575217,19.0593333 3.22757217,18.9313333 C3.23058522,14.8926667 3.23366522,12.41 3.23667826,8.37133333 C4.68414435,12.3466667 5.57413043,14.6913333 7.01704348,18.4693333 C8.1486087,18.348 9.3919913,18.1993333 10.5242261,18.092 C10.5356087,12.0653333 10.5463217,6.038 10.5577043,0.0113333333" id="Fill-1"></path>
                                        <path d="M22.6654522,0.0113333333 L13.685913,0.0113333333 L13.6497565,17.8373333 C16.6534261,17.582 19.6604435,17.3733333 22.6701391,17.2106667 C22.6714783,16.342 22.673487,15.0933333 22.6748261,14.2246667 C20.717687,14.3373333 18.8462522,14.4546667 16.8958087,14.5773333 C16.8991565,12.9793333 16.9025043,11.6586667 16.9058522,10.0606667 C18.3313565,10.0373333 19.8365391,10.058 21.2921739,10.0346667 C21.2941826,9.16133333 21.2955217,7.908 21.2975304,7.03466667 C19.8546174,7.05866667 18.3313565,7.06133333 16.9118783,7.08666667 C16.9152261,5.489 16.9185739,4.61266667 16.9219217,3.015 C17.8151217,3.005 18.6902435,3.00366667 19.5633565,3.00366667 C19.716687,3.00366667 19.8700174,3.00366667 20.0240174,3.00386667 L20.4813304,3.00386667 C21.210487,3.00386667 21.9416522,3.003 22.6862087,2.997 C22.6875478,2.12813333 22.664113,0.88 22.6654522,0.0113333333" id="Fill-2"></path>
                                        <path d="M34.7698522,0.0246666667 C31.4735826,0.0246666667 28.0668348,0.0248333333 24.7705652,0.025 C24.7685565,0.888133333 24.7672174,2.13146667 24.7658783,2.99453333 C24.9091652,2.99366667 25.0531217,2.99333333 25.1964087,2.99333333 C25.630287,2.99333333 26.0648348,2.9972 26.4993826,3.0012 C26.9332609,3.0052 27.3671391,3.0092 27.801687,3.0092 C27.9128348,3.0092 28.0239826,3.0088 28.1358,3.00833333 C28.1291043,7.79866667 28.1224087,12.1736667 28.115713,16.9643333 C29.1736261,16.9283333 30.3058609,16.897 31.3637739,16.8723333 C31.3684609,12.1076667 31.3731478,7.75833333 31.3778348,2.99433333 C32.4960087,2.99046667 33.6503391,2.98753333 34.768513,2.98533333 C34.768513,2.13686667 34.7691826,0.873533333 34.7698522,0.025" id="Fill-3"></path>
                                        <path d="M45.8899913,0.0113333333 L36.8736261,0.0113333333 C36.872287,5.60453333 36.8716174,11.1973333 36.8709478,16.7906667 C37.2191217,16.7893333 37.5719826,16.7886667 37.925513,16.7886667 C38.6466348,16.7886667 39.373113,16.7906667 40.0835217,16.796 C40.0821826,14.4226667 40.081513,12.2566667 40.0808435,9.88266667 C40.2582783,9.88333333 40.4370522,9.884 40.6164957,9.884 C41.036313,9.884 41.4621565,9.882 41.8900087,9.88066667 C42.3178609,9.87866667 42.7470522,9.87733333 43.1728957,9.87733333 C43.6114609,9.87733333 44.0466783,9.87866667 44.4718522,9.884 C44.4711826,9.03333333 44.4698435,7.768 44.4691739,6.91666667 C44.0674348,6.91333333 43.6576609,6.912 43.2432,6.912 C42.7992783,6.912 42.3513391,6.91333333 41.9047391,6.91466667 C41.4588087,6.916 41.0142174,6.91733333 40.5776609,6.91733333 L40.0801739,6.91733333 C40.0795043,5.391 40.0795043,4.52986667 40.0788348,3.00386667 C40.4310261,3.00433333 40.7832174,3.00453333 41.1334,3.00453333 C41.4889391,3.00453333 41.8438087,3.00433333 42.1980087,3.00413333 C42.5555565,3.004 42.9131043,3.00386667 43.2706522,3.00386667 C44.1417565,3.00386667 45.0135304,3.00466667 45.8933391,3.00833333 C45.892,2.15546667 45.8913304,0.864133333 45.8899913,0.0113333333" id="Fill-4"></path>
                                        <path d="M47.9951043,0.0248333333 C48.0024696,5.6719 47.9736783,11.3188333 47.981713,16.9661667 C50.8641913,17.0668333 53.8939739,17.1755 56.7731043,17.3615 C56.7710957,16.4928333 56.7697565,15.2435 56.7677478,14.3748333 C54.9451913,14.2748333 53.048313,14.1548333 51.2244174,14.0835 C51.2163826,9.2475 51.2445043,4.86083333 51.2364696,0.0248333333 C50.1805652,0.025 49.0510087,0.025 47.9951043,0.025" id="Fill-5"></path>
                                        <path d="M59.433287,0.0253333333 C59.4460087,5.8652 59.4580609,11.7053333 59.470113,17.5453333 C60.526687,17.6213333 61.6194174,17.7033333 62.6746522,17.7906667 C62.6786696,11.8733333 62.6873739,5.94733333 62.6746522,0.0253333333 L59.433287,0.0253333333" id="Fill-6"></path>
                                        <path d="M65.4540174,0.0256666667 C66.7502957,2.97853333 67.934087,5.93966667 69.2531304,9.075 C67.8872174,12.0876667 66.4918435,15.0803333 65.1252609,17.9696667 C66.2574957,18.0736667 67.4252174,18.227 68.5567826,18.3443333 C69.3736522,16.4836667 70.1101739,15.051 70.9203478,13.1403333 C71.7305217,15.1756667 72.4670435,16.7483333 73.2772174,18.8496667 C74.4087826,18.987 75.8751304,19.1836667 77,19.3336667 C75.634087,15.9163333 74.1342609,12.3576667 72.7616522,9.127 C74.1342609,6.094 75.5269565,3.19833333 76.9531304,0.027 C75.7813913,0.027 74.5761739,0.0268333333 73.4111304,0.0266666667 C72.534,1.98686667 71.9313913,3.24633333 71.0877391,5.1122 C70.3043478,3.17086667 69.782087,1.91446667 68.992,0.0263333333 C67.8269565,0.0261666667 66.6210696,0.0261666667 65.4540174,0.026" id="Fill-7"></path>
                                    </g>
                                </g>
                            </g>
                        </g>
                    </g>
                </g>
            </g>
        </g>
    </g>
</svg>