<?xml version="1.0" encoding="UTF-8"?>
<svg width="186px" height="72px" viewBox="0 0 186 72" version="1.1" xmlns="http://www.w3.org/2000/svg" xmlns:xlink="http://www.w3.org/1999/xlink">
    <!-- Generator: Sketch 41.2 (35397) - http://www.bohemiancoding.com/sketch -->
    <title>Artboard 2</title>
    <desc>Created with Sketch.</desc>
    <defs></defs>
    <g id="Page-1" stroke="none" stroke-width="1" fill="none" fill-rule="evenodd">
        <g id="Artboard-2" fill="#2E2E2E">
            <g id="nickelodeon" transform="translate(36.000000, 28.000000)">
                <g id="Layer_1">
                    <path d="M10.9043478,15.6983607 L6.79177438,15.6983607 L6.79177438,10.5456674 C6.79177438,9.50444965 6.33631022,8.71686183 5.50575793,8.69016393 C4.68860165,8.66346604 4.15276146,9.54449649 4.15276146,10.4522248 L4.15276146,15.7117096 L0,15.7117096 L0,10.9995316 C0,9.55784543 0.401880141,8.35644028 1.12526439,7.40866511 C1.91562867,6.36744731 3.38918919,5.39297424 5.1440658,5.29953162 C6.88554642,5.19274005 8.10458284,5.86018735 9.09588719,6.71451991 C10.0068155,7.48875878 10.8909518,8.94379391 10.8909518,10.2386417 C10.9043478,11.5067916 10.9043478,15.6983607 10.9043478,15.6983607 Z M53.0749706,3.20374707 C53.0749706,2.5763466 53.1419506,1.93559719 53.0079906,1.46838407 C52.8338425,0.894379391 52.3113984,0.360421546 51.8157462,0.160187354 C50.5565217,-0.3470726 49.4044653,0.467213115 49.0829612,1.28149883 C48.8820212,1.80210773 48.9490012,2.56299766 48.9490012,3.33723653 L48.9490012,15.6983607 L53.0615746,15.6983607 C53.0749706,11.8138173 53.0749706,7.23512881 53.0749706,3.20374707 Z M66.3638073,7.27517564 C65.7609871,8.02271663 65.1983549,9.06393443 65.1045828,10.2920375 C64.9706228,12.3077283 65.7609871,13.629274 66.6853114,14.5503513 C67.4756757,15.3512881 68.6277321,16.0454333 70.0343126,16.1522248 C71.7356052,16.2723653 72.9680376,15.7250585 73.959342,14.9641686 C74.8970623,14.2566745 75.6740306,13.0686183 75.9151586,11.7871194 C76.0625147,11.0395785 76.0089307,9.3175644 76.0089307,9.3175644 L76.0089307,1.84215457 C76.0089307,1.08126464 75.3391304,0.41381733 74.6559342,0.146838407 C73.3431257,-0.360421546 71.7757932,0.640749415 71.8427732,2.14918033 C71.8829612,2.99016393 71.8695652,5.45971897 71.8695652,5.45971897 C69.3779083,4.87236534 67.4220917,5.95362998 66.3638073,7.27517564 Z M70.4094007,8.3030445 C71.306933,8.14285714 71.7891892,9.38430913 71.8561692,10.3187354 C71.9499412,11.5868852 71.5078731,13.0285714 70.7309048,13.1754098 C69.6592244,13.3622951 69.1501763,11.7604215 69.2171563,10.4789227 C69.2707403,9.58454333 69.6190364,8.43653396 70.4094007,8.3030445 Z M37.6159812,8.24964871 C38.3393655,6.99484778 37.3212691,5.65995316 36.5175088,5.3529274 C36.3031727,5.27283372 35.9146886,5.1793911 35.5262045,5.21943794 C34.4679201,5.32622951 33.9856639,6.16721311 33.5703878,6.9147541 C33.1685076,7.64894614 32.0968273,9.50444965 32.0968273,9.50444965 L32.0968273,7.12833724 C32.0968273,6.34074941 31.427027,5.25948478 29.9534665,5.25948478 C28.7746181,5.25948478 27.9574618,6.30070258 27.9574618,7.32857143 L27.9574618,11.4934426 L27.9574618,15.6850117 L32.1102233,15.6850117 L32.1102233,12.4145199 L34.293772,15.6850117 L37.5088132,15.6850117 C38.3929495,15.6850117 38.4867215,14.9241218 38.1384254,14.3901639 C37.5088132,13.4156909 35.9548766,11.1330211 35.9548766,11.1330211 C35.9548766,11.1330211 36.8925969,9.50444965 37.6159812,8.24964871 Z M23.8850764,5.7 C21.7149236,4.79227166 19.3170388,5.57985948 18.0310223,6.84800937 C17.146886,7.72903981 16.5038778,8.90374707 16.4235018,10.2786885 C16.3029377,12.2009368 16.959342,13.4957845 18.0042303,14.5370023 C18.8347826,15.3779859 19.933255,16.0320843 21.3130435,16.1388759 C22.6526439,16.2456674 23.6707403,15.9386417 24.5280846,15.4714286 C25.586369,14.8840749 26.3767333,13.9896956 26.8455934,12.9084309 C27.0465335,12.4278689 27.2474736,11.9206089 27.3010576,11.2398126 L23.1482961,11.2398126 C23.0545241,12.1208431 22.66604,13.1887588 21.8622797,13.1887588 C21.0451234,13.1887588 20.6030552,11.9740047 20.5494712,10.9461358 C20.5092832,10.158548 20.7102233,9.27751756 21.0049354,8.83700234 C21.1790834,8.58337237 21.5139835,8.26299766 21.8756757,8.26299766 C22.3177438,8.26299766 22.6258519,8.63676815 22.813396,8.9704918 C23.0277321,9.3442623 23.1215041,9.74473068 23.1616921,10.2252927 L27.3144536,10.2252927 C27.0197415,8.00936768 25.720329,6.47423888 23.8850764,5.7 Z M47.0333725,6.88805621 C46.1358402,5.96697892 44.7158637,5.16604215 42.853819,5.28618267 C40.4827262,5.43302108 38.8618096,6.95480094 38.1652174,8.67681499 C37.7499412,9.70468384 37.6293772,10.9461358 37.9106933,12.0674473 C38.2188014,13.2688525 39.0091657,14.3234192 39.839718,14.9775176 C40.5764982,15.5648712 41.6615746,16.0587822 42.800235,16.1255269 C44.0192714,16.2056206 44.8766157,15.9386417 45.693772,15.5114754 C47.1807286,14.7505855 47.9443008,13.7494145 48.2925969,11.8271663 L44.6220917,11.8271663 C44.2737955,12.3744731 43.9254994,13.1620609 43.1485311,13.1086651 C42.3447709,13.0552693 42.0500588,11.9740047 41.9294947,11.2531616 L48.359577,11.2531616 C48.533725,9.33091335 48.0112808,7.88922717 47.0333725,6.88805621 Z M44.3943596,9.74473068 L41.9830787,9.74473068 C42.0634548,8.86370023 42.9475911,7.71569087 43.7781434,8.46323185 C44.0862515,8.73021077 44.3005875,9.23747073 44.3943596,9.74473068 Z M56.7722679,5.83348946 C56.1962397,6.11381733 55.6871915,6.46088993 55.2987074,6.86135831 C54.4681551,7.68899297 53.7983549,8.7969555 53.6911868,10.2252927 C53.5438308,12.3344262 54.4011751,13.7761124 55.4594595,14.7372365 C56.4775558,15.6583138 57.8305523,16.1922717 59.3443008,16.1522248 C60.8580494,16.112178 62.0904818,15.4580796 63.0148061,14.5236534 C63.8587544,13.6693208 64.5821387,12.401171 64.5955347,10.7725995 C64.5955347,9.02388759 63.8319624,7.67564403 62.9210341,6.83466042 C61.9967098,5.98032787 60.6035253,5.19274005 58.8084606,5.32622951 C57.9645123,5.37962529 57.3616921,5.55316159 56.7722679,5.83348946 Z M58.9692127,8.3030445 C60.0810811,8.07611241 60.5365452,9.82482436 60.4427732,11.0929742 C60.3757932,12.0674473 59.933725,13.0686183 59.3175088,13.1754098 C59.2103408,13.1887588 59.0361927,13.1887588 58.9692127,13.1754098 C58.1520564,13.0419204 57.7367803,11.6002342 57.8171563,10.4255269 C57.8707403,9.61124122 58.1654524,8.83700234 58.5539365,8.50327869 C58.6343126,8.40983607 58.8084606,8.32974239 58.9692127,8.3030445 Z M84.2608696,5.79344262 C83.5240893,5.44637002 82.626557,5.20608899 81.6218566,5.28618267 C80.1081081,5.39297424 79.0364277,6.00702576 78.1522914,6.88805621 C77.1074031,7.929274 76.3974148,9.26416862 76.5447709,11.2398126 C76.7055229,13.388993 78.2192714,15.0576112 79.920564,15.7517564 C80.9922444,16.1922717 82.2246769,16.2590164 83.3231492,15.9786885 C85.372738,15.4580796 86.7257344,14.0564403 87.0472385,11.8405152 L83.3767333,11.8405152 C83.0418331,12.401171 82.706933,13.1620609 81.9299647,13.1220141 C81.0994125,13.0819672 80.8180964,12.0274005 80.7109283,11.2665105 L87.1410106,11.2665105 C87.3821387,8.42318501 86.1363102,6.68782201 84.2608696,5.79344262 Z M83.1891892,9.77142857 L80.7913043,9.77142857 C80.9386604,9.01053864 81.3405405,8.08946136 82.2380729,8.2763466 C82.773913,8.39648712 83.0820212,9.170726 83.1891892,9.77142857 Z M89.1504113,7.11498829 C88.360047,7.99601874 87.6366627,9.3175644 87.7706228,11.14637 C87.8911868,12.7215457 88.6279671,13.8962529 89.5656874,14.7639344 C90.5301998,15.6449649 91.9635723,16.2456674 93.6112808,16.1388759 C95.2054054,16.0454333 96.3574618,15.2845433 97.2415981,14.3501171 C98.0989424,13.4290398 98.7821387,12.0807963 98.6615746,10.3454333 C98.6079906,9.58454333 98.3668625,8.89039813 98.0453584,8.26299766 C97.1880141,6.59437939 95.4063455,5.11264637 92.8343126,5.31288056 C91.213396,5.44637002 89.9675676,6.20725995 89.1504113,7.11498829 Z M93.0754407,8.3030445 C93.959577,8.15620609 94.4284371,9.33091335 94.5222092,10.1985948 C94.6561692,11.4533958 94.2274971,13.0285714 93.3969448,13.1754098 C92.8745006,13.2688525 92.4860165,12.881733 92.2716804,12.5079625 C91.6286722,11.3599532 91.8698002,9.15737705 92.6199765,8.50327869 C92.7271445,8.39648712 92.9012926,8.32974239 93.0754407,8.3030445 Z M110.088367,10.2252927 C110.088367,8.93044496 109.190834,7.47540984 108.293302,6.70117096 C107.301998,5.86018735 106.069565,5.19274005 104.341481,5.28618267 C102.586604,5.39297424 101.113043,6.35409836 100.322679,7.39531616 C99.5992949,8.32974239 99.1974148,9.54449649 99.1974148,10.9861827 L99.1974148,15.6983607 L103.350176,15.6983607 L103.350176,10.4388759 C103.350176,9.53114754 103.886016,8.6501171 104.703173,8.67681499 C105.533725,8.70351288 105.989189,9.4911007 105.989189,10.5323185 L105.989189,15.6850117 L110.101763,15.6850117 C110.088367,15.6983607 110.088367,11.5067916 110.088367,10.2252927 Z M15.8206816,9.86487119 C15.8206816,9.18407494 15.8206816,8.48992974 15.7403055,7.91592506 C15.6599295,7.30187354 15.3116334,6.87470726 14.9097532,6.47423888 C14.6284371,6.19391101 14.172973,5.86018735 14.172973,5.44637002 C14.172973,5.07259953 14.5748531,4.73887588 14.8427732,4.45854801 C15.1374853,4.16487119 15.4991774,3.87119438 15.6733255,3.59086651 C16.2895417,2.62974239 16.0484136,1.40163934 15.3518214,0.680796253 C14.8561692,0.333723653 14.4007051,-0.0266978923 13.5567568,0.0400468384 C12.3913043,0.133489461 11.373208,1.10796253 11.440188,2.44285714 C11.480376,3.4440281 12.0564042,3.85784543 12.5922444,4.39180328 C12.8869565,4.68548009 13.3156287,5.09929742 13.3022327,5.48641686 C13.2888367,5.8735363 12.8735605,6.19391101 12.5922444,6.47423888 C12.2841363,6.78126464 12.0430082,7.0882904 11.8956522,7.40866511 C11.6277321,7.99601874 11.6545241,8.9704918 11.6545241,9.8381733 L11.6545241,15.6983607 L15.8072855,15.6983607 C15.8206816,13.8028103 15.8206816,11.7604215 15.8206816,9.86487119 Z M111.012691,14.3367681 L112.285311,14.3367681 L112.285311,14.5103044 L111.749471,14.5103044 L111.749471,15.6983607 L111.535135,15.6983607 L111.535135,14.5103044 L111.012691,14.5103044 L111.012691,14.3367681 Z M113.705288,14.3367681 L113.906228,14.3367681 L113.906228,15.6983607 L113.691892,15.6983607 L113.691892,14.630445 L113.223032,15.1644028 L113.182844,15.1644028 L112.713984,14.630445 L112.713984,15.6983607 L112.499647,15.6983607 L112.499647,14.3367681 L112.700588,14.3367681 L113.209636,14.8974239 L113.705288,14.3367681 Z" id="Shape"></path>
                </g>
            </g>
        </g>
    </g>
</svg>