<?xml version="1.0" encoding="UTF-8"?>
<svg width="102px" height="72px" viewBox="0 0 102 72" version="1.1" xmlns="http://www.w3.org/2000/svg" xmlns:xlink="http://www.w3.org/1999/xlink">
    <!-- Generator: Sketch 41.2 (35397) - http://www.bohemiancoding.com/sketch -->
    <title>Artboard 2</title>
    <desc>Created with Sketch.</desc>
    <defs>
        <polygon id="path-1" points="7.68181429 0.351101124 0.72557619 0.351101124 0.72557619 7.18325393 7.68181429 7.18325393 7.68181429 0.351101124"></polygon>
        <polygon id="path-3" points="7.47069048 0.351101124 0.634261905 0.351101124 0.634261905 7.18268764 7.47069048 7.18268764 7.47069048 0.351101124"></polygon>
        <polygon id="path-5" points="1.09710934e-20 0.417114607 1.09710934e-20 7.24902472 6.7165381 7.24902472 6.7165381 0.417114607 0 0.417114607"></polygon>
    </defs>
    <g id="Page-1" stroke="none" stroke-width="1" fill="none" fill-rule="evenodd">
        <g id="Artboard-2">
            <g id="Page-1">
                <path d="M99.0338238,65.8583191 C99.0338238,65.3777798 98.4347762,65.3777798 98.0745381,65.3777798 L97.1144429,65.3777798 L97.1144429,66.4577798 L98.3141571,66.4577798 C98.7933952,66.4577798 99.0338238,66.4577798 99.0338238,65.8583191 L99.0338238,65.8583191 Z M98.7933952,68.7358921 L97.953919,67.0572404 L97.1144429,67.0572404 L97.1144429,68.7358921 L96.3947762,68.7358921 L96.3947762,64.7791281 L98.3141571,64.7791281 C98.6735857,64.7791281 99.0338238,64.7791281 99.3940619,65.0202067 C99.7534905,65.2580494 99.7534905,65.6180494 99.7534905,65.9780494 C99.7534905,66.6972404 99.3940619,67.0572404 98.7933952,67.0572404 L99.633681,68.7358921 L98.7933952,68.7358921 Z M97.8357286,63.8212854 C96.2757762,63.8212854 94.9562524,65.1383191 94.9562524,66.8185888 C94.9562524,68.3750831 96.2757762,69.6929258 97.8357286,69.6929258 C99.5138714,69.6929258 100.833395,68.3750831 100.833395,66.8185888 C100.833395,65.1383191 99.5138714,63.8212854 97.8357286,63.8212854 L97.8357286,63.8212854 Z M97.8357286,63.1012854 C99.8733,63.1012854 101.552252,64.7791281 101.552252,66.8185888 C101.552252,68.7358921 99.8733,70.4129258 97.8357286,70.4129258 C95.9163476,70.4129258 94.2349667,68.7358921 94.2349667,66.8185888 C94.2349667,64.7791281 95.9163476,63.1012854 97.8357286,63.1012854 L97.8357286,63.1012854 Z" id="Fill-1" fill="#2E2E2E"></path>
                <polygon id="Fill-3" fill="#2E2E2E" points="23.7497286 61.4602517 24.7082048 60.1416 24.8280143 59.6626787 25.547681 58.8237573 26.6275857 57.5051056 27.4670619 56.6653753 28.3065381 55.8264539 28.7865857 55.3467236 29.2658238 54.8686112 29.7450619 54.3888809 29.9854905 54.2683416 30.225919 54.3888809 30.1061095 54.7488809 29.3864429 55.7075326 28.6667762 57.0253753 27.947919 57.8659146 26.6275857 59.783218 25.9071095 60.5016 25.1866333 60.9813303 24.7082048 61.4602517 23.9885381 62.299173 22.7896333 63.6186337 22.3095857 64.2180944 21.589919 65.1775551 20.7496333 66.1353978"></polygon>
                <polygon id="Fill-5" fill="#2E2E2E" points="30.1057857 67.5734562 30.3454048 66.8550742 30.7048333 66.3753438 31.065881 65.5348045 31.4245 64.9361528 31.6649286 64.3383101 31.783119 63.6183101 31.783119 63.0196584 32.0243571 62.4185798 32.3845952 61.7010067 32.7448333 60.7423551 32.8646429 60.1420854 33.2240714 59.663164 33.4636905 59.0628944 33.5835 58.7037034 33.343881 58.4634337 33.2240714 58.224782 33.5835 57.505591 33.9429286 56.9061303 34.4237857 56.1861303 34.7840238 55.4677483 35.1434524 55.1077483 35.744119 54.0293663 36.3431667 52.9493663 37.0628333 52.4704449 37.661881 51.7520629 38.2625476 51.1526022 38.9822143 50.1939506 39.1004048 49.9536809 39.701881 49.3550292 39.5812619 49.8347596 39.4614524 50.6720629 38.9822143 51.6331416 38.8624048 52.2309843 38.7417857 52.7099056 38.5021667 53.3093663 38.5021667 53.7899056 38.3815476 54.0293663 38.3815476 54.268827 38.5021667 54.5090966 38.5021667 55.707209 38.2625476 56.427209 37.7816905 57.144782 37.3032619 57.9853213 36.8232143 58.7037034 36.4637857 59.4228944 35.9829286 60.1420854 35.383881 60.6218157 35.1434524 60.7423551 34.6634048 61.3410067 34.0635476 62.1799281 33.5835 62.8991191 33.1042619 63.2583101 32.8646429 63.7380404 32.6250238 64.0980404 32.5044048 64.5769618 32.2655952 65.1772315 31.9061667 65.6561528 31.4245 66.0145348 31.065881 66.4950742 30.7048333 66.9748045 30.5850238 67.2142652 30.3454048 67.5734562 30.1057857 67.9326472"></polygon>
                <polygon id="Fill-7" fill="#2E2E2E" points="52.4150476 45.1596135 52.5348571 45.6385348 52.5348571 45.8771865 52.6554762 46.3569169 52.2952381 47.0761079 52.055619 47.5566472 52.2952381 48.5152989 52.8942857 50.3136809 53.2545238 51.8717933 53.6131429 53.3093663 54.094 54.5090966 55.0549048 55.5882876 55.6539524 56.0664 56.3744286 56.427209 56.7330476 56.787209 57.2139048 57.6245124 57.8121429 58.7037034 58.2921905 59.5426247 58.7730476 60.7423551 59.3712857 61.5796584 59.9719524 62.6596584 60.2115714 63.6183101 60.691619 64.4572315 61.0518571 65.2969618 61.5310952 66.3753438 61.7707143 66.9748045 62.1309524 67.9326472 62.4895714 68.6534562 62.850619 69.2512989 62.9704286 69.7310292 63.2100476 70.0910292 63.4496667 70.5707596 63.6900952 70.8102202 63.9297143 71.1686022 64.0503333 70.9299506 64.1701429 70.4502202 64.0503333 70.0910292 64.1701429 69.7310292 64.0503333 69.3726472 63.9297143 69.1323775 63.8090952 68.8921079 63.6900952 68.4123775 63.4496667 68.0523775 63.2100476 67.5734562 63.0902381 66.9748045 63.0902381 66.6148045 62.9704286 66.3753438 62.9704286 66.0145348 63.0902381 65.6561528 63.3290476 65.5348045 63.3290476 65.1772315 63.2100476 64.6966921 62.9704286 64.0980404 62.73 63.6183101 62.2507619 63.1393888 61.8905238 62.6596584 61.5310952 61.9396584 61.2914762 61.2212764 61.0518571 60.6218157 60.8114286 60.2618157 60.452 59.3023551 60.2115714 58.3445124 59.8529524 57.7450517 59.7315238 57.3842427 59.6125238 57.0258607 59.8529524 56.6658607 60.0909524 56.427209 60.0909524 55.9466697 59.8529524 55.347209 59.7315238 54.8682876 59.3712857 54.3885573 59.1316667 54.0293663 59.0110476 53.549636 58.7730476 53.189636 58.412 52.5909843 58.1715714 52.1120629 57.9327619 51.5117933 57.4527143 50.7926022 57.2139048 50.1939506 56.4934286 49.3550292 56.013381 48.7547596 55.8935714 48.5152989 55.4127143 47.9158382 55.0549048 47.1982652 54.6946667 46.7169169 54.333619 45.9985348 54.094 45.6385348 53.6131429 44.8004225 53.0140952 43.9606921 52.6554762 43.3604225 52.2952381 42.7625798 51.8151905 42.1623101 51.2161429 41.3233888"></polygon>
                <polygon id="Fill-9" fill="#2E2E2E" points="59.1315857 47.0761888 59.6124429 47.5567281 60.2114905 48.2751101 60.8113476 48.8745708 61.5310143 49.5937618 62.250681 50.3137618 62.9703476 51.1526831 63.4495857 51.7521438 64.1700619 52.4705258 64.409681 52.9494472 64.6493 53.1897169 64.7691095 53.5497169 64.888919 54.3886382 65.0087286 54.8683685 65.3689667 55.2275596 65.9680143 55.8262112 66.8074905 56.7872899 67.5287762 57.3843236 68.2484429 57.9845933 69.5671571 59.1835146 69.9273952 59.6632449 70.1662048 60.1413573 70.4066333 60.6218966 70.7668714 61.100818 71.1254905 61.5797393 71.6063476 62.2989303 71.8459667 62.8992 72.2053952 63.4978517 72.6862524 64.0981213 72.9250619 64.8173124 73.2853 65.1773124 73.524919 65.7751551 73.7653476 66.135964 74.0049667 66.7346157 74.3635857 67.3348854 74.8444429 68.0524584 75.204681 68.8921888 74.4842048 67.9327281 73.7653476 66.9748854 72.4458238 65.415964 71.4865381 64.4573124 70.7668714 63.7381213 70.1662048 62.8992 69.4465381 62.2989303 68.846681 61.5797393 68.3682524 61.2205483 67.7675857 61.100818 67.4089667 60.9818966 67.0471095 60.6218966 66.8074905 60.1413573 66.4488714 59.7829753 65.8490143 59.0621663 65.2491571 58.4635146 64.7691095 57.9845933 64.409681 57.6245933 64.0502524 57.0259416 63.6900143 56.3067506 63.3297762 55.7072899 62.9703476 54.8683685 62.4894905 54.0294472 61.7706333 52.5902562 61.2913952 51.7521438 60.8113476 50.6721438 60.451919 49.9537618 59.9718714 49.1148404 59.7314429 48.5153798 59.3712048 47.9159191 59.1315857 47.7969978 59.1315857 47.5567281 58.8919667 47.1975371 58.6523476 46.4775371"></polygon>
                <polygon id="Fill-11" fill="#2E2E2E" points="69.6870476 54.0292045 70.1662857 54.6286652 70.6471429 55.3470472 70.8867619 55.7070472 71.0057619 56.1859685 71.0057619 56.9059685 71.2461905 57.2643506 71.6064286 57.6243506 71.9650476 58.2254292 72.5665238 58.7035416 73.0457619 59.4227326 73.525 59.7827326 73.8852381 60.2616539 74.9651429 61.4605753 75.4435714 62.060036 75.9244286 62.5405753 76.2838571 62.8989573 76.7639048 63.3778787 76.0450476 62.1797663 75.2047619 61.1005753 74.7247143 60.2616539 74.4842857 59.9032719 74.2446667 59.5432719 74.2446667 58.7035416 74.1248571 58.3443506 73.8852381 57.9851596 73.1647619 57.1454292 72.4459048 56.3073169 71.7270476 55.5881258 71.0057619 54.9878562 70.4067143 54.3883955 69.9274762 53.7897438 69.3268095 53.4305528"></polygon>
                <path d="M8.51578571,48.996 C8.51578571,56.1862921 10.4351667,63.0198202 13.7930714,68.8922697 L17.5104048,64.9363146 L21.1103571,60.2619775 L25.3085476,55.7073708 L33.8239286,45.8773483 L34.7840238,44.679236 L35.9829286,44.4397753 L36.7017857,43.9600449 L40.9015952,40.0048989 L42.5797381,38.5673258 L47.7380238,34.4908315 L48.6965,34.0119101 L49.8962143,34.2513708 L51.3355476,35.6897528 L53.8547857,38.0875955 L55.7733571,38.5673258 L58.7726429,41.0840899 L62.6105952,44.679236 L65.0084048,45.6386966 L68.248119,47.916 L70.8871667,51.0330337 L74.6053095,56.1862921 L77.4823571,59.3025169 L79.7619762,62.5400899 L81.4417381,64.2179326 L83.000881,66.2549663 L84.0799762,67.932809 C87.437881,62.4187416 88.3979762,55.3473708 88.3979762,48.996 C88.3979762,26.9397303 70.5269286,9.07968539 48.4576905,9.07968539 C26.3868333,9.07968539 8.51578571,26.9397303 8.51578571,48.996" id="Fill-13" fill="#2E2E2E"></path>
                <polygon id="Fill-15" fill="#2E2E2E" points="22.3093429 11.1172854 21.7102952 13.6340494 23.9882952 15.0740494 21.3492476 15.3127011 20.7493905 17.8302742 19.6702952 15.4324315 17.0312476 15.5521618 19.0712476 13.8751281 17.9913429 11.4756674 20.2701524 12.7951281"></polygon>
                <g id="Group-19" transform="translate(48.571429, 0.458211)">
                    <mask id="mask-2" fill="white">
                        <use xlink:href="#path-1"></use>
                    </mask>
                    <g id="Clip-18"></g>
                    <polygon id="Fill-17" fill="#2E2E2E" mask="url(#mask-2)" points="7.68181429 3.22729888 5.28319524 4.54595056 5.88305238 7.18325393 3.96367143 5.3856809 1.68567143 6.82325393 1.68567143 6.70433258 2.76395714 4.3056809 0.72557619 2.50810787 3.36300476 2.74918652 4.44290952 0.350534831 5.04195714 2.9878382"></polygon>
                </g>
                <polygon id="Fill-20" fill="#2E2E2E" points="38.5021667 4.04575281 36.9422143 6.20251685 38.5021667 8.36170787 38.5021667 8.47982022 35.9829286 7.52197753 34.4237857 9.67955056 34.4237857 7.04224719 31.9061667 6.08278652 34.4237857 5.36440449 34.4237857 2.72710112 34.5435952 2.72710112 35.9829286 4.88386517"></polygon>
                <g id="Group-24" transform="translate(39.666667, 0.458211)">
                    <mask id="mask-4" fill="white">
                        <use xlink:href="#path-3"></use>
                    </mask>
                    <g id="Clip-23"></g>
                    <polygon id="Fill-22" fill="#2E2E2E" mask="url(#mask-4)" points="7.47069048 2.50835056 5.55292857 4.3059236 6.63121429 6.70376629 6.51140476 6.70376629 4.35240476 5.3859236 2.31321429 7.18268764 2.91307143 4.54619326 0.634261905 3.22754157 0.634261905 3.10781124 3.2725 2.86754157 3.75254762 0.350777528 4.83164286 2.74942921"></polygon>
                </g>
                <polygon id="Fill-25" fill="#2E2E2E" points="29.9855714 6.92300225 28.7866667 9.31922697 30.7052381 11.117609 28.186 10.758418 26.9879048 13.1546427 26.5070476 10.5181483 23.868 10.1581483 26.2674286 8.96084494 25.7881905 6.32354157 27.5869524 8.12030562"></polygon>
                <polygon id="Fill-27" fill="#2E2E2E" points="6.23665238 31.0149303 6.95712857 33.6522337 9.59536667 33.6522337 7.43555714 35.0898067 8.27584286 37.6065708 6.11684286 36.0492674 3.95784286 37.4876494 4.7989381 35.0898067 2.7589381 33.5316944 2.7589381 33.412773 5.27736667 33.5316944"></polygon>
                <polygon id="Fill-29" fill="#2E2E2E" points="10.1949 23.3437753 10.5551381 25.9810787 13.1925667 26.461618 10.7947571 27.539191 11.1549952 30.1756854 9.35542381 28.257573 6.83699524 29.336764 8.1549 27.0602697 6.35775714 25.1421573 8.87456667 25.6218876"></polygon>
                <polygon id="Fill-31" fill="#2E2E2E" points="15.7122095 16.5116225 15.5932095 19.1489258 17.991019 20.1067685 17.991019 20.2281169 15.4725905 20.8267685 15.352781 23.3435326 15.352781 23.4640719 13.9134476 21.1859596 11.2744 21.7862292 12.9541619 19.7475775 11.6338286 17.5900045 11.6338286 17.4702742 14.0340667 18.5502742"></polygon>
                <polygon id="Fill-33" fill="#2E2E2E" points="3.47844286 39.0456 3.59744286 39.0456 4.79877619 41.4434427 7.43620476 40.9637124 5.51682381 42.8818247 6.83634762 45.1599371 6.7165381 45.1599371 4.4385381 43.9602067 2.51834762 45.8767011 2.87939524 43.2410157 0.598966667 42.0420944 3.11820476 41.6837124"></polygon>
                <polygon id="Fill-35" fill="#2E2E2E" points="5.1559381 65.4158831 5.27736667 65.4158831 7.55617619 66.6148045 9.47555714 64.8172315 8.9947 67.4545348 11.274319 68.6534562 8.63608095 69.0118382 8.15522381 71.6491416 6.95712857 69.2512989 4.43789048 69.4923775 6.35727143 67.8129169"></polygon>
                <polygon id="Fill-37" fill="#2E2E2E" points="3.1179619 56.787209 5.03653333 58.4634337 7.4359619 57.2645124 6.23705714 59.663164 8.2754381 61.3410067 5.63639048 61.1007371 4.43829524 63.4977708 3.9574381 60.8620854 1.3192 60.6218157 3.59800952 59.3023551"></polygon>
                <g id="Group-41" transform="translate(0.000000, 47.379560)">
                    <mask id="mask-6" fill="white">
                        <use xlink:href="#path-5"></use>
                    </mask>
                    <g id="Clip-40"></g>
                    <polygon id="Fill-39" fill="#2E2E2E" mask="url(#mask-6)" points="2.3985381 0.417114607 4.07749048 2.45576629 6.59672857 1.61603596 5.03677619 3.7728 6.7165381 5.92956404 6.59672857 5.92956404 4.07749048 5.0906427 2.51834762 7.24902472 2.51834762 4.61253034 -8.09523808e-05 3.89333933 2.51834762 3.05360899"></polygon>
                </g>
                <polygon id="Fill-42" fill="#2E2E2E" points="94.2755238 34.0115056 92.2371429 35.570427 93.076619 38.087191 92.956 38.087191 90.917619 36.5290787 88.758619 38.087191 89.5972857 35.570427 87.4382857 34.0115056 90.0773333 34.0115056 90.917619 31.4939326 91.6364762 34.0115056"></polygon>
                <polygon id="Fill-44" fill="#2E2E2E" points="89.9575238 29.4569798 87.5597143 28.3777888 85.7609524 30.2959011 86.1195714 27.6585978 83.7209524 26.5802157 86.358381 26.1012944 86.718619 23.463991 87.9191429 25.7412944 90.5565714 25.261564 88.758619 27.1796764"></polygon>
                <polygon id="Fill-46" fill="#2E2E2E" points="85.7605476 22.0243955 85.7605476 22.1441258 83.119881 21.4265528 81.6813571 23.7030472 81.5615476 21.0665528 79.0423095 20.4662831 81.4417381 19.5076315 81.3219286 16.7505978 83.000881 18.7884404 85.4003095 17.8297888 85.5193095 17.8297888 84.0799762 19.9873618"></polygon>
                <polygon id="Fill-48" fill="#2E2E2E" points="80.1222952 15.7926742 77.4824381 15.5524045 76.4033429 17.9494382 75.8042952 15.4326742 73.1644381 15.1940225 75.4440571 13.8753708 74.8442 11.2372584 76.8833905 12.9151011 79.1622 11.5972584 78.0839143 13.9942921"></polygon>
                <polygon id="Fill-50" fill="#2E2E2E" points="73.164681 10.3983371 70.5264429 10.6377978 69.9273952 13.2759101 68.846681 10.8788764 66.2084429 11.1175281 68.2484429 9.31914607 67.1685381 6.92292135 69.4465381 8.23995506 71.365919 6.44319101 70.8874905 8.96076404"></polygon>
                <polygon id="Fill-52" fill="#2E2E2E" points="65.0085667 6.20251685 62.6107571 7.04224719 62.6107571 9.7992809 61.0516143 7.64089888 58.5323762 8.60035955 58.5323762 8.47982022 60.091519 6.32305618 58.5323762 4.28602247 58.5323762 4.16467416 61.0516143 5.00440449 62.4901381 2.84683146 62.4901381 5.36440449"></polygon>
                <polygon id="Fill-54" fill="#2E2E2E" points="95.3554286 60.9814921 92.7155714 61.2209528 92.1165238 63.7377169 91.1572381 61.3406831 88.5181905 61.5793348 90.5565714 59.7825708 89.5972857 57.3847281 91.7579048 58.7041888 93.7954762 57.0255371 93.195619 59.5431101"></polygon>
                <polygon id="Fill-56" fill="#2E2E2E" points="92.4761952 69.6117843 89.8379571 69.2517843 88.7580524 71.648818 88.2788143 69.1320539 85.6405762 68.7728629 87.9185762 67.4542112 87.437719 64.8169079 89.3571 66.6152899 91.636719 65.4155596 91.7573381 65.4155596 90.5568143 67.6928629"></polygon>
                <polygon id="Fill-58" fill="#2E2E2E" points="96.9144095 52.1118202 96.7946 52.1118202 94.2753619 52.8293933 94.0357429 55.4675056 92.7154095 53.1893933 90.196981 53.7896629 90.0771714 53.7896629 91.8759333 51.7526292 90.5564095 49.4745169 92.9558381 50.4331685 94.6347905 48.5158652 94.3951714 51.1523596"></polygon>
                <polygon id="Fill-60" fill="#2E2E2E" points="96.4345238 43.2414202 94.0359048 44.3206112 94.2755238 46.9571056 92.5965714 44.9192629 90.1971429 45.9984539 90.0765238 45.9984539 91.5166667 43.7211506 89.7179048 41.6833079 92.3569524 42.2819596 93.6756667 40.0046562 93.9160952 42.6419596"></polygon>
                <path d="M18.6933619,35.6603056 C18.0926952,35.3019236 17.7332667,34.3424629 17.6134571,33.6224629 C17.4928381,33.0230022 17.6134571,32.5440809 17.9720762,32.0651596 C18.2125048,31.5854292 18.932981,31.5854292 19.293219,31.7051596 C19.6526476,31.9454292 19.8914571,32.1848899 19.7716476,32.5440809 C19.6526476,33.1443506 19.051981,33.5035416 19.051981,34.2227326 C19.051981,34.8213843 19.8914571,35.1813843 20.3706952,35.3019236 C21.571219,35.6603056 22.6511238,35.5405753 23.7310286,34.8213843 C27.5681714,31.5854292 26.8485048,25.8327101 31.5275524,23.5537888 L32.1266,23.4348674 C30.6872667,24.9913618 30.4476476,26.5510921 29.8477905,28.3494742 C29.8477905,28.4692045 30.3270286,28.3494742 30.5674571,28.3494742 C32.3670286,27.6302831 33.4453143,26.0705528 33.3246952,24.2745978 C33.3246952,23.0748674 32.3670286,21.9956764 31.2879333,21.6364854 C28.1688381,20.5581034 24.9291238,21.1567551 22.7701238,23.5537888 C21.4506,25.1119011 20.8515524,26.5510921 21.3316,28.4692045 C21.4506,28.9481258 21.9314571,29.4270472 22.5321238,29.5475865 C23.1303619,29.7870472 23.7310286,29.9075865 24.3300762,29.5475865 C25.2893619,29.3073169 23.2501714,27.3900135 25.6504095,27.3900135 C25.889219,27.3900135 26.1296476,27.7500135 26.1296476,28.1092045 C26.2486476,28.7086652 25.889219,29.5475865 25.409981,29.9075865 C24.3300762,30.6259685 22.8915524,30.9867775 21.571219,30.6259685 C20.7317429,30.3856989 19.8914571,29.7870472 19.412219,28.9481258 C18.8131714,27.8689348 19.051981,25.8327101 19.7716476,24.8724404 C21.571219,21.8759461 24.9291238,20.3178337 28.2878381,20.1981034 C30.9260762,20.078373 33.5659333,20.797564 35.0044571,22.9551371 C35.6051238,23.9137888 35.6051238,25.8327101 34.8854571,26.7897438 C33.6857429,28.4692045 31.5275524,29.3073169 29.4875524,29.4270472 C29.0066952,32.3046202 26.7286952,34.9411146 23.9698381,35.8997663 C22.4123143,36.3811146 20.1318857,36.6197663 18.6933619,35.6603056" id="Fill-62" fill="#FEFEFE"></path>
                <path d="M43.5213762,30.8664 C45.080519,30.2669393 45.4407571,28.8285573 46.1604238,27.6304449 C44.8400905,27.3901753 43.7601857,29.1885573 43.2809476,30.3858607 C43.1619476,30.6261303 43.2809476,30.9861303 43.5213762,30.8664 M57.0744238,30.0274787 C57.0744238,30.3858607 56.7141857,30.8664 57.0744238,31.224782 C57.1950429,31.4650517 57.4338524,31.3453213 57.555281,31.224782 C58.5137571,30.0274787 58.9938048,29.1885573 59.2334238,27.7501753 C59.2334238,27.5107146 58.9938048,27.3901753 58.8739952,27.5107146 C57.7940905,28.1093663 57.555281,28.9482876 57.0744238,30.0274787 M34.5267571,30.8664 C35.965281,30.147209 36.444519,28.708827 37.1633762,27.5107146 C35.8446619,27.1499056 34.4061381,29.1885573 34.0459,30.6261303 C34.0459,30.7466697 34.2863286,30.9861303 34.5267571,30.8664 M71.9469952,31.945591 L71.9469952,31.3453213 C71.1083286,31.945591 70.2688524,32.4245124 69.3087571,32.0653213 C68.948519,31.8250517 69.0691381,31.3453213 69.1897571,30.9861303 C69.5491857,29.9077483 69.7879952,29.427209 70.2688524,28.2282876 C70.1490429,27.988827 69.9086143,28.2282876 69.7879952,28.2282876 C68.2288524,29.427209 68.1090429,30.6261303 67.3893762,32.0653213 L65.8310429,32.0653213 L66.3094714,31.224782 C65.8310429,31.7053213 65.5906143,31.7053213 64.9907571,31.945591 C64.6313286,32.0653213 64.151281,32.4245124 63.6720429,32.0653213 C63.4324238,31.8250517 63.5514238,31.585591 63.4324238,31.3453213 C62.7119476,31.945591 61.873281,32.5442427 60.9123762,32.0653213 C60.4331381,31.8250517 60.6727571,31.224782 60.7933762,30.8664 L61.6328524,28.8285573 C61.3924238,28.9482876 60.9123762,29.068018 60.5529476,29.1885573 C59.833281,30.7466697 58.6335667,32.303973 56.7141857,32.4245124 C56.2349476,32.303973 55.6359,31.8250517 55.515281,31.3453213 C55.3954714,31.224782 55.6359,31.224782 55.515281,31.224782 C54.9162333,31.8250517 53.9561381,32.4245124 52.8770429,32.0653213 C52.3961857,31.8250517 52.6374238,31.1058607 52.7572333,30.6261303 C53.2364714,29.5477483 53.1174714,29.6674787 53.716519,28.4693663 C53.9561381,27.6304449 52.9968524,27.988827 52.8770429,28.349636 C51.7971381,29.6674787 51.7971381,30.6261303 51.0774714,31.945591 C50.5966143,32.0653213 49.9983762,31.945591 49.5183286,31.945591 C50.1173762,30.6261303 50.7180429,29.6674787 51.3179,28.2282876 C51.3179,28.1093663 51.3179,27.8690966 51.1964714,27.8690966 C50.3578048,27.988827 50.1173762,28.708827 49.6389476,29.3074787 L48.3186143,32.0653213 L46.9999,32.0653213 C46.9999,31.7053213 47.1197095,31.4650517 47.2387095,31.224782 C46.6404714,31.7053213 45.9199952,32.303973 44.961519,32.0653213 C44.7194714,31.8250517 44.601281,31.4650517 44.7194714,31.1058607 C44.2410429,31.224782 43.8808048,31.7053213 43.5213762,31.945591 C43.0413286,32.0653213 42.561281,32.1850517 42.0812333,32.0653213 C41.3615667,31.224782 41.9614238,30.147209 42.4414714,29.427209 L42.9207095,28.8285573 C42.561281,28.708827 42.0812333,29.068018 41.7209952,28.708827 L41.4821857,28.1093663 C40.283281,29.1885573 40.1626619,30.5064 39.4429952,31.945591 L38.1234714,31.945591 C38.1234714,31.4650517 38.2440905,31.585591 38.4829,31.1058607 C37.6442333,31.7053213 36.9245667,32.303973 35.8446619,31.8250517 C35.6050429,31.585591 35.7248524,31.224782 35.6050429,30.9861303 C34.8853762,31.585591 34.0459,32.303973 32.9659952,31.8250517 C32.6057571,31.585591 32.4859476,31.1058607 32.7255667,30.6261303 C33.2056143,28.8285573 34.8853762,27.1499056 36.6849476,26.5512539 C37.4038048,26.4315236 38.2440905,26.4315236 38.8431381,26.7899056 L37.0435667,30.3858607 C37.0435667,30.6261303 37.0435667,30.8664 37.2839952,30.9861303 C39.2033762,30.147209 39.4429952,28.2282876 40.283281,26.7899056 L41.6019952,26.7899056 C41.6019952,27.1499056 41.2425667,27.5107146 41.3615667,27.7501753 C41.9614238,27.2704449 42.561281,26.4315236 43.2809476,26.5512539 C43.5213762,27.1499056 42.561281,27.6304449 42.9207095,28.2282876 C43.7601857,28.1093663 44.3608524,27.2704449 45.080519,27.0309843 C45.9199952,26.5512539 46.9999,26.4315236 47.8393762,26.7899056 C47.358519,28.1093663 46.6404714,29.3074787 46.0398048,30.6261303 C46.0398048,30.8664 46.0398048,30.9861303 46.2794238,30.9861303 C47.1197095,30.7466697 47.2387095,30.0274787 47.8393762,29.5477483 L49.398519,26.7899056 L50.5966143,26.7899056 C50.4776143,27.0309843 50.3578048,27.2704449 50.3578048,27.5107146 C51.0774714,27.0309843 51.7971381,26.4315236 52.7572333,26.7899056 C52.9968524,27.0309843 52.9968524,27.2704449 53.1174714,27.5107146 C53.8363286,26.909636 54.6758048,26.3109843 55.6359,26.909636 C55.875519,27.2704449 55.6359,27.5107146 55.515281,27.7501753 C55.0360429,28.9482876 54.4361857,29.787209 54.1957571,30.9861303 C54.3163762,31.224782 54.5559952,31.1058607 54.6758048,30.9861303 C56.2349476,30.0274787 55.7557095,28.708827 57.0744238,27.5107146 C58.034519,26.7899056 59.1144238,26.1912539 60.312519,26.7899056 C60.7933762,27.1499056 60.6727571,27.7501753 60.7933762,28.2282876 C61.6328524,28.349636 62.352519,27.6304449 62.7119476,26.909636 C63.0713762,26.7899056 63.6720429,26.7899056 64.0314714,26.909636 L62.352519,30.7466697 C62.352519,30.8664 62.352519,30.9861303 62.471519,31.1058607 C64.3900905,30.2669393 64.5123286,28.4693663 65.3509952,26.909636 C65.8310429,26.7899056 66.3094714,26.909636 66.7903286,26.909636 C66.3094714,28.2282876 65.5906143,29.1885573 65.1113762,30.5064 C65.1113762,30.7466697 64.8709476,31.1058607 65.2303762,30.9861303 C66.9109476,30.0274787 67.5091857,28.5890966 68.2288524,26.909636 C68.7080905,26.7899056 69.0691381,26.909636 69.5491857,26.909636 C69.5491857,27.1499056 69.3087571,27.5107146 69.3087571,27.7501753 C70.0284238,27.1499056 70.8679,26.4315236 71.8279952,26.7899056 C72.3080429,27.1499056 72.0684238,27.7501753 71.9469952,28.1093663 L70.6274714,30.8664 C70.6274714,30.9861303 70.7480905,31.1058607 70.8679,31.1058607 C72.5468524,30.3858607 72.787281,28.8285573 73.6267571,27.3901753 C73.266519,27.3901753 73.0269,27.2704449 72.787281,27.2704449 C72.5468524,26.4315236 73.6267571,26.909636 73.8663762,26.7899056 L74.9470905,24.6331416 L76.1459952,24.6331416 L75.306519,26.7899056 C75.5469476,26.909636 75.9071857,26.7899056 76.2649952,26.7899056 C76.2649952,27.0309843 76.2649952,27.3901753 76.0253762,27.5107146 L76.1459952,27.5107146 C75.9071857,27.5107146 75.5469476,27.5107146 74.9470905,27.3901753 L73.3871381,30.8664 C73.3871381,31.224782 73.1467095,31.7053213 73.6267571,31.945591 C74.5868524,32.0653213 75.0660905,31.1058607 75.5469476,30.3858607 L76.3864238,30.3858607 C75.4263286,32.0653213 74.7058524,32.7837034 73.5069476,32.7837034 C73.0269,32.7837034 72.0684238,32.4245124 71.9469952,31.945591" id="Fill-64" fill="#FEFEFE"></path>
            </g>
        </g>
    </g>
</svg>