<?xml version="1.0" encoding="UTF-8" standalone="no"?>
<svg xmlns="http://www.w3.org/2000/svg" height="72px" width="134px" version="1.1" xmlns:xlink="http://www.w3.org/1999/xlink" viewBox="0 0 134 72"><!-- Generator: Sketch 41.2 (35397) - http://www.bohemiancoding.com/sketch -->
 <title>Artboard</title>
 <desc>Created with Sketch.</desc>
 <g id="Page-1" fill-rule="evenodd" fill="none">
  <g id="Artboard" fill="#2E2E2E">
   <g id="Showtime" transform="translate(0 12)">
    <g id="Page-1">
     <g id="Showtime">
      <path id="Fill-2" d="m34.189 24.87c0-9.759 3.462-15.879 7.748-16.541-4.286-5.1274-11.374-7.9399-17.803-7.9399-7.087 0.00002-13.516 2.9775-17.967 7.9402 4.285 0.8272 5.605 4.4657 5.605 9.9247h-5.1103c0-3.308-0.6599-4.962-2.6376-4.962-0.8243 0-1.4835 0.496-1.8131 1.157 0 0.166-0.1652 0.331-0.1652 0.331-0.1644 0.496-0.3296 0.993-0.3296 1.489 0 6.617 11.044 6.285 11.044 16.707 0 3.97-3.1312 7.774-6.5931 7.774 4.6161 4.963 10.714 7.94 17.967 7.94 6.924 0 13.188-2.977 17.638-7.774-4.121-0.993-7.583-6.782-7.583-16.046zm-2.307 15.88h-5.604v-13.729h-5.935v13.729h-5.44v-31.759l5.44-0.0002v12.902h5.935v-12.902l5.604-0.0002v31.759z"/>
      <path id="Fill-3" d="m4.8485 35.788c1.4836 0 2.6368-1.489 2.6368-3.474 0-3.97-3.6263-4.797-7.4178-8.27v1.324c0.13787 6.225 2.3144 10.42 4.781 10.42"/>
      <path id="Fill-4" d="m39.63 24.375c0-5.46 1.483-10.752 4.285-10.752 3.461 0 4.286 8.27 4.286 10.917 0 5.624-1.813 10.917-4.286 10.917-2.802 0-4.285-5.459-4.285-11.082"/>
      <polyline id="Fill-5" points="94.685 9.4873 71.443 9.4873 69.136 27.683 66.663 9.4873 61.553 9.4873 58.915 27.683 58.751 27.683 56.773 9.4873 51.663 9.4873 55.784 40.419 60.728 40.419 63.531 20.735 63.696 20.735 66.333 40.419 71.443 40.419 74.74 14.284 79.52 14.284 79.52 40.419 85.125 40.419 85.125 14.284 90.235 14.284 90.235 40.419 96.004 40.419 96.004 9.4873 94.685 9.4873"/>
      <polyline id="Fill-6" points="98.642 9.4873 106.22 9.4873 108.7 25.367 111.33 9.4873 118.75 9.4873 118.75 40.419 113.64 40.419 113.64 17.758 109.85 40.419 106.72 40.419 102.93 17.758 102.76 17.758 102.76 40.419 98.642 40.419 98.642 9.4873"/>
      <polyline id="Fill-7" points="121.39 9.4873 134.08 9.4873 134.08 14.284 126.99 14.284 126.99 22.059 132.27 22.059 132.27 27.186 126.99 27.186 126.99 35.622 134.41 35.622 134.41 40.419 121.39 40.419 121.39 9.4873"/>
     </g>
    </g>
   </g>
  </g>
 </g>
</svg>
